HW2/01_RTL/core.vcd
$date
	Fri Jun 28 12:49:30 2024
$end

$version
	Synopsys VCS version S-2021.09_Full64
$end

$timescale
	100ps
$end

$comment Csum: 1 07c670844597a8f8 $end


$scope module testbed $end
$var reg 1 ! clk $end
$var reg 1 " rst_n $end
$var wire 32 # imem_addr [31:0] $end
$var wire 32 $ imem_inst [31:0] $end
$var wire 1 % dmem_wen $end
$var wire 32 & dmem_addr [31:0] $end
$var wire 32 ' dmem_wdata [31:0] $end
$var wire 32 ( dmem_rdata [31:0] $end
$var wire 2 ) mips_status [1:0] $end
$var wire 1 * mips_status_valid $end
$var reg 1 + jump $end
$var integer 32 , i $end
$var integer 32 - j $end
$var integer 32 . error_data $end
$var integer 32 / error_status $end
$var integer 32 0 over $end

$scope task reset $end
$upscope $end


$scope module u_core $end
$var wire 1 1 i_clk $end
$var wire 1 2 i_rst_n $end
$var wire 32 # o_i_addr [31:0] $end
$var wire 32 $ i_i_inst [31:0] $end
$var wire 1 % o_d_we $end
$var wire 32 & o_d_addr [31:0] $end
$var wire 32 ' o_d_wdata [31:0] $end
$var wire 32 ( i_d_rdata [31:0] $end
$var wire 2 ) o_status [1:0] $end
$var wire 1 * o_status_valid $end
$var reg 32 3 current_pc [31:0] $end
$var reg 32 4 next_pc [31:0] $end
$var reg 1 5 pc_overflow $end
$var reg 1 6 overflow_true $end
$var reg 32 7 count [31:0] $end
$var wire 1 8 Reg2Loc $end
$var wire 5 9 WriteReg [4:0] $end
$var wire 5 : RegA [4:0] $end
$var wire 5 ; RegB [4:0] $end
$var wire 32 < WriteData [31:0] $end
$var wire 32 = ReadA [31:0] $end
$var wire 32 > ReadB [31:0] $end
$var wire 32 ? ALUout [31:0] $end
$var wire 1 @ ALUcond $end
$var wire 6 A ALUopcode [5:0] $end
$var wire 1 B MemToReg $end
$var wire 1 C ALUovf $end
$var wire 32 D ALUinputA [31:0] $end
$var wire 32 E ALUinputB [31:0] $end
$var wire 1 F ALUen $end
$var wire 5 G rg_w_addr [4:0] $end
$var wire 32 H rg_w_data [31:0] $end
$var wire 5 I rg_r_addrA [4:0] $end
$var wire 5 J rg_r_addrB [4:0] $end
$var wire 32 K rg_r_dataA [31:0] $end
$var wire 32 L rg_r_dataB [31:0] $end
$var reg 1 M r_type $end
$var reg 1 N i_type $end
$var wire 1 O w_enable $end
$var wire 6 P opcode [5:0] $end
$var reg 4 Q state [3:0] $end
$var reg 4 R next_state [3:0] $end
$var reg 2 S next_status [1:0] $end
$var reg 2 T next_status_valid [1:0] $end
$var reg 1 U PCsrc $end
$var wire 32 V ALUPCRes [31:0] $end

$scope module alu1 $end
$var wire 1 1 i_clk $end
$var wire 1 2 i_rst_n $end
$var wire 1 F alu_en $end
$var wire 32 W i_data_a [31:0] $end
$var wire 32 X i_data_b [31:0] $end
$var wire 6 Y i_inst [5:0] $end
$var wire 1 Z o_valid $end
$var wire 1 [ o_busy $end
$var wire 32 ? o_data [31:0] $end
$var wire 1 @ o_cond $end
$var wire 1 C ovf $end
$var reg 2 \ curr_state [1:0] $end
$var reg 2 ] next_state [1:0] $end
$var reg 32 ^ ans [31:0] $end
$var reg 32 _ old [31:0] $end
$var reg 1 ` w_cond $end
$var reg 1 a locked $end
$var reg 1 b w_ovf $end

$scope function add $end
$var reg 32 c add [31:0] $end
$var reg 32 d i_data_a [31:0] $end
$var reg 32 e i_data_b [31:0] $end
$upscope $end


$scope function mul $end
$var reg 32 f mul [31:0] $end
$var reg 32 g i_data_a [31:0] $end
$var reg 32 h i_data_b [31:0] $end
$var reg 64 i direct_mult [63:0] $end
$upscope $end


$scope function count_leading_zeros48 $end
$var reg 6 j count_leading_zeros48 [5:0] $end
$var reg 48 k i_data_a [47:0] $end
$upscope $end


$scope function fp_add_amb $end
$var reg 32 l fp_add_amb [31:0] $end
$var reg 32 m i_data_a [31:0] $end
$var reg 32 n i_data_b [31:0] $end
$var reg 48 o mantissa_a [47:0] $end
$var reg 48 p mantissa_b [47:0] $end
$var reg 48 q mantissa_greater [47:0] $end
$var reg 8 r exp_a [7:0] $end
$var reg 8 s exp_b [7:0] $end
$var reg 8 t exp_greater [7:0] $end
$var reg 5 u leading_zeros [4:0] $end
$var reg 1 v s $end
$var reg 1 w flag $end
$upscope $end


$scope function fp_add_apb $end
$var reg 32 x fp_add_apb [31:0] $end
$var reg 32 y i_data_a [31:0] $end
$var reg 32 z i_data_b [31:0] $end
$var reg 48 { mantissa_a [47:0] $end
$var reg 48 | mantissa_b [47:0] $end
$var reg 48 } mantissa_greater [47:0] $end
$var reg 8 ~ exp_a [7:0] $end
$var reg 8 "! exp_b [7:0] $end
$var reg 8 "" exp_greater [7:0] $end
$var reg 5 "# leading_zeros [4:0] $end
$var reg 1 "$ s $end
$var reg 1 "% flag $end
$upscope $end


$scope function fp_add $end
$var reg 32 "& fp_add [31:0] $end
$var reg 32 "' i_data_a [31:0] $end
$var reg 32 "( i_data_b [31:0] $end
$upscope $end


$scope function fp_mul $end
$var reg 32 ") fp_mul [31:0] $end
$var reg 32 "* i_data_a [31:0] $end
$var reg 32 "+ i_data_b [31:0] $end
$var reg 24 ", mantissa_a [23:0] $end
$var reg 24 "- mantissa_b [23:0] $end
$var reg 23 ". fp_mantissa_result_shifted [22:0] $end
$var reg 48 "/ mantissa [47:0] $end
$var reg 8 "0 exp_a [7:0] $end
$var reg 8 "1 exp_b [7:0] $end
$var reg 8 "2 exp [7:0] $end
$var reg 5 "3 leading_zeros [4:0] $end
$var reg 1 "4 s $end
$var reg 1 "5 Gbit $end
$var reg 1 "6 Rbit $end
$var reg 1 "7 sticky_bit $end
$var reg 1 "8 shift $end
$upscope $end


$scope function slt $end
$var reg 32 "9 slt [31:0] $end
$var reg 32 ": i_data_a [31:0] $end
$var reg 32 "; i_data_b [31:0] $end
$var reg 64 "< direct_mult [63:0] $end
$upscope $end

$upscope $end


$scope module u_reg_file $end
$var wire 1 1 i_clk $end
$var wire 1 2 i_rst_n $end
$var wire 1 O w_enable $end
$var wire 5 G w_addr [4:0] $end
$var wire 32 H w_data [31:0] $end
$var wire 5 : r_addrA [4:0] $end
$var wire 5 ; r_addrB [4:0] $end
$var wire 32 "= r_dataA [31:0] $end
$var wire 32 "> r_dataB [31:0] $end
$var wire 32 "? r_data_w [31:0] $end
$var reg 32 "@ r_data_r [31:0] $end
$var integer 32 "A i $end
$upscope $end

$upscope $end


$scope module u_inst_mem $end
$upscope $end


$scope module u_data_mem $end
$upscope $end

$upscope $end

$enddefinitions $end

#0
$dumpvars
x@
xF
xC
xB
xU
x8
0!
x%
xw
xv
x"%
x"$
x"5
x"6
x"4
x"8
x"7
12
xN
0+
xa
x*
x[
xZ
x6
x5
xM
1"
x`
xO
xb
bxxxxxxxxxxxxxxxxxxxxxxxxxxxxxxxx V
bxxxxxxxxxxxxxxxxxxxxxxxxxxxxxxxx D
bxxxxxxxxxxxxxxxxxxxxxxxxxxxxxxxx E
bzzzzzz A
bxxxxxxxxxxxxxxxxxxxxxxxxxxxxxxxx ?
bxxxxxxxxxxxxxxxxxxxxxxxxxxxxxxxx =
bxxxxxxxxxxxxxxxxxxxxxxxxxxxxxxxx >
bxxxxx ;
bxxxxxxxxxxxxxxxxxxxxxxxxxxxxxxxx <
bxxxxx 9
bxxxxxxxxxxxxxxxxxxxxxxxxxxxxxxxx c
bxxxxxxxxxxxxxxxxxxxxxxxxxxxxxxxx d
bxxxxxxxxxxxxxxxxxxxxxxxxxxxxxxxx e
bxx ]
bxxxxxxxxxxxxxxxxxxxxxxxxxxxxxxxx ^
bxxxxxxxxxxxxxxxxxxxxxxxxxxxxxxxx 7
bxxxxxx j
bxxxxxxxxxxxxxxxxxxxxxxxxxxxxxxxxxxxxxxxxxxxxxxxx k
bxx \
bxxxxxxxxxxxxxxxxxxxxxxxxxxxxxxxx 3
bxxxxxxxxxxxxxxxxxxxxxxxxxxxxxxxx &
bxxxxxxxxxxxxxxxxxxxxxxxxxxxxxxxx (
bxxxxxxxxxxxxxxxxxxxxxxxxxxxxxxxx '
b00000000000000000000000000000000 .
b00000000000000000000000000000000 /
bxxxxxxxxxxxxxxxxxxxxxxxxxxxxxxxx "&
bxxxxxxxxxxxxxxxxxxxxxxxxxxxxxxxx "'
bxxxxxxxxxxxxxxxxxxxxxxxxxxxxxxxx "(
bxxxxxxxx r
bxxxxxxxx s
bxxxxxxxx t
bxxxxxxxxxxxxxxxxxxxxxxxxxxxxxxxx l
bxxxxxxxxxxxxxxxxxxxxxxxxxxxxxxxx m
bxxxxxxxxxxxxxxxxxxxxxxxxxxxxxxxx n
bxxxxx u
bxxxxxxxxxxxxxxxxxxxxxxxxxxxxxxxxxxxxxxxxxxxxxxxx o
bxxxxxxxxxxxxxxxxxxxxxxxxxxxxxxxxxxxxxxxxxxxxxxxx p
bxxxxxxxxxxxxxxxxxxxxxxxxxxxxxxxxxxxxxxxxxxxxxxxx q
bxxxxxxxx ~
bxxxxxxxx "!
bxxxxxxxx ""
bxxxxxxxxxxxxxxxxxxxxxxxxxxxxxxxx x
bxxxxxxxxxxxxxxxxxxxxxxxxxxxxxxxx y
bxxxxxxxxxxxxxxxxxxxxxxxxxxxxxxxx z
bxxxxx "#
bxxxxxxxxxxxxxxxxxxxxxxxxxxxxxxxxxxxxxxxxxxxxxxxx {
bxxxxxxxxxxxxxxxxxxxxxxxxxxxxxxxxxxxxxxxxxxxxxxxx |
bxxxxxxxxxxxxxxxxxxxxxxxxxxxxxxxxxxxxxxxxxxxxxxxx }
bxxxxxxxx "2
bxxxxxxxx "0
bxxxxxxxx "1
bxxxxxxxxxxxxxxxxxxxxxxx ".
bxxxxxxxxxxxxxxxxxxxxxxxxxxxxxxxx ")
bxxxxxxxxxxxxxxxxxxxxxxxxxxxxxxxx "*
bxxxxxxxxxxxxxxxxxxxxxxxxxxxxxxxx "+
bxxxxx "3
bxxxxxxxxxxxxxxxxxxxxxxxxxxxxxxxxxxxxxxxxxxxxxxxx "/
bxxxxxxxxxxxxxxxxxxxxxxxx ",
bxxxxxxxxxxxxxxxxxxxxxxxx "-
b00000000000000000000000000000000 ,
bxxxxxxxxxxxxxxxxxxxxxxxxxxxxxxxx W
bxxxxxxxxxxxxxxxxxxxxxxxxxxxxxxxx X
bxxxxxx Y
bxxxxxxxxxxxxxxxxxxxxxxxxxxxxxxxx #
bxxxxxxxxxxxxxxxxxxxxxxxxxxxxxxxx $
bxxxxxxxxxxxxxxxxxxxxxxxxxxxxxxxx -
bxx )
bxxxxxxxxxxxxxxxxxxxxxxxxxxxxxxxxxxxxxxxxxxxxxxxxxxxxxxxxxxxxxxxx i
bxxxxxxxxxxxxxxxxxxxxxxxxxxxxxxxx f
bxxxxxxxxxxxxxxxxxxxxxxxxxxxxxxxx g
bxxxxxxxxxxxxxxxxxxxxxxxxxxxxxxxx h
bxxxxxxxxxxxxxxxxxxxxxxxxxxxxxxxx 4
bxxxx R
bxx S
bxx T
bxxxxxxxxxxxxxxxxxxxxxxxxxxxxxxxx _
bxxxxxxxxxxxxxxxxxxxxxxxxxxxxxxxx 0
bxxxxxxxxxxxxxxxxxxxxxxxxxxxxxxxx "=
bxxxxxxxxxxxxxxxxxxxxxxxxxxxxxxxx ">
bxxxxxxxxxxxxxxxxxxxxxxxxxxxxxxxx "@
bzzzzzzzzzzzzzzzzzzzzzzzzzzzzzzzz "?
bzzzzz I
bzzzzz J
bzzzzzzzzzzzzzzzzzzzzzzzzzzzzzzzz K
bzzzzzzzzzzzzzzzzzzzzzzzzzzzzzzzz L
bxxxxx G
bxxxxxxxxxxxxxxxxxxxxxxxxxxxxxxxx H
bxxxxxxxxxxxxxxxxxxxxxxxxxxxxxxxxxxxxxxxxxxxxxxxxxxxxxxxxxxxxxxxx "<
bxxxxxxxxxxxxxxxxxxxxxxxxxxxxxxxx "9
bxxxxxxxxxxxxxxxxxxxxxxxxxxxxxxxx ":
bxxxxxxxxxxxxxxxxxxxxxxxxxxxxxxxx ";
bxxxx Q
bxxxxx :
bxxxxxx P
bxxxxxxxxxxxxxxxxxxxxxxxxxxxxxxxx "A
01
$end
#25
0"
02
b00000000000000000000000000100000 "A
b00000000000000000000000000000000 (
b00000000000000000000000000000000 $
b00000 :
b000000 P
b000000 Y
0%
b00 \
1[
0Z
b00000000000000000000000000000000 _
b00000000000000000000000000000000 "=
b00000000000000000000000000000000 =
b00000000000000000000000000000000 D
b00000000000000000000000000000000 W
b00000 G
b00000 9
b00000 ;
b00000000000000000000000000000000 ">
b00000000000000000000000000000000 >
b00000000000000000000000000000000 '
0M
0N
08
b0000 R
0b
b0000000000000000xxxxxxxxxxxxxxxx ^
b0000000000000000xxxxxxxxxxxxxxxx ?
b0000000000000000xxxxxxxxxxxxxxxx &
b01 ]
b00000000000000000000000000000000 E
b00000000000000000000000000000000 X
b0000000000000000xxxxxxxxxxxxxxxx H
b0000000000000000xxxxxxxxxxxxxxxx <
#50
1!
11
b00000000000000000000000000000000 3
b00000000000000000000000000000000 V
b00000000000000000000000000000000 #
b00000000000000000000000000000000 4
b00000000000000000000000000000000 7
05
06
b0001 Q
0O
0F
b0010 R
0B
#100
0!
01
#150
1!
11
#200
0!
01
#225
1"
12
b00000000000000000000000000000000 0
#250
1!
11
b0010 Q
b00 T
0*
b01 \
0[
0`
0@
b0000 R
b11 S
b00 )
b10 ]
#265
b00010000000000000000000000010000 $
b000100 P
b000100 Y
b00000000000000000000000000010000 V
bxxxxxxxxxxxxxxxxxxxxxxxxxxxxxxxx (
1N
18
b0011 R
b01 S
b00000000000000000000000000000000 ^
b00000000000000000000000000000000 ?
b00000000000000000000000000000000 &
b00000000000000000000000000000000 c
b00000000000000000000000000000000 e
b00000000000000000000000000000000 d
b00000000000000000000000000010000 E
b00000000000000000000000000010000 X
b00000000000000000000000000000000 H
b00000000000000000000000000000000 <
b00000000000000000000000000010000 ^
b00000000000000000000000000010000 ?
b00000000000000000000000000010000 &
b00000000000000000000000000010000 c
b00000000000000000000000000010000 e
b00000000000000000000000000010000 H
b00000000000000000000000000010000 <
#300
0!
01
#350
1!
11
b0011 Q
1F
b10 \
1[
b01x1 R
0C
b11 ]
b0101 R
#365
b00000000000000000000000000000000 (
#400
0!
01
#450
1!
11
b0101 Q
1O
0F
b11 \
0[
1Z
b0001 R
b10 ]
#500
0!
01
#550
1!
11
b00000000000000000000000000000100 4
b00000000000000000000000000000100 3
b00000000000000000000000000010100 V
b00000000000000000000000000000100 #
b00000000000000000000000000000001 7
b0001 Q
0O
b01 T
1*
b00000000000000000000000000010000 ">
b00000000000000000000000000010000 >
b00000000000000000000000000010000 '
b00000000000000000000000000010000 "=
b00000000000000000000000000010000 =
b00000000000000000000000000010000 D
b00000000000000000000000000010000 W
b10 \
1[
0Z
b00000000000000000000000000010000 _
b0010 R
b01 )
b00000000000000000000000000100000 ^
b00000000000000000000000000100000 ?
b00000000000000000000000000100000 &
b00000000000000000000000000100000 c
b00000000000000000000000000010000 d
b11 ]
b00000000000000000000000000100000 H
b00000000000000000000000000100000 <
#600
0!
01
b00000000000000000000000000000001 ,
#650
1!
11
b0010 Q
b00 T
0*
b11 \
0[
1Z
b0011 R
b00 )
b10 ]
#665
b00010000000000010000000000100000 $
b00000000000000000000000000100100 V
b00001 G
b00001 9
b00000000000000000000000000100000 E
b00000000000000000000000000100000 X
b00000000000000000000000000110000 ^
b00000000000000000000000000110000 ?
b00000000000000000000000000110000 &
b00000000000000000000000000110000 c
b00000000000000000000000000100000 e
b00000000000000000000000000110000 H
b00000000000000000000000000110000 <
#700
0!
01
#750
1!
11
b0011 Q
1F
b10 \
1[
0Z
b00000000000000000000000000110000 _
b0101 R
b11 ]
#800
0!
01
#850
1!
11
b0101 Q
1O
0F
b11 \
0[
1Z
b0001 R
b10 ]
#900
0!
01
#950
1!
11
b00000000000000000000000000001000 4
b00000000000000000000000000001000 3
b00000000000000000000000000101000 V
b00000000000000000000000000001000 #
b00000000000000000000000000000010 7
b0001 Q
0O
b01 T
1*
b10 \
1[
0Z
b0010 R
b01 )
b11 ]
#1000
0!
01
b00000000000000000000000000000010 ,
#1050
1!
11
b0010 Q
b00 T
0*
b11 \
0[
1Z
b0011 R
b00 )
b10 ]
#1065
b00010000011111100000000000000000 $
b00011 :
b00000000000000000000000000000000 "=
b00000000000000000000000000000000 =
b00000000000000000000000000000000 D
b00000000000000000000000000000000 W
b00000000000000000000000000001000 V
b00000000000000000000000000100000 ^
b00000000000000000000000000100000 ?
b00000000000000000000000000100000 &
b00000000000000000000000000100000 c
b00000000000000000000000000000000 d
b11110 G
b11110 9
b00000000000000000000000000000000 E
b00000000000000000000000000000000 X
b00000000000000000000000000100000 H
b00000000000000000000000000100000 <
b00000000000000000000000000000000 ^
b00000000000000000000000000000000 ?
b00000000000000000000000000000000 &
b00000000000000000000000000000000 c
b00000000000000000000000000000000 e
b00000000000000000000000000000000 H
b00000000000000000000000000000000 <
#1100
0!
01
#1150
1!
11
b0011 Q
1F
b10 \
1[
0Z
b00000000000000000000000000000000 _
b0101 R
b11 ]
#1200
0!
01
#1250
1!
11
b0101 Q
1O
0F
b11 \
0[
1Z
b0001 R
b10 ]
#1300
0!
01
#1350
1!
11
b00000000000000000000000000001100 4
b00000000000000000000000000001100 3
b00000000000000000000000000001100 V
b00000000000000000000000000001100 #
b00000000000000000000000000000011 7
b0001 Q
0O
b01 T
1*
b10 \
1[
0Z
b0010 R
b01 )
b11 ]
#1400
0!
01
b00000000000000000000000000000011 ,
#1450
1!
11
b0010 Q
b00 T
0*
b11 \
0[
1Z
b0011 R
b00 )
b10 ]
#1465
b00010000001111111111111111000000 $
b00001 :
b00000000000000000000000000110000 "=
b00000000000000000000000000110000 =
b00000000000000000000000000110000 D
b00000000000000000000000000110000 W
b00000000000000001111111111001100 V
b00000000000000000000000000110000 ^
b00000000000000000000000000110000 ?
b00000000000000000000000000110000 &
b00000000000000000000000000110000 c
b00000000000000000000000000110000 d
b11111111111111111111111111000000 E
b11111111111111111111111111000000 X
b11111 ;
b00000000000000000000000000000000 ">
b00000000000000000000000000000000 >
b00000000000000000000000000000000 '
b11111 G
b11111 9
b00000000000000000000000000110000 H
b00000000000000000000000000110000 <
b11111111111111111111111111110000 ^
b11111111111111111111111111110000 ?
b11111111111111111111111111110000 &
b11111111111111111111111111110000 c
b11111111111111111111111111000000 e
b11111111111111111111111111110000 H
b11111111111111111111111111110000 <
#1500
0!
01
#1550
1!
11
b0011 Q
1F
b10 \
1[
0Z
b11111111111111111111111111110000 _
b0101 R
b11 ]
#1600
0!
01
#1650
1!
11
b0101 Q
1O
0F
b11 \
0[
1Z
b0001 R
b10 ]
#1700
0!
01
#1750
1!
11
b00000000000000000000000000010000 4
b00000000000000000000000000010000 3
b00000000000000001111111111010000 V
b00000000000000000000000000010000 #
b00000000000000000000000000000100 7
b0001 Q
0O
b01 T
1*
b11111111111111111111111111110000 ">
b11111111111111111111111111110000 >
b11111111111111111111111111110000 '
b10 \
1[
0Z
b0010 R
b01 )
b11 ]
#1800
0!
01
b00000000000000000000000000000100 ,
#1850
1!
11
b0010 Q
b00 T
0*
b11 \
0[
1Z
b0011 R
b00 )
b10 ]
#1865
b00001000001000000001000000000000 $
b000010 P
b000010 Y
b00000000000000000001000000010000 V
b00000000000000000001000000000000 E
b00000000000000000001000000000000 X
b00010 ;
b00000000000000000000000000000000 ">
b00000000000000000000000000000000 >
b00000000000000000000000000000000 '
b00000 G
b00000 9
1M
0N
08
b00 S
b11111111111111111111000000110000 ^
b11111111111111111111000000110000 ?
b11111111111111111111000000110000 &
b11111111111111111111000000110000 c
b11111111111111111111000000000000 e
b00010 G
b00010 9
b00000000000000000000000000000000 E
b00000000000000000000000000000000 X
b00000 ;
b00000000000000000000000000010000 ">
b00000000000000000000000000010000 >
b00000000000000000000000000010000 '
b11111111111111111111000000110000 H
b11111111111111111111000000110000 <
b00000000000000000000000000110000 ^
b00000000000000000000000000110000 ?
b00000000000000000000000000110000 &
b00000000000000000000000000110000 c
b00000000000000000000000000000000 e
b00000000000000000000000000010000 E
b00000000000000000000000000010000 X
b00000000000000000000000000110000 H
b00000000000000000000000000110000 <
b00000000000000000000000000100000 ^
b00000000000000000000000000100000 ?
b00000000000000000000000000100000 &
b00000000000000000000000000100000 c
b11111111111111111111111111110000 e
b00000000000000000000000000100000 H
b00000000000000000000000000100000 <
#1900
0!
01
#1950
1!
11
b0011 Q
1F
b10 \
1[
0Z
b00000000000000000000000000100000 _
b0101 R
b11 ]
#2000
0!
01
#2050
1!
11
b0101 Q
1O
0F
b11 \
0[
1Z
b0001 R
b10 ]
#2100
0!
01
#2150
1!
11
b00000000000000000000000000010100 4
b00000000000000000000000000010100 3
b00000000000000000001000000010100 V
b00000000000000000000000000010100 #
b00000000000000000000000000000101 7
b0001 Q
0O
b01 T
1*
b10 \
1[
0Z
b0010 R
b11 ]
#2200
0!
01
b00000000000000000000000000000101 ,
#2250
1!
11
b0010 Q
b00 T
0*
b11 \
0[
1Z
b0011 R
b10 ]
#2265
b00000100000000100001100000000000 $
b00000 :
b000001 P
b00000000000000000000000000010000 "=
b00000000000000000000000000010000 =
b00000000000000000000000000010000 D
b00000000000000000000000000010000 W
b000001 Y
b00000000000000000001100000010100 V
b00000000000000000000000000010000 e
b00000000000000000000000000010000 d
b00011 G
b00011 9
b00010 ;
b00000000000000000000000000100000 ">
b00000000000000000000000000100000 >
b00000000000000000000000000100000 '
b00000000000000000000000000100000 E
b00000000000000000000000000100000 X
b00000000000000000000000000110000 ^
b00000000000000000000000000110000 ?
b00000000000000000000000000110000 &
b00000000000000000000000000110000 c
b00000000000000000000000000100000 e
b00000000000000000000000000110000 H
b00000000000000000000000000110000 <
#2300
0!
01
#2350
1!
11
b0011 Q
1F
b10 \
1[
0Z
b00000000000000000000000000110000 _
b0101 R
b11 ]
#2400
0!
01
#2450
1!
11
b0101 Q
1O
0F
b11 \
0[
1Z
b0001 R
b10 ]
#2500
0!
01
#2550
1!
11
b00000000000000000000000000011000 4
b00000000000000000000000000011000 3
b00000000000000000001100000011000 V
b00000000000000000000000000011000 #
b00000000000000000000000000000110 7
b0001 Q
0O
b01 T
1*
b10 \
1[
0Z
b0010 R
b11 ]
#2600
0!
01
b00000000000000000000000000000110 ,
#2650
1!
11
b0010 Q
b00 T
0*
b11 \
0[
1Z
b0011 R
b10 ]
#2665
b00101000101000000000000000001100 $
b00101 :
b001010 P
b00000000000000000000000000000000 "=
b00000000000000000000000000000000 =
b00000000000000000000000000000000 D
b00000000000000000000000000000000 W
b001010 Y
b00000000000000000000000000100100 V
b11111111111111111111111111100000 ^
b11111111111111111111111111100000 ?
b11111111111111111111111111100000 &
b11111111111111111111111111100000 c
b11111111111111111111111111100000 e
b00000000000000000000000000000000 d
b00000 G
b00000 9
b00000 ;
b00000000000000000000000000010000 ">
b00000000000000000000000000010000 >
b00000000000000000000000000010000 '
0M
1N
18
b01 S
b11111111111111111111111111100000 H
b11111111111111111111111111100000 <
b00000000000000000000000000010000 E
b00000000000000000000000000010000 X
b11111111111111111111111111110000 ^
b11111111111111111111111111110000 ?
b11111111111111111111111111110000 &
b11111111111111111111111111110000 c
b11111111111111111111111111110000 e
b11111111111111111111111111110000 H
b11111111111111111111111111110000 <
#2700
0!
01
#2750
1!
11
b0011 Q
1F
b10 \
1[
0Z
b11111111111111111111111111110000 _
b0100 R
b11 ]
#2800
0!
01
#2850
1!
11
b0100 Q
0F
b11 \
0[
1Z
b0001 R
b10 ]
#2900
0!
01
#2950
1!
11
b00000000000000000000000000011100 4
b00000000000000000000000000011100 3
b00000000000000000000000000101000 V
b00000000000000000000000000011100 #
b00000000000000000000000000000111 7
b0001 Q
b01 T
1*
b10 \
1[
0Z
b0010 R
b01 )
b11 ]
#3000
0!
01
b00000000000000000000000000000111 ,
#3050
1!
11
b0010 Q
b00 T
0*
b11 \
0[
1Z
b0011 R
b00 )
b10 ]
#3065
b00101100101000000000000000010000 $
b001011 P
b001011 Y
b00000000000000000000000000101100 V
#3100
0!
01
#3150
1!
11
b0011 Q
1F
b10 \
1[
0Z
1`
1@
b0100 R
b11 ]
#3200
0!
01
#3250
1!
11
b0100 Q
0F
b11 \
0[
1Z
b0001 R
b10 ]
#3300
0!
01
#3350
1!
11
b00000000000000000000000000101100 4
b00000000000000000000000000101100 3
b00000000000000000000000000111100 V
b00000000000000000000000000101100 #
b00000000000000000000000000001000 7
b0001 Q
b01 T
1*
b10 \
1[
0Z
b0010 R
b01 )
b11 ]
#3400
0!
01
b00000000000000000000000000001000 ,
#3450
1!
11
b0010 Q
b00 T
0*
b11 \
0[
1Z
b0011 R
b00 )
b10 ]
#3465
b00100000101000010100000000000000 $
b001000 P
b001000 Y
b00000000000000000100000000101100 V
b00001 G
b00001 9
b01000 ;
b00000000000000000000000000000000 ">
b00000000000000000000000000000000 >
b00000000000000000000000000000000 '
1M
0N
08
b00 S
b00000000000000000000000000010000 ^
b00000000000000000000000000010000 ?
b00000000000000000000000000010000 &
b00000000000000000000000000000000 E
b00000000000000000000000000000000 X
b01000 G
b01000 9
b00001 ;
b00000000000000000000000000110000 ">
b00000000000000000000000000110000 >
b00000000000000000000000000110000 '
b00000000000000000000000000010000 H
b00000000000000000000000000010000 <
b00000000000000000000000000000000 ^
b00000000000000000000000000000000 ?
b00000000000000000000000000000000 &
b00000000000000000000000000110000 E
b00000000000000000000000000110000 X
b00000000000000000000000000000000 H
b00000000000000000000000000000000 <
b00000000000000000000000000110000 ^
b00000000000000000000000000110000 ?
b00000000000000000000000000110000 &
b00000000000000000000000000110000 H
b00000000000000000000000000110000 <
#3500
0!
01
#3550
1!
11
b0011 Q
1F
b10 \
1[
0Z
b00000000000000000000000000110000 _
0`
0@
b0101 R
b11 ]
#3600
0!
01
#3650
1!
11
b0101 Q
1O
0F
b11 \
0[
1Z
b0001 R
b10 ]
#3700
0!
01
#3750
1!
11
b00000000000000000000000000110000 4
b00000000000000000000000000110000 3
b00000000000000000100000000110000 V
b00000000000000000000000000110000 #
b00000000000000000000000000001001 7
b0001 Q
0O
b01 T
1*
b10 \
1[
0Z
b0010 R
b11 ]
#3800
0!
01
b00000000000000000000000000001001 ,
#3850
1!
11
b0010 Q
b00 T
0*
b11 \
0[
1Z
b0011 R
b10 ]
#3865
b00100100111000010100100000000000 $
b00111 :
b001001 P
b001001 Y
b00000000000000000100100000110000 V
b01001 G
b01001 9
b11111111111111111111111111001111 ^
b11111111111111111111111111001111 ?
b11111111111111111111111111001111 &
b11111111111111111111111111001111 H
b11111111111111111111111111001111 <
#3900
0!
01
#3950
1!
11
b0011 Q
1F
b10 \
1[
0Z
b11111111111111111111111111001111 _
b0101 R
b11 ]
#4000
0!
01
#4050
1!
11
b0101 Q
1O
0F
b11 \
0[
1Z
b0001 R
b10 ]
#4100
0!
01
#4150
1!
11
b00000000000000000000000000110100 4
b00000000000000000000000000110100 3
b00000000000000000100100000110100 V
b00000000000000000000000000110100 #
b00000000000000000000000000001010 7
b0001 Q
0O
b01 T
1*
b10 \
1[
0Z
b0010 R
b11 ]
#4200
0!
01
b00000000000000000000000000001010 ,
#4250
1!
11
b0010 Q
b00 T
0*
b11 \
0[
1Z
b0011 R
b10 ]
#4265
b00110000010010000101000000000000 $
b00010 :
b001100 P
b00000000000000000000000000100000 "=
b00000000000000000000000000100000 =
b00000000000000000000000000100000 D
b00000000000000000000000000100000 W
b001100 Y
b00000000000000000101000000110100 V
b00000000000000000000000000000001 ^
b00000000000000000000000000000001 ?
b00000000000000000000000000000001 &
b00000000000000000000000000000001 "9
b0000000000000000000000000000000000000000000000000000011000000000 "<
b00000000000000000000000000110000 ";
b00000000000000000000000000100000 ":
b01010 G
b01010 9
b01000 ;
b00000000000000000000000000000001 H
b00000000000000000000000000000001 <
#4300
0!
01
#4350
1!
11
b0011 Q
1F
b10 \
1[
0Z
b00000000000000000000000000000001 _
b0101 R
b11 ]
#4400
0!
01
#4450
1!
11
b0101 Q
1O
0F
b11 \
0[
1Z
b0001 R
b10 ]
#4500
0!
01
#4550
1!
11
b00000000000000000000000000111000 4
b00000000000000000000000000111000 3
b00000000000000000101000000111000 V
b00000000000000000000000000111000 #
b00000000000000000000000000001011 7
b0001 Q
0O
b01 T
1*
b10 \
1[
0Z
b0010 R
b11 ]
#4600
0!
01
b00000000000000000000000000001011 ,
#4650
1!
11
b0010 Q
b00 T
0*
b11 \
0[
1Z
b0011 R
b10 ]
#4665
b00011100001000110000100000000000 $
b00001 :
b000111 P
b00000000000000000000000000110000 "=
b00000000000000000000000000110000 =
b00000000000000000000000000110000 D
b00000000000000000000000000110000 W
b000111 Y
b00000000000000000000100000111000 V
b00000000000000000000000000110000 ^
b00000000000000000000000000110000 ?
b00000000000000000000000000110000 &
b00001 G
b00001 9
b00011 ;
b00000000000000000000000000110000 H
b00000000000000000000000000110000 <
#4700
0!
01
#4750
1!
11
b0011 Q
1F
b10 \
1[
0Z
b00000000000000000000000000110000 _
b0101 R
b11 ]
#4800
0!
01
#4850
1!
11
b0101 Q
1O
0F
b11 \
0[
1Z
b0001 R
b10 ]
#4900
0!
01
#4950
1!
11
b00000000000000000000000000111100 4
b00000000000000000000000000111100 3
b00000000000000000000100000111100 V
b00000000000000000000000000111100 #
b00000000000000000000000000001100 7
b0001 Q
0O
b01 T
1*
b10 \
1[
0Z
b0010 R
b11 ]
#5000
0!
01
b00000000000000000000000000001100 ,
#5050
1!
11
b0010 Q
b00 T
0*
b11 \
0[
1Z
b0011 R
b10 ]
