HW1/01_RTL/alu.vcd
$date
	Fri Jun 21 16:49:49 2024
$end

$version
	Synopsys VCS version S-2021.09_Full64
$end

$timescale
	1ps
$end

$comment Csum: 1 07f6b2f2530fb7d2 $end


$scope module testbed $end
$var reg 1 ! i_clk $end
$var reg 1 " i_rst_n $end
$var reg 16 # i_data_a [15:0] $end
$var reg 16 $ i_data_b [15:0] $end
$var reg 4 % i_inst [3:0] $end
$var wire 1 & o_valid $end
$var wire 1 ' o_busy $end
$var wire 16 ( o_data [15:0] $end
$var integer 32 ) i $end
$var integer 32 * j $end
$var integer 32 + error $end
$var integer 32 , correct $end
$var integer 32 - over $end
$var reg 16 . test_inA [15:0] $end
$var reg 16 / test_inB [15:0] $end
$var reg 4 0 test_inst [3:0] $end
$var reg 16 1 test_outD [15:0] $end

$scope task reset $end
$upscope $end


$scope module u_alu $end
$var wire 1 2 i_clk $end
$var wire 1 3 i_rst_n $end
$var wire 16 4 i_data_a [15:0] $end
$var wire 16 5 i_data_b [15:0] $end
$var wire 4 6 i_inst [3:0] $end
$var wire 1 & o_valid $end
$var wire 1 ' o_busy $end
$var wire 16 7 o_data [15:0] $end
$var reg 2 8 curr_state [1:0] $end
$var reg 2 9 next_state [1:0] $end
$var reg 16 : ans [15:0] $end
$var reg 16 ; old [15:0] $end
$var reg 1 < locked $end

$scope function fx_add $end
$var reg 16 = fx_add [15:0] $end
$var reg 16 > i_data_a [15:0] $end
$var reg 16 ? i_data_b [15:0] $end
$var reg 17 @ tmp [16:0] $end
$upscope $end


$scope function fx_mul $end
$var reg 16 A fx_mul [15:0] $end
$var reg 16 B i_data_a [15:0] $end
$var reg 16 C i_data_b [15:0] $end
$var reg 32 D direct_mult [31:0] $end
$var reg 1 E sticky $end
$upscope $end


$scope function fx_mac $end
$var reg 16 F fx_mac [15:0] $end
$var reg 16 G i_data_a [15:0] $end
$var reg 16 H i_data_b [15:0] $end
$var reg 16 I old_val [15:0] $end
$var reg 32 J direct_mult [31:0] $end
$var reg 1 K sticky $end
$upscope $end


$scope function round_tanh_x $end
$var reg 16 L round_tanh_x [15:0] $end
$var reg 16 M x [15:0] $end
$var reg 32 N direct_mult [31:0] $end
$var reg 32 O b_old_val [31:0] $end
$upscope $end


$scope function gelu_first $end
$var reg 16 P gelu_first [15:0] $end
$var reg 16 Q x [15:0] $end
$var reg 80 R direct_mult [79:0] $end
$var reg 32 S x_square [31:0] $end
$var reg 48 T minor [47:0] $end
$var reg 16 U tmp_x [15:0] $end
$upscope $end


$scope function gelu $end
$var reg 16 V gelu [15:0] $end
$var reg 16 W i_data_a [15:0] $end
$var reg 16 X first [15:0] $end
$var reg 16 Y second [15:0] $end
$var reg 32 Z third [31:0] $end
$upscope $end


$scope function clz $end
$var reg 16 [ clz [15:0] $end
$var reg 16 \ i_data_a [15:0] $end
$upscope $end


$scope function cpop $end
$var reg 16 ] cpop [15:0] $end
$var reg 16 ^ i_data_a [15:0] $end
$var integer 32 _ i $end
$var integer 32 ` cnt $end
$upscope $end


$scope function lrcw $end
$var reg 16 a lrcw [15:0] $end
$var reg 16 b i_data_a [15:0] $end
$var reg 16 c i_data_b [15:0] $end
$var reg 6 d cpopa [5:0] $end
$upscope $end


$scope function lfsr $end
$var reg 16 e lfsr [15:0] $end
$var reg 16 f i_data_a [15:0] $end
$var reg 16 g i_data_b [15:0] $end
$var reg 1 h xor1 $end
$var reg 1 i xor2 $end
$var reg 1 j xor3 $end
$var integer 32 k i $end
$upscope $end


$scope function count_leading_zeros22 $end
$var reg 6 l count_leading_zeros22 [5:0] $end
$var reg 22 m i_data_a [21:0] $end
$upscope $end


$scope function fp_add_amb $end
$var reg 16 n fp_add_amb [15:0] $end
$var reg 16 o i_data_a [15:0] $end
$var reg 16 p i_data_b [15:0] $end
$var reg 22 q mantissa_a [21:0] $end
$var reg 22 r mantissa_b [21:0] $end
$var reg 22 s mantissa_greater [21:0] $end
$var reg 5 t exp_a [4:0] $end
$var reg 5 u exp_b [4:0] $end
$var reg 5 v exp_greater [4:0] $end
$var reg 5 w leading_zeros [4:0] $end
$var reg 1 x s $end
$var reg 1 y flag $end
$upscope $end


$scope function fp_add_apb $end
$var reg 16 z fp_add_apb [15:0] $end
$var reg 16 { i_data_a [15:0] $end
$var reg 16 | i_data_b [15:0] $end
$var reg 22 } mantissa_a [21:0] $end
$var reg 22 ~ mantissa_b [21:0] $end
$var reg 22 "! mantissa_greater [21:0] $end
$var reg 5 "" exp_a [4:0] $end
$var reg 5 "# exp_b [4:0] $end
$var reg 5 "$ exp_greater [4:0] $end
$var reg 5 "% leading_zeros [4:0] $end
$var reg 1 "& s $end
$var reg 1 "' flag $end
$upscope $end


$scope function fp_add $end
$var reg 16 "( fp_add [15:0] $end
$var reg 16 ") i_data_a [15:0] $end
$var reg 16 "* i_data_b [15:0] $end
$upscope $end

$upscope $end

$upscope $end

$enddefinitions $end

#0
$dumpvars
xy
xx
x"'
x"&
xK
xE
0!
1"
xh
xi
xj
x<
x'
x&
13
b0000000000000000 :
bxxxxxxxxxxxxxxxx [
bxxxxxxxxxxxxxxxx \
b00000000000000000000000000000000 ,
bxxxxxx l
bxxxxxxxxxxxxxxxxxxxxxx m
bxxxxxxxxxxxxxxxxxxxxxxxxxxxxxxxx `
bxxxxxxxxxxxxxxxx ]
bxxxxxxxxxxxxxxxxxxxxxxxxxxxxxxxx _
bxxxxxxxxxxxxxxxx ^
bxx 8
b00000000000000000000000000000000 +
bxxxxxxxxxxxxxxxx "(
bxxxxxxxxxxxxxxxx ")
bxxxxxxxxxxxxxxxx "*
bxxxxx t
bxxxxx u
bxxxxx v
bxxxxxxxxxxxxxxxx n
bxxxxxxxxxxxxxxxx o
bxxxxxxxxxxxxxxxx p
bxxxxx w
bxxxxxxxxxxxxxxxxxxxxxx q
bxxxxxxxxxxxxxxxxxxxxxx r
bxxxxxxxxxxxxxxxxxxxxxx s
bxxxxx ""
bxxxxx "#
bxxxxx "$
bxxxxxxxxxxxxxxxx z
bxxxxxxxxxxxxxxxx {
bxxxxxxxxxxxxxxxx |
bxxxxx "%
bxxxxxxxxxxxxxxxxxxxxxx }
bxxxxxxxxxxxxxxxxxxxxxx ~
bxxxxxxxxxxxxxxxxxxxxxx "!
b0000000000000000 =
b0000000000000000 >
b0000000000000000 ?
b00000000000000000 @
bxxxxxxxxxxxxxxxxxxxxxxxxxxxxxxxx J
bxxxxxxxxxxxxxxxx F
bxxxxxxxxxxxxxxxx G
bxxxxxxxxxxxxxxxx H
bxxxxxxxxxxxxxxxx I
bxxxxxxxxxxxxxxxxxxxxxxxxxxxxxxxx D
bxxxxxxxxxxxxxxxx A
bxxxxxxxxxxxxxxxx B
bxxxxxxxxxxxxxxxx C
bxxxxxxxxxxxxxxxx X
bxxxxxxxxxxxxxxxx V
bxxxxxxxxxxxxxxxx W
bxxxxxxxxxxxxxxxx Y
bxxxxxxxxxxxxxxxxxxxxxxxxxxxxxxxx Z
bxxxxxxxxxxxxxxxxxxxxxxxxxxxxxxxxxxxxxxxxxxxxxxxxxxxxxxxxxxxxxxxxxxxxxxxxxxxxxxxx R
bxxxxxxxxxxxxxxxx P
bxxxxxxxxxxxxxxxxxxxxxxxxxxxxxxxxxxxxxxxxxxxxxxxx T
bxxxxxxxxxxxxxxxx U
bxxxxxxxxxxxxxxxx Q
bxxxxxxxxxxxxxxxxxxxxxxxxxxxxxxxx S
b00000000000000000000000000000000 )
b0000000000000000 #
b0000000000000000 $
b0000 %
b00000000000000000000000000000000 *
bxxxxxxxxxxxxxxxx e
bxxxxxxxxxxxxxxxxxxxxxxxxxxxxxxxx k
bxxxxxxxxxxxxxxxx f
bxxxxxxxxxxxxxxxx g
bxxxxxx d
bxxxxxxxxxxxxxxxx a
bxxxxxxxxxxxxxxxx b
bxxxxxxxxxxxxxxxx c
bxx 9
b0000000000000000 (
bxxxxxxxxxxxxxxxx ;
b00000000000000000000000000000000 -
bxxxxxxxxxxxxxxxxxxxxxxxxxxxxxxxx O
bxxxxxxxxxxxxxxxxxxxxxxxxxxxxxxxx N
bxxxxxxxxxxxxxxxx L
bxxxxxxxxxxxxxxxx M
bxxxxxxxxxxxxxxxx .
bxxxxxxxxxxxxxxxx /
bxxxx 0
bxxxxxxxxxxxxxxxx 1
b0000000000000000 4
b0000000000000000 5
b0000 6
b0000000000000000 7
02
$end
#2500
0"
03
#5000
1!
12
b00 8
1'
0&
b01 9
b0000000000000000 ;
#10000
0!
02
#15000
1!
12
#20000
0!
02
#22500
1"
13
#25000
1!
12
b01 8
0'
b10 9
#30000
0!
02
#35000
1!
12
b10 8
1'
b11 9
#40000
0!
02
b0111110000000000 $
b0111110000000000 5
b1000010000000000 #
b1000010000000000 4
b0010 %
b0010 6
b00000000000000000000000000000001 )
b1000000000000000 :
b1000000000000000 7
b1000000000000000 (
b1000000000000000 A
0E
b11000011111100000000000000000000 D
b0111110000000000 C
b1000010000000000 B
#45000
1!
12
b11 8
0'
1&
b10 9
#50000
0!
02
b0111110000000000 /
b1000010000000000 .
b0010 0
b1000000000000000 1
b00000000000000000000000000000001 ,
b00000000000000000000000000000001 *
#55000
1!
12
b10 8
1'
0&
b11 9
b1000000000000000 ;
#60000
0!
02
b0111110000000000 #
b0111110000000000 4
b00000000000000000000000000000010 )
b0111111111111111 :
b0111111111111111 7
b0111111111111111 (
b0111111111111111 A
b00111100000100000000000000000000 D
b0111110000000000 B
#65000
1!
12
b11 8
0'
1&
b10 9
#70000
0!
02
b0111110000000000 .
b0111111111111111 1
b00000000000000000000000000000010 ,
b00000000000000000000000000000010 *
#75000
1!
12
b10 8
1'
0&
b11 9
b0111111111111111 ;
#80000
0!
02
b1111111001100100 $
b1111111001100100 5
b1111101000011001 #
b1111101000011001 4
b00000000000000000000000000000011 )
b0000001001100000 :
b0000001001100000 7
b0000001001100000 (
b0000001001100000 A
1E
b00000000000010010111111111000100 D
b1111111001100100 C
b1111101000011001 B
#85000
1!
12
b11 8
0'
1&
b10 9
#90000
0!
02
b1111111001100100 /
b1111101000011001 .
b0000001001100000 1
b00000000000000000000000000000011 ,
b00000000000000000000000000000011 *
#95000
1!
12
b10 8
1'
0&
b11 9
b0000001001100000 ;
#100000
0!
02
b0000000010011001 $
b0000000010011001 5
b1111100110101010 #
b1111100110101010 4
b00000000000000000000000000000100 )
b1111111100001110 :
b1111111100001110 7
b1111111100001110 (
b1111111100001110 A
b11111111111111000011011010011010 D
b0000000010011001 C
b1111100110101010 B
#105000
1!
12
b11 8
0'
1&
b10 9
#110000
0!
02
b0000000010011001 /
b1111100110101010 .
b1111111100001110 1
b00000000000000000000000000000100 ,
b00000000000000000000000000000100 *
#115000
1!
12
b10 8
1'
0&
b11 9
b1111111100001110 ;
#120000
0!
02
b1111101000100111 $
b1111101000100111 5
b1111111100110000 #
b1111111100110000 4
b00000000000000000000000000000101 )
b0000000100110000 :
b0000000100110000 7
b0000000100110000 (
b0000000100110000 A
b00000000000001001100000001010000 D
b1111101000100111 C
b1111111100110000 B
#125000
1!
12
b11 8
0'
1&
b10 9
#130000
0!
02
b1111101000100111 /
b1111111100110000 .
b0000000100110000 1
b00000000000000000000000000000101 ,
b00000000000000000000000000000101 *
#135000
1!
12
b10 8
1'
0&
b11 9
b0000000100110000 ;
#140000
0!
02
b1111110000001010 $
b1111110000001010 5
b0000001011010000 #
b0000001011010000 4
b00000000000000000000000000000110 )
b1111110100110111 :
b1111110100110111 7
b1111110100110111 (
b1111110100110111 A
b11111111111101001101110000100000 D
b1111110000001010 C
b0000001011010000 B
#145000
1!
12
b11 8
0'
1&
b10 9
#150000
0!
02
b1111110000001010 /
b0000001011010000 .
b1111110100110111 1
b00000000000000000000000000000110 ,
b00000000000000000000000000000110 *
#155000
1!
12
b10 8
1'
0&
b11 9
b1111110100110111 ;
#160000
0!
02
b1111101001000001 $
b1111101001000001 5
b0000001101000110 #
b0000001101000110 4
b00000000000000000000000000000111 )
b1111101101001100 :
b1111101101001100 7
b1111101101001100 (
b1111101101001100 A
b11111111111011010011000011000110 D
b1111101001000001 C
b0000001101000110 B
#165000
1!
12
b11 8
0'
1&
b10 9
#170000
0!
02
b1111101001000001 /
b0000001101000110 .
b1111101101001100 1
b00000000000000000000000000000111 ,
b00000000000000000000000000000111 *
#175000
1!
12
b10 8
1'
0&
b11 9
b1111101101001100 ;
#180000
0!
02
b1111101111011101 $
b1111101111011101 5
b1111101010100111 #
b1111101010100111 4
b00000000000000000000000000001000 )
b0000010110001000 :
b0000010110001000 7
b0000010110001000 (
b0000010110001000 A
b00000000000101100001111100101011 D
b1111101111011101 C
b1111101010100111 B
#185000
1!
12
b11 8
0'
1&
b10 9
#190000
0!
02
b1111101111011101 /
b1111101010100111 .
b0000010110001000 1
b00000000000000000000000000001000 ,
b00000000000000000000000000001000 *
#195000
1!
12
b10 8
1'
0&
b11 9
b0000010110001000 ;
#200000
0!
02
b1111110011011001 $
b1111110011011001 5
b1111110111001011 #
b1111110111001011 4
b00000000000000000000000000001001 )
b0000000110111101 :
b0000000110111101 7
b0000000110111101 (
b0000000110111101 A
b00000000000001101111010100010011 D
b1111110011011001 C
b1111110111001011 B
#205000
1!
12
b11 8
0'
1&
b10 9
#210000
0!
02
b1111110011011001 /
b1111110111001011 .
b0000000110111101 1
b00000000000000000000000000001001 ,
b00000000000000000000000000001001 *
#215000
1!
12
b10 8
1'
0&
b11 9
b0000000110111101 ;
#220000
0!
02
b1111111010010101 $
b1111111010010101 5
b1111110010000011 #
b1111110010000011 4
b00000000000000000000000000001010 )
b0000000100111101 :
b0000000100111101 7
b0000000100111101 (
b0000000100111101 A
b00000000000001001111001000111111 D
b1111111010010101 C
b1111110010000011 B
#225000
1!
12
b11 8
0'
1&
b10 9
#230000
0!
02
b1111111010010101 /
b1111110010000011 .
b0000000100111101 1
b00000000000000000000000000001010 ,
b00000000000000000000000000001010 *
#235000
1!
12
b10 8
1'
0&
b11 9
b0000000100111101 ;
#240000
0!
02
b1111100010010110 $
b1111100010010110 5
b1111111001001001 #
b1111111001001001 4
b00000000000000000000000000001011 )
b0000001100101110 :
b0000001100101110 7
b0000001100101110 (
b0000001100101110 A
b00000000000011001011011011000110 D
b1111100010010110 C
b1111111001001001 B
#245000
1!
12
b11 8
0'
1&
b10 9
#250000
0!
02
b1111100010010110 /
b1111111001001001 .
b0000001100101110 1
b00000000000000000000000000001011 ,
b00000000000000000000000000001011 *
#255000
1!
12
b10 8
1'
0&
b11 9
b0000001100101110 ;
#260000
0!
02
b1111111010100010 $
b1111111010100010 5
b1111101100101110 #
b1111101100101110 4
b00000000000000000000000000001100 )
b0000000110100110 :
b0000000110100110 7
b0000000110100110 (
b0000000110100110 A
b00000000000001101001011100011100 D
b1111111010100010 C
b1111101100101110 B
#265000
1!
12
b11 8
0'
1&
b10 9
#270000
0!
02
b1111111010100010 /
b1111101100101110 .
b0000000110100110 1
b00000000000000000000000000001100 ,
b00000000000000000000000000001100 *
#275000
1!
12
b10 8
1'
0&
b11 9
b0000000110100110 ;
#280000
0!
02
b1111101101001100 $
b1111101101001100 5
b1111100011010010 #
b1111100011010010 4
b00000000000000000000000000001101 )
b0000100001110001 :
b0000100001110001 7
b0000100001110001 (
b0000100001110001 A
b00000000001000011100010001011000 D
b1111101101001100 C
b1111100011010010 B
#285000
1!
12
b11 8
0'
1&
b10 9
#290000
0!
02
b1111101101001100 /
b1111100011010010 .
b0000100001110001 1
b00000000000000000000000000001101 ,
b00000000000000000000000000001101 *
#295000
1!
12
b10 8
1'
0&
b11 9
b0000100001110001 ;
#300000
0!
02
b1111101011100110 $
b1111101011100110 5
b1111110100111100 #
b1111110100111100 4
b00000000000000000000000000001110 )
b0000001110000111 :
b0000001110000111 7
b0000001110000111 (
b0000001110000111 A
b00000000000011100001101111101000 D
b1111101011100110 C
b1111110100111100 B
#305000
1!
12
b11 8
0'
1&
b10 9
#310000
0!
02
b1111101011100110 /
b1111110100111100 .
b0000001110000111 1
b00000000000000000000000000001110 ,
b00000000000000000000000000001110 *
#315000
1!
12
b10 8
1'
0&
b11 9
b0000001110000111 ;
#320000
0!
02
b1111101011101011 $
b1111101011101011 5
b1111101000010110 #
b1111101000010110 4
b00000000000000000000000000001111 )
b0000011110000100 :
b0000011110000100 7
b0000011110000100 (
b0000011110000100 A
b00000000000111100000111000110010 D
b1111101011101011 C
b1111101000010110 B
#325000
1!
12
b11 8
0'
1&
b10 9
#330000
0!
02
b1111101011101011 /
b1111101000010110 .
b0000011110000100 1
b00000000000000000000000000001111 ,
b00000000000000000000000000001111 *
#335000
1!
12
b10 8
1'
0&
b11 9
b0000011110000100 ;
#340000
0!
02
b1111100111011010 $
b1111100111011010 5
b1111100001010000 #
b1111100001010000 4
b00000000000000000000000000010000 )
b0000101111010001 :
b0000101111010001 7
b0000101111010001 (
b0000101111010001 A
b00000000001011110100010000100000 D
b1111100111011010 C
b1111100001010000 B
#345000
1!
12
b11 8
0'
1&
b10 9
#350000
0!
02
b1111100111011010 /
b1111100001010000 .
b0000101111010001 1
b00000000000000000000000000010000 ,
b00000000000000000000000000010000 *
#355000
1!
12
b10 8
1'
0&
b11 9
b0000101111010001 ;
#360000
0!
02
b0000001101111010 $
b0000001101111010 5
b0000001101110101 #
b0000001101110101 4
b00000000000000000000000000010001 )
b0000001100000001 :
b0000001100000001 7
b0000001100000001 (
b0000001100000001 A
b00000000000011000000010011000010 D
b0000001101111010 C
b0000001101110101 B
#365000
1!
12
b11 8
0'
1&
b10 9
#370000
0!
02
b0000001101111010 /
b0000001101110101 .
b0000001100000001 1
b00000000000000000000000000010001 ,
b00000000000000000000000000010001 *
#375000
1!
12
b10 8
1'
0&
b11 9
b0000001100000001 ;
#380000
0!
02
b0000001100111010 $
b0000001100111010 5
b1111110100101011 #
b1111110100101011 4
b00000000000000000000000000010010 )
b1111110110110111 :
b1111110110110111 7
b1111110110110111 (
b1111110110110111 A
b11111111111101101101110010111110 D
b0000001100111010 C
b1111110100101011 B
#385000
1!
12
b11 8
0'
1&
b10 9
#390000
0!
02
b0000001100111010 /
b1111110100101011 .
b1111110110110111 1
b00000000000000000000000000010010 ,
b00000000000000000000000000010010 *
#395000
1!
12
b10 8
1'
0&
b11 9
b1111110110110111 ;
#400000
0!
02
b0000000111010011 $
b0000000111010011 5
b0000001110001010 #
b0000001110001010 4
b00000000000000000000000000010011 )
b0000000110011101 :
b0000000110011101 7
b0000000110011101 (
b0000000110011101 A
b00000000000001100111010010111110 D
b0000000111010011 C
b0000001110001010 B
#405000
1!
12
b11 8
0'
1&
b10 9
#410000
0!
02
b0000000111010011 /
b0000001110001010 .
b0000000110011101 1
b00000000000000000000000000010011 ,
b00000000000000000000000000010011 *
#415000
1!
12
b10 8
1'
0&
b11 9
b0000000110011101 ;
#420000
0!
02
b0000000010111101 $
b0000000010111101 5
b0000000100100110 #
b0000000100100110 4
b00000000000000000000000000010100 )
b0000000000110110 :
b0000000000110110 7
b0000000000110110 (
b0000000000110110 A
b00000000000000001101100100001110 D
b0000000010111101 C
b0000000100100110 B
#425000
1!
12
b11 8
0'
1&
b10 9
#430000
0!
02
b0000000010111101 /
b0000000100100110 .
b0000000000110110 1
b00000000000000000000000000010100 ,
b00000000000000000000000000010100 *
#435000
1!
12
b10 8
1'
0&
b11 9
b0000000000110110 ;
#440000
0!
02
b1111101000011100 $
b1111101000011100 5
b1111100000010111 #
b1111100000010111 4
b00000000000000000000000000010101 )
b0000101110100110 :
b0000101110100110 7
b0000101110100110 (
b0000101110100110 A
b00000000001011101001100010000100 D
b1111101000011100 C
b1111100000010111 B
#445000
1!
12
b11 8
0'
1&
b10 9
#450000
0!
02
b1111101000011100 /
b1111100000010111 .
b0000101110100110 1
b00000000000000000000000000010101 ,
b00000000000000000000000000010101 *
#455000
1!
12
b10 8
1'
0&
b11 9
b0000101110100110 ;
#460000
0!
02
b1111110001010011 $
b1111110001010011 5
b0000000000101001 #
b0000000000101001 4
b00000000000000000000000000010110 )
b1111111111011010 :
b1111111111011010 7
b1111111111011010 (
b1111111111011010 A
b11111111111111110110100101001011 D
b1111110001010011 C
b0000000000101001 B
#465000
1!
12
b11 8
0'
1&
b10 9
#470000
0!
02
b1111110001010011 /
b0000000000101001 .
b1111111111011010 1
b00000000000000000000000000010110 ,
b00000000000000000000000000010110 *
#475000
1!
12
b10 8
1'
0&
b11 9
b1111111111011010 ;
#480000
0!
02
b1111101001000100 $
b1111101001000100 5
b0000000001111001 #
b0000000001111001 4
b00000000000000000000000000010111 )
b1111111101010011 :
b1111111101010011 7
b1111111101010011 (
b1111111101010011 A
b11111111111111010100101000100100 D
b1111101001000100 C
b0000000001111001 B
#485000
1!
12
b11 8
0'
1&
b10 9
#490000
0!
02
b1111101001000100 /
b0000000001111001 .
b1111111101010011 1
b00000000000000000000000000010111 ,
b00000000000000000000000000010111 *
#495000
1!
12
b10 8
1'
0&
b11 9
b1111111101010011 ;
#500000
0!
02
b1111100000000100 $
b1111100000000100 5
b1111111110111110 #
b1111111110111110 4
b00000000000000000000000000011000 )
b0000000010000100 :
b0000000010000100 7
b0000000010000100 (
b0000000010000100 A
b00000000000000100000111011111000 D
b1111100000000100 C
b1111111110111110 B
#505000
1!
12
b11 8
0'
1&
b10 9
#510000
0!
02
b1111100000000100 /
b1111111110111110 .
b0000000010000100 1
b00000000000000000000000000011000 ,
b00000000000000000000000000011000 *
#515000
1!
12
b10 8
1'
0&
b11 9
b0000000010000100 ;
#520000
0!
02
b1111101111001100 $
b1111101111001100 5
b1111111010100001 #
b1111111010100001 4
b00000000000000000000000000011001 )
b0000000101110001 :
b0000000101110001 7
b0000000101110001 (
b0000000101110001 A
b00000000000001011100001101001100 D
b1111101111001100 C
b1111111010100001 B
#525000
1!
12
b11 8
0'
1&
b10 9
#530000
0!
02
b1111101111001100 /
b1111111010100001 .
b0000000101110001 1
b00000000000000000000000000011001 ,
b00000000000000000000000000011001 *
#535000
1!
12
b10 8
1'
0&
b11 9
b0000000101110001 ;
#540000
0!
02
b0000000001100101 $
b0000000001100101 5
b1111101010011110 #
b1111101010011110 4
b00000000000000000000000000011010 )
b1111111101111000 :
b1111111101111000 7
b1111111101111000 (
b1111111101111000 A
b11111111111111011110000001010110 D
b0000000001100101 C
b1111101010011110 B
#545000
1!
12
b11 8
0'
1&
b10 9
#550000
0!
02
b0000000001100101 /
b1111101010011110 .
b1111111101111000 1
b00000000000000000000000000011010 ,
b00000000000000000000000000011010 *
#555000
1!
12
b10 8
1'
0&
b11 9
b1111111101111000 ;
#560000
0!
02
b1111111110000001 $
b1111111110000001 5
b0000000101000101 #
b0000000101000101 4
b00000000000000000000000000011011 )
b1111111111011000 :
b1111111111011000 7
b1111111111011000 (
b1111111111011000 A
b11111111111111110101111011000101 D
b1111111110000001 C
b0000000101000101 B
#565000
1!
12
b11 8
0'
1&
b10 9
#570000
0!
02
b1111111110000001 /
b0000000101000101 .
b1111111111011000 1
b00000000000000000000000000011011 ,
b00000000000000000000000000011011 *
#575000
1!
12
b10 8
1'
0&
b11 9
b1111111111011000 ;
#580000
0!
02
b1111111010000100 $
b1111111010000100 5
b1111101010111101 #
b1111101010111101 4
b00000000000000000000000000011100 )
b0000000111110100 :
b0000000111110100 7
b0000000111110100 (
b0000000111110100 A
b00000000000001111100111101110100 D
b1111111010000100 C
b1111101010111101 B
#585000
1!
12
b11 8
0'
1&
b10 9
#590000
0!
02
b1111111010000100 /
b1111101010111101 .
b0000000111110100 1
b00000000000000000000000000011100 ,
b00000000000000000000000000011100 *
#595000
1!
12
b10 8
1'
0&
b11 9
b0000000111110100 ;
#600000
0!
02
b1111110101000101 $
b1111110101000101 5
b1111110001110011 #
b1111110001110011 4
b00000000000000000000000000011101 )
b0000001001101100 :
b0000001001101100 7
b0000001001101100 (
b0000001001101100 A
b00000000000010011011000111111111 D
b1111110101000101 C
b1111110001110011 B
#605000
1!
12
b11 8
0'
1&
b10 9
#610000
0!
02
b1111110101000101 /
b1111110001110011 .
b0000001001101100 1
b00000000000000000000000000011101 ,
b00000000000000000000000000011101 *
#615000
1!
12
b10 8
1'
0&
b11 9
b0000001001101100 ;
#620000
0!
02
b1111101101110011 $
b1111101101110011 5
b0000001010110001 #
b0000001010110001 4
b00000000000000000000000000011110 )
b1111110011110000 :
b1111110011110000 7
b1111110011110000 (
b1111110011110000 A
b11111111111100111100000010000011 D
b1111101101110011 C
b0000001010110001 B
#625000
1!
12
b11 8
0'
1&
b10 9
#630000
0!
02
b1111101101110011 /
b0000001010110001 .
b1111110011110000 1
b00000000000000000000000000011110 ,
b00000000000000000000000000011110 *
#635000
1!
12
b10 8
1'
0&
b11 9
b1111110011110000 ;
#640000
0!
02
b1111111000000101 $
b1111111000000101 5
b0000001001000111 #
b0000001001000111 4
b00000000000000000000000000011111 )
b1111111011011111 :
b1111111011011111 7
b1111111011011111 (
b1111111011011111 A
b11111111111110110111110101100011 D
b1111111000000101 C
b0000001001000111 B
#645000
1!
12
b11 8
0'
1&
b10 9
#650000
0!
02
b1111111000000101 /
b0000001001000111 .
b1111111011011111 1
b00000000000000000000000000011111 ,
b00000000000000000000000000011111 *
#655000
1!
12
b10 8
1'
0&
b11 9
b1111111011011111 ;
#660000
0!
02
b0000000100100011 $
b0000000100100011 5
b1111110011010100 #
b1111110011010100 4
b00000000000000000000000000100000 )
b1111111100011001 :
b1111111100011001 7
b1111111100011001 (
b1111111100011001 A
b11111111111111000110010011111100 D
b0000000100100011 C
b1111110011010100 B
#665000
1!
12
b11 8
0'
1&
b10 9
#670000
0!
02
b0000000100100011 /
b1111110011010100 .
b1111111100011001 1
b00000000000000000000000000100000 ,
b00000000000000000000000000100000 *
#675000
1!
12
b10 8
1'
0&
b11 9
b1111111100011001 ;
#680000
0!
02
b0000000100100110 $
b0000000100100110 5
b1111101111010001 #
b1111101111010001 4
b00000000000000000000000000100001 )
b1111111011001101 :
b1111111011001101 7
b1111111011001101 (
b1111111011001101 A
b11111111111110110011001000000110 D
b0000000100100110 C
b1111101111010001 B
#685000
1!
12
b11 8
0'
1&
b10 9
#690000
0!
02
b0000000100100110 /
b1111101111010001 .
b1111111011001101 1
b00000000000000000000000000100001 ,
b00000000000000000000000000100001 *
#695000
1!
12
b10 8
1'
0&
b11 9
b1111111011001101 ;
#700000
0!
02
b1111111011101010 $
b1111111011101010 5
b1111111101001110 #
b1111111101001110 4
b00000000000000000000000000100010 )
b0000000000110000 :
b0000000000110000 7
b0000000000110000 (
b0000000000110000 A
b00000000000000001100000101001100 D
b1111111011101010 C
b1111111101001110 B
#705000
1!
12
b11 8
0'
1&
b10 9
#710000
0!
02
b1111111011101010 /
b1111111101001110 .
b0000000000110000 1
b00000000000000000000000000100010 ,
b00000000000000000000000000100010 *
#715000
1!
12
b10 8
1'
0&
b11 9
b0000000000110000 ;
#720000
0!
02
b0000000011111001 $
b0000000011111001 5
b0000001011101100 #
b0000001011101100 4
b00000000000000000000000000100011 )
b0000000010110110 :
b0000000010110110 7
b0000000010110110 (
b0000000010110110 A
b00000000000000101101011110001100 D
b0000000011111001 C
b0000001011101100 B
#725000
1!
12
b11 8
0'
1&
b10 9
#730000
0!
02
b0000000011111001 /
b0000001011101100 .
b0000000010110110 1
b00000000000000000000000000100011 ,
b00000000000000000000000000100011 *
#735000
1!
12
b10 8
1'
0&
b11 9
b0000000010110110 ;
#740000
0!
02
b1111111110111111 $
b1111111110111111 5
b0000001011101001 #
b0000001011101001 4
b00000000000000000000000000100100 )
b1111111111010001 :
b1111111111010001 7
b1111111111010001 (
b1111111111010001 A
b11111111111111110100001011010111 D
b1111111110111111 C
b0000001011101001 B
#745000
1!
12
b11 8
0'
1&
b10 9
#750000
0!
02
b1111111110111111 /
b0000001011101001 .
b1111111111010001 1
b00000000000000000000000000100100 ,
b00000000000000000000000000100100 *
#755000
1!
12
b10 8
1'
0&
b11 9
b1111111111010001 ;
#760000
0!
02
b1111100101111011 $
b1111100101111011 5
b1111111100011001 #
b1111111100011001 4
b00000000000000000000000000100101 )
b0000000101111001 :
b0000000101111001 7
b0000000101111001 (
b0000000101111001 A
b00000000000001011110001000000011 D
b1111100101111011 C
b1111111100011001 B
#765000
1!
12
b11 8
0'
1&
b10 9
#770000
0!
02
b1111100101111011 /
b1111111100011001 .
b0000000101111001 1
b00000000000000000000000000100101 ,
b00000000000000000000000000100101 *
#775000
1!
12
b10 8
1'
0&
b11 9
b0000000101111001 ;
#780000
0!
02
b1111111000001110 $
b1111111000001110 5
b1111101111111110 #
b1111101111111110 4
b00000000000000000000000000100110 )
b0000000111110011 :
b0000000111110011 7
b0000000111110011 (
b0000000111110011 A
b00000000000001111100101111100100 D
b1111111000001110 C
b1111101111111110 B
#785000
1!
12
b11 8
0'
1&
b10 9
#790000
0!
02
b1111111000001110 /
b1111101111111110 .
b0000000111110011 1
b00000000000000000000000000100110 ,
b00000000000000000000000000100110 *
#795000
1!
12
b10 8
1'
0&
b11 9
b0000000111110011 ;
#800000
0!
02
b1111110000101011 $
b1111110000101011 5
b0000001000111101 #
b0000001000111101 4
b00000000000000000000000000100111 )
b1111110111011011 :
b1111110111011011 7
b1111110111011011 (
b1111110111011011 A
b11111111111101110110110000111111 D
b1111110000101011 C
b0000001000111101 B
#805000
1!
12
b11 8
0'
1&
b10 9
#810000
0!
02
b1111110000101011 /
b0000001000111101 .
b1111110111011011 1
b00000000000000000000000000100111 ,
b00000000000000000000000000100111 *
#815000
1!
12
b10 8
1'
0&
b11 9
b1111110111011011 ;
