HW1/01_RTL/alu.vcd
$date
	Mon Jul  8 15:20:06 2024
$end

$version
	Synopsys VCS version S-2021.09_Full64
$end

$timescale
	1ps
$end

$comment Csum: 1 62feeacb4b79cba6 $end


$scope module testbed $end
$var reg 1 ! i_clk $end
$var reg 1 " i_rst_n $end
$var reg 16 # i_data_a [15:0] $end
$var reg 16 $ i_data_b [15:0] $end
$var reg 4 % i_inst [3:0] $end
$var wire 1 & o_valid $end
$var wire 1 ' o_busy $end
$var wire 16 ( o_data [15:0] $end
$var integer 32 ) i $end
$var integer 32 * j $end
$var integer 32 + error $end
$var integer 32 , correct $end
$var integer 32 - over $end
$var reg 16 . test_inA [15:0] $end
$var reg 16 / test_inB [15:0] $end
$var reg 4 0 test_inst [3:0] $end
$var reg 16 1 test_outD [15:0] $end

$scope task reset $end
$upscope $end


$scope module u_alu $end
$var wire 1 2 i_clk $end
$var wire 1 3 i_rst_n $end
$var wire 16 4 i_data_a [15:0] $end
$var wire 16 5 i_data_b [15:0] $end
$var wire 4 6 i_inst [3:0] $end
$var wire 1 & o_valid $end
$var wire 1 ' o_busy $end
$var wire 16 7 o_data [15:0] $end
$var reg 2 8 curr_state [1:0] $end
$var reg 2 9 next_state [1:0] $end
$var reg 16 : ans [15:0] $end
$var reg 16 ; old [15:0] $end
$var reg 1 < locked $end
$upscope $end

$upscope $end

$enddefinitions $end

#0
$dumpvars
0!
1"
x<
x'
x&
13
b0000000000000000 :
b00000000000000000000000000000000 ,
bxx 8
b00000000000000000000000000000000 +
b00000000000000000000000000000000 )
b0000000000000000 #
b0000000000000000 $
b0000 %
b00000000000000000000000000000000 *
bxx 9
b0000000000000000 (
bxxxxxxxxxxxxxxxx ;
b00000000000000000000000000000000 -
bxxxxxxxxxxxxxxxx .
bxxxxxxxxxxxxxxxx /
bxxxx 0
bxxxxxxxxxxxxxxxx 1
b0000000000000000 4
b0000000000000000 5
b0000 6
b0000000000000000 7
02
$end
#2500
0"
03
b00 8
1'
0&
b0000000000000000 ;
b01 9
#5000
1!
12
#10000
0!
02
#15000
1!
12
#20000
0!
02
#22500
1"
13
#25000
1!
12
b01 8
0'
b10 9
#30000
0!
02
#35000
1!
12
b10 8
1'
b11 9
#40000
0!
02
b1000000000000000 #
b1000000000000000 4
b0100 %
b0100 6
b00000000000000000000000000000001 )
#45000
1!
12
b11 8
0'
1&
b10 9
#50000
0!
02
b0000000000000000 /
b1000000000000000 .
b0100 0
b0000000000000000 1
b00000000000000000000000000000001 ,
b00000000000000000000000000000001 *
#55000
1!
12
b10 8
1'
0&
b11 9
#60000
0!
02
b0111110000000000 #
b0111110000000000 4
b00000000000000000000000000000010 )
b0111110000000000 :
b0111110000000000 7
b0111110000000000 (
#65000
1!
12
b11 8
0'
1&
b10 9
#70000
0!
02
b0111110000000000 .
b0111110000000000 1
b00000000000000000000000000000010 ,
b00000000000000000000000000000010 *
#75000
1!
12
b10 8
1'
0&
b0111110000000000 ;
b11 9
#80000
0!
02
b0000000000000000 #
b0000000000000000 4
b00000000000000000000000000000011 )
b0000000000000000 :
b0000000000000000 7
b0000000000000000 (
#85000
1!
12
b11 8
0'
1&
b10 9
#90000
0!
02
b0000000000000000 .
b0000000000000000 1
b00000000000000000000000000000011 ,
b00000000000000000000000000000011 *
#95000
1!
12
b10 8
1'
0&
b0000000000000000 ;
b11 9
#100000
0!
02
b0000000100101010 #
b0000000100101010 4
b00000000000000000000000000000100 )
b0000000010111000 :
b0000000010111000 7
b0000000010111000 (
#105000
1!
12
b11 8
0'
1&
b10 9
#110000
0!
02
b0000000100101010 .
b0000000010111000 1
b00000000000000000000000000000100 ,
b00000000000000000000000000000100 *
#115000
1!
12
b10 8
1'
0&
b0000000010111000 ;
b11 9
#120000
0!
02
b1111111010110101 #
b1111111010110101 4
b00000000000000000000000000000101 )
b1111111110000101 :
b1111111110000101 7
b1111111110000101 (
#125000
1!
12
b11 8
0'
1&
b10 9
#130000
0!
02
b1111111010110101 .
b1111111110000101 1
b00000000000000000000000000000101 ,
b00000000000000000000000000000101 *
#135000
1!
12
b10 8
1'
0&
b1111111110000101 ;
b11 9
#140000
0!
02
b1111101000110101 #
b1111101000110101 4
b00000000000000000000000000000110 )
b1111111110101000 :
b1111111110101000 7
b1111111110101000 (
#145000
1!
12
b11 8
0'
1&
b10 9
#150000
0!
02
b1111101000110101 .
b1111111110101000 1
b00000000000000000000000000000110 ,
b00000000000000000000000000000110 *
#155000
1!
12
b10 8
1'
0&
b1111111110101000 ;
b11 9
#160000
0!
02
b1111110111111010 #
b1111110111111010 4
b00000000000000000000000000000111 )
b1111111101100111 :
b1111111101100111 7
b1111111101100111 (
#165000
1!
12
b11 8
0'
1&
b10 9
#170000
0!
02
b1111110111111010 .
b1111111101100111 1
b00000000000000000000000000000111 ,
b00000000000000000000000000000111 *
#175000
1!
12
b10 8
1'
0&
b1111111101100111 ;
b11 9
#180000
0!
02
b1111111000110111 #
b1111111000110111 4
b00000000000000000000000000001000 )
b1111111101101110 :
b1111111101101110 7
b1111111101101110 (
#185000
1!
12
b11 8
0'
1&
b10 9
#190000
0!
02
b1111111000110111 .
b1111111101101110 1
b00000000000000000000000000001000 ,
b00000000000000000000000000001000 *
#195000
1!
12
b10 8
1'
0&
b1111111101101110 ;
b11 9
#200000
0!
02
b0000001111101110 #
b0000001111101110 4
b00000000000000000000000000001001 )
b0000001101000011 :
b0000001101000011 7
b0000001101000011 (
#205000
1!
12
b11 8
0'
1&
b10 9
#210000
0!
02
b0000001111101110 .
b0000001101000011 1
b00000000000000000000000000001001 ,
b00000000000000000000000000001001 *
#215000
1!
12
b10 8
1'
0&
b0000001101000011 ;
b11 9
#220000
0!
02
b0000001001000010 #
b0000001001000010 4
b00000000000000000000000000001010 )
b0000000110100101 :
b0000000110100101 7
b0000000110100101 (
#225000
1!
12
b11 8
0'
1&
b10 9
#230000
0!
02
b0000001001000010 .
b0000000110100101 1
b00000000000000000000000000001010 ,
b00000000000000000000000000001010 *
#235000
1!
12
b10 8
1'
0&
b0000000110100101 ;
b11 9
#240000
0!
02
b0000001110001101 #
b0000001110001101 4
b00000000000000000000000000001011 )
b0000001011011111 :
b0000001011011111 7
b0000001011011111 (
#245000
1!
12
b11 8
0'
1&
b10 9
#250000
0!
02
b0000001110001101 .
b0000001011011111 1
b00000000000000000000000000001011 ,
b00000000000000000000000000001011 *
#255000
1!
12
b10 8
1'
0&
b0000001011011111 ;
b11 9
#260000
0!
02
b0000000000100110 #
b0000000000100110 4
b00000000000000000000000000001100 )
b0000000000010100 :
b0000000000010100 7
b0000000000010100 (
#265000
1!
12
b11 8
0'
1&
b10 9
#270000
0!
02
b0000000000100110 .
b0000000000010100 1
b00000000000000000000000000001100 ,
b00000000000000000000000000001100 *
#275000
1!
12
b10 8
1'
0&
b0000000000010100 ;
b11 9
#280000
0!
02
b1111110011011000 #
b1111110011011000 4
b00000000000000000000000000001101 )
b1111111101010100 :
b1111111101010100 7
b1111111101010100 (
#285000
1!
12
b11 8
0'
1&
b10 9
#290000
0!
02
b1111110011011000 .
b1111111101010100 1
b00000000000000000000000000001101 ,
b00000000000000000000000000001101 *
#295000
1!
12
b10 8
1'
0&
b1111111101010100 ;
b11 9
#300000
0!
02
b0000001100111000 #
b0000001100111000 4
b00000000000000000000000000001110 )
b0000001010001011 :
b0000001010001011 7
b0000001010001011 (
#305000
1!
12
b11 8
0'
1&
b10 9
#310000
0!
02
b0000001100111000 .
b0000001010001011 1
b00000000000000000000000000001110 ,
b00000000000000000000000000001110 *
#315000
1!
12
b10 8
1'
0&
b0000001010001011 ;
b11 9
#320000
0!
02
b1111110111000001 #
b1111110111000001 4
b00000000000000000000000000001111 )
b1111111101100011 :
b1111111101100011 7
b1111111101100011 (
#325000
1!
12
b11 8
0'
1&
b10 9
#330000
0!
02
b1111110111000001 .
b1111111101100011 1
b00000000000000000000000000001111 ,
b00000000000000000000000000001111 *
#335000
1!
12
b10 8
1'
0&
b1111111101100011 ;
b11 9
#340000
0!
02
b1111101011001000 #
b1111101011001000 4
b00000000000000000000000000010000 )
b1111111110000001 :
b1111111110000001 7
b1111111110000001 (
#345000
1!
12
b11 8
0'
1&
b10 9
#350000
0!
02
b1111101011001000 .
b1111111110000001 1
b00000000000000000000000000010000 ,
b00000000000000000000000000010000 *
#355000
1!
12
b10 8
1'
0&
b1111111110000001 ;
b11 9
#360000
0!
02
b1111110011000001 #
b1111110011000001 4
b00000000000000000000000000010001 )
b1111111101010011 :
b1111111101010011 7
b1111111101010011 (
#365000
1!
12
b11 8
0'
1&
b10 9
#370000
0!
02
b1111110011000001 .
b1111111101010011 1
b00000000000000000000000000010001 ,
b00000000000000000000000000010001 *
#375000
1!
12
b10 8
1'
0&
b1111111101010011 ;
b11 9
#380000
0!
02
b0000000001110110 #
b0000000001110110 4
b00000000000000000000000000010010 )
b0000000001000000 :
b0000000001000000 7
b0000000001000000 (
#385000
1!
12
b11 8
0'
1&
b10 9
#390000
0!
02
b0000000001110110 .
b0000000001000000 1
b00000000000000000000000000010010 ,
b00000000000000000000000000010010 *
#395000
1!
12
b10 8
1'
0&
b0000000001000000 ;
b11 9
#400000
0!
02
b1111111010110100 #
b1111111010110100 4
b00000000000000000000000000010011 )
b1111111110000101 :
b1111111110000101 7
b1111111110000101 (
#405000
1!
12
b11 8
0'
1&
b10 9
#410000
0!
02
b1111111010110100 .
b1111111110000101 1
b00000000000000000000000000010011 ,
b00000000000000000000000000010011 *
#415000
1!
12
b10 8
1'
0&
b1111111110000101 ;
b11 9
#420000
0!
02
b0000000100010100 #
b0000000100010100 4
b00000000000000000000000000010100 )
b0000000010101000 :
b0000000010101000 7
b0000000010101000 (
#425000
1!
12
b11 8
0'
1&
b10 9
#430000
0!
02
b0000000100010100 .
b0000000010101000 1
b00000000000000000000000000010100 ,
b00000000000000000000000000010100 *
#435000
1!
12
b10 8
1'
0&
b0000000010101000 ;
b11 9
#440000
0!
02
b0000001111110010 #
b0000001111110010 4
b00000000000000000000000000010101 )
b0000001101000111 :
b0000001101000111 7
b0000001101000111 (
#445000
1!
12
b11 8
0'
1&
b10 9
#450000
0!
02
b0000001111110010 .
b0000001101000111 1
b00000000000000000000000000010101 ,
b00000000000000000000000000010101 *
#455000
1!
12
b10 8
1'
0&
b0000001101000111 ;
b11 9
#460000
0!
02
b0000001110001101 #
b0000001110001101 4
b00000000000000000000000000010110 )
b0000001011011111 :
b0000001011011111 7
b0000001011011111 (
#465000
1!
12
b11 8
0'
1&
b10 9
#470000
0!
02
b0000001110001101 .
b0000001011011111 1
b00000000000000000000000000010110 ,
b00000000000000000000000000010110 *
#475000
1!
12
b10 8
1'
0&
b0000001011011111 ;
b11 9
#480000
0!
02
b1111111001101100 #
b1111111001101100 4
b00000000000000000000000000010111 )
b1111111101110110 :
b1111111101110110 7
b1111111101110110 (
#485000
1!
12
b11 8
0'
1&
b10 9
#490000
0!
02
b1111111001101100 .
b1111111101110110 1
b00000000000000000000000000010111 ,
b00000000000000000000000000010111 *
#495000
1!
12
b10 8
1'
0&
b1111111101110110 ;
b11 9
#500000
0!
02
b0000001110010001 #
b0000001110010001 4
b00000000000000000000000000011000 )
b0000001011100011 :
b0000001011100011 7
b0000001011100011 (
#505000
1!
12
b11 8
0'
1&
b10 9
#510000
0!
02
b0000001110010001 .
b0000001011100011 1
b00000000000000000000000000011000 ,
b00000000000000000000000000011000 *
#515000
1!
12
b10 8
1'
0&
b0000001011100011 ;
b11 9
#520000
0!
02
b1111100101100011 #
b1111100101100011 4
b00000000000000000000000000011001 )
b1111111111111000 :
b1111111111111000 7
b1111111111111000 (
#525000
1!
12
b11 8
0'
1&
b10 9
#530000
0!
02
b1111100101100011 .
b1111111111111000 1
b00000000000000000000000000011001 ,
b00000000000000000000000000011001 *
#535000
1!
12
b10 8
1'
0&
b1111111111111000 ;
b11 9
#540000
0!
02
b1111100010011110 #
b1111100010011110 4
b00000000000000000000000000011010 )
b0000000000000000 :
b0000000000000000 7
b0000000000000000 (
#545000
1!
12
b11 8
0'
1&
b10 9
#550000
0!
02
b1111100010011110 .
b0000000000000000 1
b00000000000000000000000000011010 ,
b00000000000000000000000000011010 *
#555000
1!
12
b10 8
1'
0&
b0000000000000000 ;
b11 9
#560000
0!
02
b1111101110100111 #
b1111101110100111 4
b00000000000000000000000000011011 )
b1111111101011101 :
b1111111101011101 7
b1111111101011101 (
#565000
1!
12
b11 8
0'
1&
b10 9
#570000
0!
02
b1111101110100111 .
b1111111101011100 1
b00000000000000000000000000000001 +
b00000000000000000000000000011011 *
#575000
1!
12
b10 8
1'
0&
b1111111101011101 ;
b11 9
#580000
0!
02
b1111111011110110 #
b1111111011110110 4
b00000000000000000000000000011100 )
b1111111110010111 :
b1111111110010111 7
b1111111110010111 (
#585000
1!
12
b11 8
0'
1&
b10 9
#590000
0!
02
b1111111011110110 .
b1111111110010111 1
b00000000000000000000000000011011 ,
b00000000000000000000000000011100 *
#595000
1!
12
b10 8
1'
0&
b1111111110010111 ;
b11 9
#600000
0!
02
b1111111001011111 #
b1111111001011111 4
b00000000000000000000000000011101 )
b1111111101110100 :
b1111111101110100 7
b1111111101110100 (
#605000
1!
12
b11 8
0'
1&
b10 9
#610000
0!
02
b1111111001011111 .
b1111111101110100 1
b00000000000000000000000000011100 ,
b00000000000000000000000000011101 *
#615000
1!
12
b10 8
1'
0&
b1111111101110100 ;
b11 9
#620000
0!
02
b0000001011010001 #
b0000001011010001 4
b00000000000000000000000000011110 )
b0000001000101010 :
b0000001000101010 7
b0000001000101010 (
#625000
1!
12
b11 8
0'
1&
b10 9
#630000
0!
02
b0000001011010001 .
b0000001000101010 1
b00000000000000000000000000011101 ,
b00000000000000000000000000011110 *
#635000
1!
12
b10 8
1'
0&
b0000001000101010 ;
b11 9
#640000
0!
02
b1111111001111101 #
b1111111001111101 4
b00000000000000000000000000011111 )
b1111111101111001 :
b1111111101111001 7
b1111111101111001 (
#645000
1!
12
b11 8
0'
1&
b10 9
#650000
0!
02
b1111111001111101 .
b1111111101111001 1
b00000000000000000000000000011110 ,
b00000000000000000000000000011111 *
#655000
1!
12
b10 8
1'
0&
b1111111101111001 ;
b11 9
#660000
0!
02
b1111110100101111 #
b1111110100101111 4
b00000000000000000000000000100000 )
b1111111101011001 :
b1111111101011001 7
b1111111101011001 (
#665000
1!
12
b11 8
0'
1&
b10 9
#670000
0!
02
b1111110100101111 .
b1111111101011001 1
b00000000000000000000000000011111 ,
b00000000000000000000000000100000 *
#675000
1!
12
b10 8
1'
0&
b1111111101011001 ;
b11 9
#680000
0!
02
b1111111010000011 #
b1111111010000011 4
b00000000000000000000000000100001 )
b1111111101111010 :
b1111111101111010 7
b1111111101111010 (
#685000
1!
12
b11 8
0'
1&
b10 9
#690000
0!
02
b1111111010000011 .
b1111111101111010 1
b00000000000000000000000000100000 ,
b00000000000000000000000000100001 *
#695000
1!
12
b10 8
1'
0&
b1111111101111010 ;
b11 9
#700000
0!
02
b0000000010001101 #
b0000000010001101 4
b00000000000000000000000000100010 )
b0000000001001110 :
b0000000001001110 7
b0000000001001110 (
#705000
1!
12
b11 8
0'
1&
b10 9
#710000
0!
02
b0000000010001101 .
b0000000001001110 1
b00000000000000000000000000100001 ,
b00000000000000000000000000100010 *
#715000
1!
12
b10 8
1'
0&
b0000000001001110 ;
b11 9
#720000
0!
02
b1111100000110011 #
b1111100000110011 4
b00000000000000000000000000100011 )
b0000000000000000 :
b0000000000000000 7
b0000000000000000 (
#725000
1!
12
b11 8
0'
1&
b10 9
#730000
0!
02
b1111100000110011 .
b0000000000000000 1
b00000000000000000000000000100010 ,
b00000000000000000000000000100011 *
#735000
1!
12
b10 8
1'
0&
b0000000000000000 ;
b11 9
#740000
0!
02
b0000000110011100 #
b0000000110011100 4
b00000000000000000000000000100100 )
b0000000100010001 :
b0000000100010001 7
b0000000100010001 (
#745000
1!
12
b11 8
0'
1&
b10 9
#750000
0!
02
b0000000110011100 .
b0000000100010001 1
b00000000000000000000000000100011 ,
b00000000000000000000000000100100 *
#755000
1!
12
b10 8
1'
0&
b0000000100010001 ;
b11 9
#760000
0!
02
b1111100110110110 #
b1111100110110110 4
b00000000000000000000000000100101 )
b1111111111010110 :
b1111111111010110 7
b1111111111010110 (
#765000
1!
12
b11 8
0'
1&
b10 9
#770000
0!
02
b1111100110110110 .
b1111111111010101 1
b00000000000000000000000000000010 +
b00000000000000000000000000100101 *
#775000
1!
12
b10 8
1'
0&
b1111111111010110 ;
b11 9
#780000
0!
02
b1111110110111110 #
b1111110110111110 4
b00000000000000000000000000100110 )
b1111111101100011 :
b1111111101100011 7
b1111111101100011 (
#785000
1!
12
b11 8
0'
1&
b10 9
#790000
0!
02
b1111110110111110 .
b1111111101100011 1
b00000000000000000000000000100100 ,
b00000000000000000000000000100110 *
#795000
1!
12
b10 8
1'
0&
b1111111101100011 ;
b11 9
#800000
0!
02
b1111101100010101 #
b1111101100010101 4
b00000000000000000000000000100111 )
b1111111101110001 :
b1111111101110001 7
b1111111101110001 (
#805000
1!
12
b11 8
0'
1&
b10 9
#810000
0!
02
b1111101100010101 .
b1111111101110001 1
b00000000000000000000000000100101 ,
b00000000000000000000000000100111 *
#815000
1!
12
b10 8
1'
0&
b1111111101110001 ;
b11 9
#820000
0!
02
b1111110001101110 #
b1111110001101110 4
b00000000000000000000000000101000 )
b1111111101010010 :
b1111111101010010 7
b1111111101010010 (
#825000
1!
12
b11 8
0'
1&
b10 9
#830000
0!
02
b1111110001101110 .
b1111111101010010 1
b00000000000000000000000000100110 ,
b00000000000000000000000000101000 *
#835000
1!
12
b10 8
1'
0&
b1111111101010010 ;
b11 9
#840000
0!
02
b1111111111110001 #
b1111111111110001 4
b00000000000000000000000000101001 )
b1111111111111001 :
b1111111111111001 7
b1111111111111001 (
#845000
1!
12
b11 8
0'
1&
b10 9
#850000
0!
02
b1111111111110001 .
b1111111111111001 1
b00000000000000000000000000100111 ,
b00000000000000000000000000101001 *
#855000
1!
12
b10 8
1'
0&
b1111111111111001 ;
b11 9
#860000
0!
02
b1111101000001001 #
b1111101000001001 4
b00000000000000000000000000101010 )
b1111111110110111 :
b1111111110110111 7
b1111111110110111 (
#865000
1!
12
b11 8
0'
1&
b10 9
#870000
0!
02
b1111101000001001 .
b1111111110110111 1
b00000000000000000000000000101000 ,
b00000000000000000000000000101010 *
#875000
1!
12
b10 8
1'
0&
b1111111110110111 ;
b11 9
#880000
0!
02
b1111101101011000 #
b1111101101011000 4
b00000000000000000000000000101011 )
b1111111101100110 :
b1111111101100110 7
b1111111101100110 (
#885000
1!
12
b11 8
0'
1&
b10 9
#890000
0!
02
b1111101101011000 .
b1111111101100110 1
b00000000000000000000000000101001 ,
b00000000000000000000000000101011 *
b00000000000000000000000000000001 -
#895000
1!
12
b10 8
1'
0&
b1111111101100110 ;
b11 9
#900000
0!
02
#905000
1!
12
b11 8
0'
1&
b10 9
