HW1/01_RTL/sim.log
*** Using c compiler gcc instead of cc ...
                         Chronologic VCS (TM)
         Version S-2021.09_Full64 -- Mon Jul  8 17:41:54 2024

                    Copyright (c) 1991 - 2021 Synopsys, Inc.
   This software and the associated documentation are proprietary to Synopsys,
 Inc. This software may only be used in accordance with the terms and conditions
 of a written license agreement with Synopsys, Inc. All other use, reproduction,
   or distribution of this software is strictly prohibited.  Licensed Products
     communicate with Synopsys servers for the purpose of providing software
    updates, detecting software piracy and verifying that customers are using
    Licensed Products in conformity with the applicable License Key for such
  Licensed Products. Synopsys will use information gathered in connection with
    this process to deliver software updates and pursue software pirates and
                                   infringers.

 Inclusivity & Diversity - Visit SolvNetPlus to read the "Synopsys Statement on
            Inclusivity and Diversity" (Refer to article 000036315 at
                        https://solvnetplus.synopsys.com)

Parsing design file '../00_TESTBED/testbench.v'
Parsing design file './alu.v'
Top Level Modules:
       testbed
TimeScale is 1 ns / 1 ps
Starting vcs inline pass...

1 module and 0 UDP read.
recompiling module testbed
rm -f _cuarc*.so _csrc*.so pre_vcsobj_*.so share_vcsobj_*.so
ld -shared  -Bsymbolic   -o .//../simv.daidir//_cuarc0.so objs/amcQw_d.o 
rm -f _cuarc0.so
if [ -x ../simv ]; then chmod a-x ../simv; fi
g++  -o ../simv      -rdynamic  -Wl,-rpath='$ORIGIN'/simv.daidir -Wl,-rpath=./simv.daidir -Wl,-rpath=/usr/cad/synopsys/vcs/cur/linux64/lib -L/usr/cad/synopsys/vcs/cur/linux64/lib  -Wl,-rpath-link=./ -Wl,--no-as-needed  /usr/lib64/libnuma.so.1     _85106_archive_1.so _cuarc0.so  SIM_l.o      rmapats_mop.o rmapats.o rmar.o rmar_nd.o  rmar_llvm_0_1.o rmar_llvm_0_0.o           -lvirsim -lerrorinf -lsnpsmalloc -lvfs    -lvcsnew -lsimprofile -luclinative /usr/cad/synopsys/vcs/cur/linux64/lib/vcs_tls.o   -Wl,-whole-archive  -lvcsucli    -Wl,-no-whole-archive          /usr/cad/synopsys/vcs/cur/linux64/lib/vcs_save_restore_new.o -ldl  -lc -lm -lpthread -ldl 
../simv up to date
Chronologic VCS simulator copyright 1991-2021
Contains Synopsys proprietary information.
Compiler version S-2021.09_Full64; Runtime version S-2021.09_Full64;  Jul  8 17:41 2024
Test[          0]: Correct! Inst=0100, A=1000000000000000, B=0000000000000000, Golden=0000000000000000, Yours=0000000000000000
Test[          1]: Correct! Inst=0100, A=0111110000000000, B=0000000000000000, Golden=0111110000000000, Yours=0111110000000000
Test[          2]: Correct! Inst=0100, A=0000000000000000, B=0000000000000000, Golden=0000000000000000, Yours=0000000000000000
Test[          3]: Correct! Inst=0100, A=0000000100101010, B=0000000000000000, Golden=0000000010111000, Yours=0000000010111000
Test[          4]: Correct! Inst=0100, A=1111111010110101, B=0000000000000000, Golden=1111111110000101, Yours=1111111110000101
Test[          5]: Correct! Inst=0100, A=1111101000110101, B=0000000000000000, Golden=1111111110101000, Yours=1111111110101000
Test[          6]: Correct! Inst=0100, A=1111110111111010, B=0000000000000000, Golden=1111111101100111, Yours=1111111101100111
Test[          7]: Correct! Inst=0100, A=1111111000110111, B=0000000000000000, Golden=1111111101101110, Yours=1111111101101110
Test[          8]: Correct! Inst=0100, A=0000001111101110, B=0000000000000000, Golden=0000001101000011, Yours=0000001101000011
Test[          9]: Correct! Inst=0100, A=0000001001000010, B=0000000000000000, Golden=0000000110100101, Yours=0000000110100101
Test[         10]: Correct! Inst=0100, A=0000001110001101, B=0000000000000000, Golden=0000001011011111, Yours=0000001011011111
Test[         11]: Correct! Inst=0100, A=0000000000100110, B=0000000000000000, Golden=0000000000010100, Yours=0000000000010100
Test[         12]: Correct! Inst=0100, A=1111110011011000, B=0000000000000000, Golden=1111111101010100, Yours=1111111101010100
Test[         13]: Correct! Inst=0100, A=0000001100111000, B=0000000000000000, Golden=0000001010001011, Yours=0000001010001011
Test[         14]: Correct! Inst=0100, A=1111110111000001, B=0000000000000000, Golden=1111111101100011, Yours=1111111101100011
Test[         15]: Correct! Inst=0100, A=1111101011001000, B=0000000000000000, Golden=1111111110000001, Yours=1111111110000001
Test[         16]: Correct! Inst=0100, A=1111110011000001, B=0000000000000000, Golden=1111111101010011, Yours=1111111101010011
Test[         17]: Correct! Inst=0100, A=0000000001110110, B=0000000000000000, Golden=0000000001000000, Yours=0000000001000000
Test[         18]: Correct! Inst=0100, A=1111111010110100, B=0000000000000000, Golden=1111111110000101, Yours=1111111110000101
Test[         19]: Correct! Inst=0100, A=0000000100010100, B=0000000000000000, Golden=0000000010101000, Yours=0000000010101000
Test[         20]: Correct! Inst=0100, A=0000001111110010, B=0000000000000000, Golden=0000001101000111, Yours=0000001101000111
Test[         21]: Correct! Inst=0100, A=0000001110001101, B=0000000000000000, Golden=0000001011011111, Yours=0000001011011111
Test[         22]: Correct! Inst=0100, A=1111111001101100, B=0000000000000000, Golden=1111111101110110, Yours=1111111101110110
Test[         23]: Correct! Inst=0100, A=0000001110010001, B=0000000000000000, Golden=0000001011100011, Yours=0000001011100011
Test[         24]: Correct! Inst=0100, A=1111100101100011, B=0000000000000000, Golden=1111111111111000, Yours=1111111111111000
Test[         25]: Correct! Inst=0100, A=1111100010011110, B=0000000000000000, Golden=0000000000000000, Yours=0000000000000000
Test[         26]: Correct! Inst=0100, A=1111101110100111, B=0000000000000000, Golden=1111111101011100, Yours=1111111101011100
Test[         27]: Correct! Inst=0100, A=1111111011110110, B=0000000000000000, Golden=1111111110010111, Yours=1111111110010111
Test[         28]: Correct! Inst=0100, A=1111111001011111, B=0000000000000000, Golden=1111111101110100, Yours=1111111101110100
Test[         29]: Correct! Inst=0100, A=0000001011010001, B=0000000000000000, Golden=0000001000101010, Yours=0000001000101010
Test[         30]: Correct! Inst=0100, A=1111111001111101, B=0000000000000000, Golden=1111111101111001, Yours=1111111101111001
Test[         31]: Correct! Inst=0100, A=1111110100101111, B=0000000000000000, Golden=1111111101011001, Yours=1111111101011001
Test[         32]: Correct! Inst=0100, A=1111111010000011, B=0000000000000000, Golden=1111111101111010, Yours=1111111101111010
Test[         33]: Correct! Inst=0100, A=0000000010001101, B=0000000000000000, Golden=0000000001001110, Yours=0000000001001110
Test[         34]: Correct! Inst=0100, A=1111100000110011, B=0000000000000000, Golden=0000000000000000, Yours=0000000000000000
Test[         35]: Correct! Inst=0100, A=0000000110011100, B=0000000000000000, Golden=0000000100010001, Yours=0000000100010001
Test[         36]: Correct! Inst=0100, A=1111100110110110, B=0000000000000000, Golden=1111111111010101, Yours=1111111111010101
Test[         37]: Correct! Inst=0100, A=1111110110111110, B=0000000000000000, Golden=1111111101100011, Yours=1111111101100011
Test[         38]: Correct! Inst=0100, A=1111101100010101, B=0000000000000000, Golden=1111111101110001, Yours=1111111101110001
Test[         39]: Correct! Inst=0100, A=1111110001101110, B=0000000000000000, Golden=1111111101010010, Yours=1111111101010010
Test[         40]: Correct! Inst=0100, A=1111111111110001, B=0000000000000000, Golden=1111111111111001, Yours=1111111111111001
Test[         41]: Correct! Inst=0100, A=1111101000001001, B=0000000000000000, Golden=1111111110110111, Yours=1111111110110111
Test[         42]: Correct! Inst=0100, A=1111101101011000, B=0000000000000000, Golden=1111111101100110, Yours=1111111101100110
----------------------------------------------
-                 ALL PASS!                  -
----------------------------------------------
$finish called from file "../00_TESTBED/testbench.v", line 236.
$finish at simulation time               910000
           V C S   S i m u l a t i o n   R e p o r t 
Time: 910000 ps
CPU Time:      0.250 seconds;       Data structure size:   0.0Mb
Mon Jul  8 17:41:56 2024
CPU time: .310 seconds to compile + .268 seconds to elab + .165 seconds to link + .271 seconds in simulation
