HW1/01_RTL/sim.log
*** Using c compiler gcc instead of cc ...
                         Chronologic VCS (TM)
         Version S-2021.09_Full64 -- Fri Jun 21 16:49:46 2024

                    Copyright (c) 1991 - 2021 Synopsys, Inc.
   This software and the associated documentation are proprietary to Synopsys,
 Inc. This software may only be used in accordance with the terms and conditions
 of a written license agreement with Synopsys, Inc. All other use, reproduction,
   or distribution of this software is strictly prohibited.  Licensed Products
     communicate with Synopsys servers for the purpose of providing software
    updates, detecting software piracy and verifying that customers are using
    Licensed Products in conformity with the applicable License Key for such
  Licensed Products. Synopsys will use information gathered in connection with
    this process to deliver software updates and pursue software pirates and
                                   infringers.

 Inclusivity & Diversity - Visit SolvNetPlus to read the "Synopsys Statement on
            Inclusivity and Diversity" (Refer to article 000036315 at
                        https://solvnetplus.synopsys.com)

Parsing design file '../00_TESTBED/testbench.v'
Parsing design file './alu.v'
Top Level Modules:
       testbed
TimeScale is 1 ns / 1 ps
Starting vcs inline pass...

1 module and 0 UDP read.
recompiling module testbed
rm -f _cuarc*.so _csrc*.so pre_vcsobj_*.so share_vcsobj_*.so
ld -shared  -Bsymbolic   -o .//../simv.daidir//_cuarc0.so objs/amcQw_d.o 
rm -f _cuarc0.so
if [ -x ../simv ]; then chmod a-x ../simv; fi
g++  -o ../simv      -rdynamic  -Wl,-rpath='$ORIGIN'/simv.daidir -Wl,-rpath=./simv.daidir -Wl,-rpath=/usr/cad/synopsys/vcs/cur/linux64/lib -L/usr/cad/synopsys/vcs/cur/linux64/lib  -Wl,-rpath-link=./ -Wl,--no-as-needed  /usr/lib64/libnuma.so.1     _101362_archive_1.so _cuarc0.so  SIM_l.o      rmapats_mop.o rmapats.o rmar.o rmar_nd.o  rmar_llvm_0_1.o rmar_llvm_0_0.o           -lvirsim -lerrorinf -lsnpsmalloc -lvfs    -lvcsnew -lsimprofile -luclinative /usr/cad/synopsys/vcs/cur/linux64/lib/vcs_tls.o   -Wl,-whole-archive  -lvcsucli    -Wl,-no-whole-archive          /usr/cad/synopsys/vcs/cur/linux64/lib/vcs_save_restore_new.o -ldl  -lc -lm -lpthread -ldl 
../simv up to date
Chronologic VCS simulator copyright 1991-2021
Contains Synopsys proprietary information.
Compiler version S-2021.09_Full64; Runtime version S-2021.09_Full64;  Jun 21 16:49 2024
Test[          0]: Correct! Inst=0010, A=1000010000000000, B=0111110000000000, Golden=1000000000000000, Yours=1000000000000000
Test[          1]: Correct! Inst=0010, A=0111110000000000, B=0111110000000000, Golden=0111111111111111, Yours=0111111111111111
Test[          2]: Correct! Inst=0010, A=1111101000011001, B=1111111001100100, Golden=0000001001100000, Yours=0000001001100000
Test[          3]: Correct! Inst=0010, A=1111100110101010, B=0000000010011001, Golden=1111111100001110, Yours=1111111100001110
Test[          4]: Correct! Inst=0010, A=1111111100110000, B=1111101000100111, Golden=0000000100110000, Yours=0000000100110000
Test[          5]: Correct! Inst=0010, A=0000001011010000, B=1111110000001010, Golden=1111110100110111, Yours=1111110100110111
Test[          6]: Correct! Inst=0010, A=0000001101000110, B=1111101001000001, Golden=1111101101001100, Yours=1111101101001100
Test[          7]: Correct! Inst=0010, A=1111101010100111, B=1111101111011101, Golden=0000010110001000, Yours=0000010110001000
Test[          8]: Correct! Inst=0010, A=1111110111001011, B=1111110011011001, Golden=0000000110111101, Yours=0000000110111101
Test[          9]: Correct! Inst=0010, A=1111110010000011, B=1111111010010101, Golden=0000000100111101, Yours=0000000100111101
Test[         10]: Correct! Inst=0010, A=1111111001001001, B=1111100010010110, Golden=0000001100101110, Yours=0000001100101110
Test[         11]: Correct! Inst=0010, A=1111101100101110, B=1111111010100010, Golden=0000000110100110, Yours=0000000110100110
Test[         12]: Correct! Inst=0010, A=1111100011010010, B=1111101101001100, Golden=0000100001110001, Yours=0000100001110001
Test[         13]: Correct! Inst=0010, A=1111110100111100, B=1111101011100110, Golden=0000001110000111, Yours=0000001110000111
Test[         14]: Correct! Inst=0010, A=1111101000010110, B=1111101011101011, Golden=0000011110000100, Yours=0000011110000100
Test[         15]: Correct! Inst=0010, A=1111100001010000, B=1111100111011010, Golden=0000101111010001, Yours=0000101111010001
Test[         16]: Correct! Inst=0010, A=0000001101110101, B=0000001101111010, Golden=0000001100000001, Yours=0000001100000001
Test[         17]: Correct! Inst=0010, A=1111110100101011, B=0000001100111010, Golden=1111110110110111, Yours=1111110110110111
Test[         18]: Correct! Inst=0010, A=0000001110001010, B=0000000111010011, Golden=0000000110011101, Yours=0000000110011101
Test[         19]: Correct! Inst=0010, A=0000000100100110, B=0000000010111101, Golden=0000000000110110, Yours=0000000000110110
Test[         20]: Correct! Inst=0010, A=1111100000010111, B=1111101000011100, Golden=0000101110100110, Yours=0000101110100110
Test[         21]: Correct! Inst=0010, A=0000000000101001, B=1111110001010011, Golden=1111111111011010, Yours=1111111111011010
Test[         22]: Correct! Inst=0010, A=0000000001111001, B=1111101001000100, Golden=1111111101010011, Yours=1111111101010011
Test[         23]: Correct! Inst=0010, A=1111111110111110, B=1111100000000100, Golden=0000000010000100, Yours=0000000010000100
Test[         24]: Correct! Inst=0010, A=1111111010100001, B=1111101111001100, Golden=0000000101110001, Yours=0000000101110001
Test[         25]: Correct! Inst=0010, A=1111101010011110, B=0000000001100101, Golden=1111111101111000, Yours=1111111101111000
Test[         26]: Correct! Inst=0010, A=0000000101000101, B=1111111110000001, Golden=1111111111011000, Yours=1111111111011000
Test[         27]: Correct! Inst=0010, A=1111101010111101, B=1111111010000100, Golden=0000000111110100, Yours=0000000111110100
Test[         28]: Correct! Inst=0010, A=1111110001110011, B=1111110101000101, Golden=0000001001101100, Yours=0000001001101100
Test[         29]: Correct! Inst=0010, A=0000001010110001, B=1111101101110011, Golden=1111110011110000, Yours=1111110011110000
Test[         30]: Correct! Inst=0010, A=0000001001000111, B=1111111000000101, Golden=1111111011011111, Yours=1111111011011111
Test[         31]: Correct! Inst=0010, A=1111110011010100, B=0000000100100011, Golden=1111111100011001, Yours=1111111100011001
Test[         32]: Correct! Inst=0010, A=1111101111010001, B=0000000100100110, Golden=1111111011001101, Yours=1111111011001101
Test[         33]: Correct! Inst=0010, A=1111111101001110, B=1111111011101010, Golden=0000000000110000, Yours=0000000000110000
Test[         34]: Correct! Inst=0010, A=0000001011101100, B=0000000011111001, Golden=0000000010110110, Yours=0000000010110110
Test[         35]: Correct! Inst=0010, A=0000001011101001, B=1111111110111111, Golden=1111111111010001, Yours=1111111111010001
Test[         36]: Correct! Inst=0010, A=1111111100011001, B=1111100101111011, Golden=0000000101111001, Yours=0000000101111001
Test[         37]: Correct! Inst=0010, A=1111101111111110, B=1111111000001110, Golden=0000000111110011, Yours=0000000111110011
Test[         38]: Correct! Inst=0010, A=0000001000111101, B=1111110000101011, Golden=1111110111011011, Yours=1111110111011011
Test[         39]: Correct! Inst=0010, A=1111110101001111, B=1111100100011011, Golden=0000010010100100, Yours=0000010010100100
Test[         40]: Correct! Inst=0010, A=0000001011011010, B=1111100111000110, Golden=1111101110010000, Yours=1111101110010000
Test[         41]: Correct! Inst=0010, A=1111100001100110, B=1111101001100001, Golden=0000101010101111, Yours=0000101010101111
----------------------------------------------
-                 ALL PASS!                  -
----------------------------------------------
$finish called from file "../00_TESTBED/testbench.v", line 236.
$finish at simulation time               890000
           V C S   S i m u l a t i o n   R e p o r t 
Time: 890000 ps
CPU Time:      0.240 seconds;       Data structure size:   0.0Mb
Fri Jun 21 16:49:49 2024
CPU time: .293 seconds to compile + .260 seconds to elab + .144 seconds to link + .263 seconds in simulation
