HW3/01_RTL/core.vcd
$date
	Tue Jul 23 14:31:40 2024
$end

$version
	Synopsys VCS version S-2021.09_Full64
$end

$timescale
	1ps
$end

$comment Csum: 1 f50bedcddcf0f2e3 $end


$scope module testbed $end
$var reg 1 ! clk $end
$var reg 1 " rst_n $end
$var reg 1 # op_valid $end
$var reg 4 $ op_mode [3:0] $end
$var reg 1 % op_ready $end
$var reg 1 & in_valid $end
$var reg 8 ' in_data [7:0] $end
$var wire 1 ( in_ready $end
$var wire 1 ) out_valid $end
$var wire 14 * out_data [13:0] $end
$var integer 32 + error $end
$var integer 32 , i $end
$var integer 32 - j $end
$var integer 32 . k $end
$var integer 32 / cycle $end

$scope module u_core $end
$var wire 1 0 i_clk $end
$var wire 1 1 i_rst_n $end
$var wire 1 2 i_op_valid $end
$var wire 4 3 i_op_mode [3:0] $end
$var wire 1 4 o_op_ready $end
$var wire 1 5 i_in_valid $end
$var wire 8 6 i_in_data [7:0] $end
$var wire 1 ( o_in_ready $end
$var wire 1 ) o_out_valid $end
$var wire 14 * o_out_data [13:0] $end
$var reg 4 7 state [3:0] $end
$var reg 4 8 next_state [3:0] $end
$var wire 1 9 load_map_done $end
$var reg 1 : display_done $end
$var reg 1 ; med_filter_done $end
$var reg 1 < convolution_done $end
$var reg 1 = sober_nms_done $end
$var reg 6 > depth_r [5:0] $end
$var reg 6 ? depth_w [5:0] $end
$var reg 12 @ cnt [11:0] $end
$var reg 12 A target_sticks [11:0] $end
$var reg 4 B origin_index_x_r [3:0] $end
$var reg 4 C origin_index_x_w [3:0] $end
$var reg 4 D origin_index_y_r [3:0] $end
$var reg 4 E origin_index_y_w [3:0] $end
$var reg 4 F new_x [3:0] $end
$var reg 4 G new_y [3:0] $end
$var reg 4 H new_y_delay1 [3:0] $end
$var reg 4 I new_y_delay2 [3:0] $end
$var reg 6 J new_z [5:0] $end
$var reg 11 K index_delay_w [10:0] $end
$var reg 11 L test_index_delay_r [10:0] $end
$var reg 11 M test_index_delay_r1 [10:0] $end
$var reg 14 N conv_sum [13:0] $end
$var reg 5 O counter_r [4:0] $end
$var reg 5 P counter_w [4:0] $end
$var reg 14 Q out_data_w [13:0] $end
$var reg 14 R out_data_r [13:0] $end
$var reg 1 S out_valid_w $end
$var reg 1 T out_valid_r $end
$var reg 1 U o_in_ready_w $end
$var reg 1 V o_in_ready_r $end
$var reg 17 W out_data_w_17 [16:0] $end
$var reg 3 X out_counter_w [2:0] $end
$var reg 3 Y out_counter_r [2:0] $end
$var wire 1 Z activate_median_filter $end
$var wire 1 [ activate_sobel_nms $end
$var reg 16 \ counter [15:0] $end

$scope begin unnamed$$_0 $end
$upscope $end


$scope begin unnamed$$_1 $end
$upscope $end


$scope begin unnamed$$_2 $end
$upscope $end


$scope begin unnamed$$_3 $end
$upscope $end


$scope begin unnamed$$_4 $end
$upscope $end


$scope begin unnamed$$_5 $end
$upscope $end


$scope begin unnamed$$_6 $end
$upscope $end


$scope begin unnamed$$_7 $end
$upscope $end


$scope begin unnamed$$_8 $end
$upscope $end


$scope begin unnamed$$_9 $end
$upscope $end


$scope begin unnamed$$_10 $end
$upscope $end


$scope begin unnamed$$_11 $end
$upscope $end


$scope begin unnamed$$_12 $end
$upscope $end


$scope begin unnamed$$_13 $end
$upscope $end


$scope begin unnamed$$_14 $end
$upscope $end


$scope module u_med_filter_inst0 $end
$var wire 8 ] p1 [7:0] $end
$var wire 8 ^ p2 [7:0] $end
$var wire 8 _ p3 [7:0] $end
$var wire 8 ` p4 [7:0] $end
$var wire 8 a p5 [7:0] $end
$var wire 8 b p6 [7:0] $end
$var wire 8 c p7 [7:0] $end
$var wire 8 d p8 [7:0] $end
$var wire 8 e p9 [7:0] $end
$var wire 8 f p10 [7:0] $end
$var wire 8 g p11 [7:0] $end
$var wire 8 h p12 [7:0] $end
$var wire 8 i p13 [7:0] $end
$var wire 8 j p14 [7:0] $end
$var wire 8 k p15 [7:0] $end
$var wire 8 l p16 [7:0] $end
$var wire 1 Z i_in_valid $end

$scope module u_submodule_inst0 $end
$var wire 8 g p1 [7:0] $end
$var wire 8 f p2 [7:0] $end
$var wire 8 e p3 [7:0] $end
$var wire 8 c p4 [7:0] $end
$var wire 8 b p5 [7:0] $end
$var wire 8 a p6 [7:0] $end
$var wire 8 _ p7 [7:0] $end
$var wire 8 ^ p8 [7:0] $end
$var wire 8 ] p9 [7:0] $end
$var wire 1 Z i_in_valid $end
$var wire 8 m median [7:0] $end
$var reg 8 n temp [7:0] $end
$var integer 32 o i $end
$var integer 32 p j $end
$upscope $end


$scope module u_submodule_inst1 $end
$var wire 8 h p1 [7:0] $end
$var wire 8 g p2 [7:0] $end
$var wire 8 f p3 [7:0] $end
$var wire 8 d p4 [7:0] $end
$var wire 8 c p5 [7:0] $end
$var wire 8 b p6 [7:0] $end
$var wire 8 ` p7 [7:0] $end
$var wire 8 _ p8 [7:0] $end
$var wire 8 ^ p9 [7:0] $end
$var wire 1 Z i_in_valid $end
$var wire 8 q median [7:0] $end
$var reg 8 r temp [7:0] $end
$var integer 32 s i $end
$var integer 32 t j $end
$upscope $end


$scope module u_submodule_inst2 $end
$var wire 8 k p1 [7:0] $end
$var wire 8 j p2 [7:0] $end
$var wire 8 i p3 [7:0] $end
$var wire 8 g p4 [7:0] $end
$var wire 8 f p5 [7:0] $end
$var wire 8 e p6 [7:0] $end
$var wire 8 c p7 [7:0] $end
$var wire 8 b p8 [7:0] $end
$var wire 8 a p9 [7:0] $end
$var wire 1 Z i_in_valid $end
$var wire 8 u median [7:0] $end
$var reg 8 v temp [7:0] $end
$var integer 32 w i $end
$var integer 32 x j $end
$upscope $end


$scope module u_submodule_inst3 $end
$var wire 8 l p1 [7:0] $end
$var wire 8 k p2 [7:0] $end
$var wire 8 j p3 [7:0] $end
$var wire 8 h p4 [7:0] $end
$var wire 8 g p5 [7:0] $end
$var wire 8 f p6 [7:0] $end
$var wire 8 d p7 [7:0] $end
$var wire 8 c p8 [7:0] $end
$var wire 8 b p9 [7:0] $end
$var wire 1 Z i_in_valid $end
$var wire 8 y median [7:0] $end
$var reg 8 z temp [7:0] $end
$var integer 32 { i $end
$var integer 32 | j $end
$upscope $end

$upscope $end


$scope module sobel_nms_inst0 $end
$var wire 8 } p1 [7:0] $end
$var wire 8 ~ p2 [7:0] $end
$var wire 8 "! p3 [7:0] $end
$var wire 8 "" p4 [7:0] $end
$var wire 8 "# p5 [7:0] $end
$var wire 8 "$ p6 [7:0] $end
$var wire 8 "% p7 [7:0] $end
$var wire 8 "& p8 [7:0] $end
$var wire 8 "' p9 [7:0] $end
$var wire 8 "( p10 [7:0] $end
$var wire 8 ") p11 [7:0] $end
$var wire 8 "* p12 [7:0] $end
$var wire 8 "+ p13 [7:0] $end
$var wire 8 ", p14 [7:0] $end
$var wire 8 "- p15 [7:0] $end
$var wire 8 ". p16 [7:0] $end
$var wire 1 [ i_in_valid $end
$var integer 32 "/ i $end
$var integer 32 "0 j $end
$var wire 2 "1 a0 [1:0] $end
$var wire 2 "2 a1 [1:0] $end
$var wire 2 "3 a2 [1:0] $end
$var wire 2 "4 a3 [1:0] $end
$var wire 14 "5 g0 [13:0] $end
$var wire 14 "6 g1 [13:0] $end
$var wire 14 "7 g2 [13:0] $end
$var wire 14 "8 g3 [13:0] $end
$var wire 21 "9 gx1 [20:0] $end
$var wire 21 ": gy1 [20:0] $end
$upscope $end

$upscope $end

$upscope $end

$enddefinitions $end

#0
$dumpvars
0!
x<
x:
05
02
11
x(
0&
x9
x;
xV
xU
x4
x%
0#
x)
xT
xS
1"
x=
bxxxxxxxxxxxx @
bxxxxxxxxxxxxxx N
bxxxxxxxxxxxxxxxx \
bxxxxx O
bxxxxx P
b00000000000000000000000000000001 /
bxxxxxx >
bxxxxxx ?
b00000000000000000000000000000000 +
b00000000000000000000000000000000 ,
b00000000 6
b0000 3
b00000000 '
bxxxxxxxxxxx K
b00000000000000000000000000000000 -
b00000000000000000000000000000000 .
bxxxx F
bxxxx G
bxxxx H
bxxxx I
bxxxxxx J
b1110 8
b0000 $
bxxxx B
bxxxx C
bxxxx D
bxxxx E
bxxx Y
bxxx X
bxxxxxxxxxxxxxx *
bxxxxxxxxxxxxxx R
bxxxxxxxxxxxxxx Q
bxxxxxxxxxxxxxxxxx W
bxxxx 7
bxxxxxxxxxxxx A
bxxxxxxxxxxx L
bxxxxxxxxxxx M
bxxxxxxxxxxxxxxxxxxxxxxxxxxxxxxxx o
bxxxxxxxxxxxxxxxxxxxxxxxxxxxxxxxx p
bxxxxxxxx n
bxxxxxxxxxxxxxxxxxxxxxxxxxxxxxxxx s
bxxxxxxxxxxxxxxxxxxxxxxxxxxxxxxxx t
bxxxxxxxx r
bxxxxxxxxxxxxxxxxxxxxxxxxxxxxxxxx w
bxxxxxxxxxxxxxxxxxxxxxxxxxxxxxxxx x
bxxxxxxxx v
bxxxxxxxxxxxxxxxxxxxxxxxxxxxxxxxx {
bxxxxxxxxxxxxxxxxxxxxxxxxxxxxxxxx |
bxxxxxxxx z
bxx "1
bxx "2
bxx "3
bxx "4
bxxxxxxxxxxxxxx "5
bxxxxxxxxxxxxxx "6
bxxxxxxxxxxxxxx "7
bxxxxxxxxxxxxxx "8
bxxxxxxxxxxxxxxxxxxxxx "9
bxxxxxxxxxxxxxxxxxxxxx ":
bxxxxxxxxxxxxxxxxxxxxxxxxxxxxxxxx "/
bxxxxxxxxxxxxxxxxxxxxxxxxxxxxxxxx "0
xZ
x[
00
bxxxxxxxx ]
bxxxxxxxx ^
bxxxxxxxx _
bxxxxxxxx `
bxxxxxxxx a
bxxxxxxxx b
bxxxxxxxx c
bxxxxxxxx d
bxxxxxxxx e
bxxxxxxxx f
bxxxxxxxx g
bxxxxxxxx h
bxxxxxxxx i
bxxxxxxxx j
bxxxxxxxx k
bxxxxxxxx l
bxxxxxxxx }
bxxxxxxxx ~
bxxxxxxxx "!
bxxxxxxxx ""
bxxxxxxxx "#
bxxxxxxxx "$
bxxxxxxxx "%
bxxxxxxxx "&
bxxxxxxxx "'
bxxxxxxxx "(
bxxxxxxxx ")
bxxxxxxxx "*
bxxxxxxxx "+
bxxxxxxxx ",
bxxxxxxxx "-
bxxxxxxxx ".
bxxxxxxxx m
bxxxxxxxx q
bxxxxxxxx u
bxxxxxxxx y
$end
#500
0"
01
04
0%
b0000 7
0[
0Z
b0000 8
0V
0(
0U
b00000000000 K
b00000000000000 R
b00000000000000 *
0T
0)
b000 Y
b00000 O
b0000 B
b0000 D
b0000 C
b0000 E
b100000 ?
b100000 >
b00000000 ".
b00000000 l
b00000000 "-
b00000000 k
b00000000 ",
b00000000 j
b00000000 "+
b00000000 i
b00000000 "*
b00000000 h
b00000000 ")
b00000000 g
b00000000 "(
b00000000 f
b00000000 "'
b00000000 e
b00000000 "&
b00000000 d
b00000000 "%
b00000000 c
b00000000 "$
b00000000 b
b00000000 "#
b00000000 a
b00000000 ""
b00000000 `
b00000000 "!
b00000000 _
b00000000 ~
b00000000 ^
b00000000 }
b00000000 ]
0=
0;
0<
b00000000000 M
b00000000000 L
b000000000000 A
b10 "4
b10 "3
b10 "2
b10 "1
bxxxxxxxxxxxxxx0000000 ":
b00000000000000000000000000000100 "/
b00000000000000000000000000000001 p
b00000000000000000000000000001000 o
b00000000000000000000000000000001 t
b00000000000000000000000000001000 s
b00000000000000000000000000000001 x
b00000000000000000000000000001000 w
b00000000000000000000000000000001 |
b00000000000000000000000000001000 {
#1000
1!
10
#2000
0!
00
b00000000000000000000000000000000 /
#3000
1!
10
#4000
1"
11
14
1%
0!
00
1#
12
b00000000000000000000000000000001 /
b0001 8
#5000
1!
10
b0001 7
04
0%
bxxxxxxxxxxxxxx R
bxxxxxxxxxxxxxx *
xT
x)
bxxx Y
bxxxxx O
1U
b000 X
b000000000000 @
0:
09
b1000 8
#6000
0!
00
0#
02
b00000000000000000000000000000010 /
#7000
1!
10
b1000 7
1V
1(
b000 Y
b0000 G
b0000 F
b000000 J
b100000000000 A
#8000
0!
00
1&
15
b11010000 '
b11010000 6
b00000000000000000000000000000001 -
b00000000000000000000000000000011 /
#9000
1!
10
b0000 H
b000000000001 @
b0001 F
#10000
0!
00
b10101101 '
b10101101 6
b00000000000000000000000000000010 -
b00000000000000000000000000000100 /
#11000
1!
10
b0000 I
b000000000010 @
b0010 F
#12000
0!
00
b10001011 '
b10001011 6
b00000000000000000000000000000011 -
b00000000000000000000000000000101 /
#13000
1!
10
b000000000011 @
b0011 F
#14000
0!
00
b01010110 '
b01010110 6
b00000000000000000000000000000100 -
b00000000000000000000000000000110 /
#15000
1!
10
b000000000100 @
b0100 F
#16000
0!
00
b00101110 '
b00101110 6
b00000000000000000000000000000101 -
b00000000000000000000000000000111 /
#17000
1!
10
b000000000101 @
b0101 F
#18000
0!
00
b11110001 '
b11110001 6
b00000000000000000000000000000110 -
b00000000000000000000000000001000 /
#19000
1!
10
b000000000110 @
b0110 F
#20000
0!
00
b11110110 '
b11110110 6
b00000000000000000000000000000111 -
b00000000000000000000000000001001 /
#21000
1!
10
b000000000111 @
b0111 F
#22000
0!
00
b11001101 '
b11001101 6
b00000000000000000000000000001000 -
b00000000000000000000000000001010 /
#23000
1!
10
b000000001000 @
b0001 G
b0000 F
#24000
0!
00
b01000110 '
b01000110 6
b00000000000000000000000000001001 -
b00000000000000000000000000001011 /
#25000
1!
10
b0001 H
b000000001001 @
b0001 F
#26000
0!
00
b11001110 '
b11001110 6
b00000000000000000000000000001010 -
b00000000000000000000000000001100 /
#27000
1!
10
b0001 I
b000000001010 @
b0010 F
#28000
0!
00
b00001011 '
b00001011 6
b00000000000000000000000000001011 -
b00000000000000000000000000001101 /
#29000
1!
10
b000000001011 @
b0011 F
#30000
0!
00
b10101111 '
b10101111 6
b00000000000000000000000000001100 -
b00000000000000000000000000001110 /
#31000
1!
10
b000000001100 @
b0100 F
#32000
0!
00
b10001000 '
b10001000 6
b00000000000000000000000000001101 -
b00000000000000000000000000001111 /
#33000
1!
10
b000000001101 @
b0101 F
#34000
0!
00
b00111111 '
b00111111 6
b00000000000000000000000000001110 -
b00000000000000000000000000010000 /
#35000
1!
10
b000000001110 @
b0110 F
#36000
0!
00
b00001100 '
b00001100 6
b00000000000000000000000000001111 -
b00000000000000000000000000010001 /
#37000
1!
10
b000000001111 @
b0111 F
#38000
0!
00
b11110100 '
b11110100 6
b00000000000000000000000000010000 -
b00000000000000000000000000010010 /
#39000
1!
10
b000000010000 @
b0010 G
b0000 F
#40000
0!
00
b11100100 '
b11100100 6
b00000000000000000000000000010001 -
b00000000000000000000000000010011 /
#41000
1!
10
b0010 H
b000000010001 @
b0001 F
#42000
0!
00
b00101100 '
b00101100 6
b00000000000000000000000000010010 -
b00000000000000000000000000010100 /
#43000
1!
10
b0010 I
b000000010010 @
b0010 F
#44000
0!
00
b11000100 '
b11000100 6
b00000000000000000000000000010011 -
b00000000000000000000000000010101 /
#45000
1!
10
b000000010011 @
b0011 F
#46000
0!
00
b11001000 '
b11001000 6
b00000000000000000000000000010100 -
b00000000000000000000000000010110 /
#47000
1!
10
b000000010100 @
b0100 F
#48000
0!
00
b10111000 '
b10111000 6
b00000000000000000000000000010101 -
b00000000000000000000000000010111 /
#49000
1!
10
b000000010101 @
b0101 F
#50000
0!
00
b11100010 '
b11100010 6
b00000000000000000000000000010110 -
b00000000000000000000000000011000 /
#51000
1!
10
b000000010110 @
b0110 F
#52000
0!
00
b10101100 '
b10101100 6
b00000000000000000000000000010111 -
b00000000000000000000000000011001 /
#53000
1!
10
b000000010111 @
b0111 F
#54000
0!
00
b00111001 '
b00111001 6
b00000000000000000000000000011000 -
b00000000000000000000000000011010 /
#55000
1!
10
b000000011000 @
b0011 G
b0000 F
#56000
0!
00
b10010001 '
b10010001 6
b00000000000000000000000000011001 -
b00000000000000000000000000011011 /
#57000
1!
10
b0011 H
b000000011001 @
b0001 F
#58000
0!
00
b10101010 '
b10101010 6
b00000000000000000000000000011010 -
b00000000000000000000000000011100 /
#59000
1!
10
b0011 I
b000000011010 @
b0010 F
#60000
0!
00
b00000000 '
b00000000 6
b00000000000000000000000000011011 -
b00000000000000000000000000011101 /
#61000
1!
10
b000000011011 @
b0011 F
#62000
0!
00
b00001111 '
b00001111 6
b00000000000000000000000000011100 -
b00000000000000000000000000011110 /
#63000
1!
10
b000000011100 @
b0100 F
#64000
0!
00
b00011011 '
b00011011 6
b00000000000000000000000000011101 -
b00000000000000000000000000011111 /
#65000
1!
10
b000000011101 @
b0101 F
#66000
0!
00
b10100001 '
b10100001 6
b00000000000000000000000000011110 -
b00000000000000000000000000100000 /
#67000
1!
10
b000000011110 @
b0110 F
#68000
0!
00
b11101110 '
b11101110 6
b00000000000000000000000000011111 -
b00000000000000000000000000100001 /
#69000
1!
10
b000000011111 @
b0111 F
#70000
0!
00
b00011111 '
b00011111 6
b00000000000000000000000000100000 -
b00000000000000000000000000100010 /
#71000
1!
10
b000000100000 @
b0100 G
b0000 F
#72000
0!
00
b01000010 '
b01000010 6
b00000000000000000000000000100001 -
b00000000000000000000000000100011 /
#73000
1!
10
b0100 H
b000000100001 @
b0001 F
#74000
0!
00
b11010011 '
b11010011 6
b00000000000000000000000000100010 -
b00000000000000000000000000100100 /
#75000
1!
10
b0100 I
b000000100010 @
b0010 F
#76000
0!
00
b10001101 '
b10001101 6
b00000000000000000000000000100011 -
b00000000000000000000000000100101 /
#77000
1!
10
b000000100011 @
b0011 F
#78000
0!
00
b10001110 '
b10001110 6
b00000000000000000000000000100100 -
b00000000000000000000000000100110 /
#79000
1!
10
b000000100100 @
b0100 F
#80000
0!
00
b01010111 '
b01010111 6
b00000000000000000000000000100101 -
b00000000000000000000000000100111 /
#81000
1!
10
b000000100101 @
b0101 F
#82000
0!
00
b10011110 '
b10011110 6
b00000000000000000000000000100110 -
b00000000000000000000000000101000 /
#83000
1!
10
b000000100110 @
b0110 F
#84000
0!
00
b01000001 '
b01000001 6
b00000000000000000000000000100111 -
b00000000000000000000000000101001 /
#85000
1!
10
b000000100111 @
b0111 F
#86000
0!
00
b11100101 '
b11100101 6
b00000000000000000000000000101000 -
b00000000000000000000000000101010 /
#87000
1!
10
b000000101000 @
b0101 G
b0000 F
#88000
0!
00
b11000111 '
b11000111 6
b00000000000000000000000000101001 -
b00000000000000000000000000101011 /
#89000
1!
10
b0101 H
b000000101001 @
b0001 F
#90000
0!
00
b10001000 '
b10001000 6
b00000000000000000000000000101010 -
b00000000000000000000000000101100 /
#91000
1!
10
b0101 I
b000000101010 @
b0010 F
#92000
0!
00
b00011011 '
b00011011 6
b00000000000000000000000000101011 -
b00000000000000000000000000101101 /
#93000
1!
10
b000000101011 @
b0011 F
#94000
0!
00
b01101100 '
b01101100 6
b00000000000000000000000000101100 -
b00000000000000000000000000101110 /
#95000
1!
10
b000000101100 @
b0100 F
#96000
0!
00
b10010111 '
b10010111 6
b00000000000000000000000000101101 -
b00000000000000000000000000101111 /
#97000
1!
10
b000000101101 @
b0101 F
#98000
0!
00
b10101011 '
b10101011 6
b00000000000000000000000000101110 -
b00000000000000000000000000110000 /
#99000
1!
10
b000000101110 @
b0110 F
#100000
0!
00
b11101001 '
b11101001 6
b00000000000000000000000000101111 -
b00000000000000000000000000110001 /
#101000
1!
10
b000000101111 @
b0111 F
#102000
0!
00
b11010100 '
b11010100 6
b00000000000000000000000000110000 -
b00000000000000000000000000110010 /
#103000
1!
10
b000000110000 @
b0110 G
b0000 F
#104000
0!
00
b01111100 '
b01111100 6
b00000000000000000000000000110001 -
b00000000000000000000000000110011 /
#105000
1!
10
b0110 H
b000000110001 @
b0001 F
#106000
0!
00
b10011010 '
b10011010 6
b00000000000000000000000000110010 -
b00000000000000000000000000110100 /
#107000
1!
10
b0110 I
b000000110010 @
b0010 F
#108000
0!
00
b00001101 '
b00001101 6
b00000000000000000000000000110011 -
b00000000000000000000000000110101 /
#109000
1!
10
b000000110011 @
b0011 F
#110000
0!
00
b11001111 '
b11001111 6
b00000000000000000000000000110100 -
b00000000000000000000000000110110 /
#111000
1!
10
b000000110100 @
b0100 F
#112000
0!
00
b00010101 '
b00010101 6
b00000000000000000000000000110101 -
b00000000000000000000000000110111 /
#113000
1!
10
b000000110101 @
b0101 F
#114000
0!
00
b11000011 '
b11000011 6
b00000000000000000000000000110110 -
b00000000000000000000000000111000 /
#115000
1!
10
b000000110110 @
b0110 F
#116000
0!
00
b01011101 '
b01011101 6
b00000000000000000000000000110111 -
b00000000000000000000000000111001 /
#117000
1!
10
b000000110111 @
b0111 F
#118000
0!
00
b10001101 '
b10001101 6
b00000000000000000000000000111000 -
b00000000000000000000000000111010 /
#119000
1!
10
b000000111000 @
b0111 G
b0000 F
#120000
0!
00
b11100111 '
b11100111 6
b00000000000000000000000000111001 -
b00000000000000000000000000111011 /
#121000
1!
10
b0111 H
b000000111001 @
b0001 F
#122000
0!
00
b10100101 '
b10100101 6
b00000000000000000000000000111010 -
b00000000000000000000000000111100 /
#123000
1!
10
b0111 I
b000000111010 @
b0010 F
#124000
0!
00
b10011000 '
b10011000 6
b00000000000000000000000000111011 -
b00000000000000000000000000111101 /
#125000
1!
10
b000000111011 @
b0011 F
#126000
0!
00
b11001010 '
b11001010 6
b00000000000000000000000000111100 -
b00000000000000000000000000111110 /
#127000
1!
10
b000000111100 @
b0100 F
#128000
0!
00
b11101100 '
b11101100 6
b00000000000000000000000000111101 -
b00000000000000000000000000111111 /
#129000
1!
10
b000000111101 @
b0101 F
#130000
0!
00
b01000001 '
b01000001 6
b00000000000000000000000000111110 -
b00000000000000000000000001000000 /
#131000
1!
10
b000000111110 @
b0110 F
#132000
0!
00
b11000011 '
b11000011 6
b00000000000000000000000000111111 -
b00000000000000000000000001000001 /
#133000
1!
10
b000000111111 @
b0111 F
#134000
0!
00
b00001100 '
b00001100 6
b00000000000000000000000001000000 -
b00000000000000000000000001000010 /
#135000
1!
10
b000001000000 @
b0000 G
b0000 F
b000001 J
#136000
0!
00
b11100111 '
b11100111 6
b00000000000000000000000001000001 -
b00000000000000000000000001000011 /
#137000
1!
10
b0000 H
b000001000001 @
b0001 F
#138000
0!
00
b01100101 '
b01100101 6
b00000000000000000000000001000010 -
b00000000000000000000000001000100 /
#139000
1!
10
b0000 I
b000001000010 @
b0010 F
#140000
0!
00
b10111000 '
b10111000 6
b00000000000000000000000001000011 -
b00000000000000000000000001000101 /
#141000
1!
10
b000001000011 @
b0011 F
#142000
0!
00
b01001011 '
b01001011 6
b00000000000000000000000001000100 -
b00000000000000000000000001000110 /
#143000
1!
10
b000001000100 @
b0100 F
#144000
0!
00
b00001011 '
b00001011 6
b00000000000000000000000001000101 -
b00000000000000000000000001000111 /
#145000
1!
10
b000001000101 @
b0101 F
#146000
0!
00
b10001100 '
b10001100 6
b00000000000000000000000001000110 -
b00000000000000000000000001001000 /
#147000
1!
10
b000001000110 @
b0110 F
#148000
0!
00
b11000011 '
b11000011 6
b00000000000000000000000001000111 -
b00000000000000000000000001001001 /
#149000
1!
10
b000001000111 @
b0111 F
#150000
0!
00
b00100100 '
b00100100 6
b00000000000000000000000001001000 -
b00000000000000000000000001001010 /
#151000
1!
10
b000001001000 @
b0001 G
b0000 F
#152000
0!
00
b00001011 '
b00001011 6
b00000000000000000000000001001001 -
b00000000000000000000000001001011 /
#153000
1!
10
b0001 H
b000001001001 @
b0001 F
#154000
0!
00
b10010011 '
b10010011 6
b00000000000000000000000001001010 -
b00000000000000000000000001001100 /
#155000
1!
10
b0001 I
b000001001010 @
b0010 F
#156000
0!
00
b11000001 '
b11000001 6
b00000000000000000000000001001011 -
b00000000000000000000000001001101 /
#157000
1!
10
b000001001011 @
b0011 F
#158000
0!
00
b00100001 '
b00100001 6
b00000000000000000000000001001100 -
b00000000000000000000000001001110 /
#159000
1!
10
b000001001100 @
b0100 F
#160000
0!
00
b11100010 '
b11100010 6
b00000000000000000000000001001101 -
b00000000000000000000000001001111 /
#161000
1!
10
b000001001101 @
b0101 F
#162000
0!
00
b11001000 '
b11001000 6
b00000000000000000000000001001110 -
b00000000000000000000000001010000 /
#163000
1!
10
b000001001110 @
b0110 F
#164000
0!
00
b10001101 '
b10001101 6
b00000000000000000000000001001111 -
b00000000000000000000000001010001 /
#165000
1!
10
b000001001111 @
b0111 F
#166000
0!
00
b10001010 '
b10001010 6
b00000000000000000000000001010000 -
b00000000000000000000000001010010 /
#167000
1!
10
b000001010000 @
b0010 G
b0000 F
#168000
0!
00
b11110101 '
b11110101 6
b00000000000000000000000001010001 -
b00000000000000000000000001010011 /
#169000
1!
10
b0010 H
b000001010001 @
b0001 F
#170000
0!
00
b01100100 '
b01100100 6
b00000000000000000000000001010010 -
b00000000000000000000000001010100 /
#171000
1!
10
b0010 I
b000001010010 @
b0010 F
#172000
0!
00
b00101010 '
b00101010 6
b00000000000000000000000001010011 -
b00000000000000000000000001010101 /
#173000
1!
10
b000001010011 @
b0011 F
#174000
0!
00
b00011001 '
b00011001 6
b00000000000000000000000001010100 -
b00000000000000000000000001010110 /
#175000
1!
10
b000001010100 @
b0100 F
#176000
0!
00
b11111111 '
b11111111 6
b00000000000000000000000001010101 -
b00000000000000000000000001010111 /
#177000
1!
10
b000001010101 @
b0101 F
#178000
0!
00
b10111000 '
b10111000 6
b00000000000000000000000001010110 -
b00000000000000000000000001011000 /
#179000
1!
10
b000001010110 @
b0110 F
#180000
0!
00
b01101110 '
b01101110 6
b00000000000000000000000001010111 -
b00000000000000000000000001011001 /
#181000
1!
10
b000001010111 @
b0111 F
#182000
0!
00
b10001001 '
b10001001 6
b00000000000000000000000001011000 -
b00000000000000000000000001011010 /
#183000
1!
10
b000001011000 @
b0011 G
b0000 F
#184000
0!
00
b01111000 '
b01111000 6
b00000000000000000000000001011001 -
b00000000000000000000000001011011 /
#185000
1!
10
b0011 H
b000001011001 @
b0001 F
#186000
0!
00
b10001010 '
b10001010 6
b00000000000000000000000001011010 -
b00000000000000000000000001011100 /
#187000
1!
10
b0011 I
b000001011010 @
b0010 F
#188000
0!
00
b11011101 '
b11011101 6
b00000000000000000000000001011011 -
b00000000000000000000000001011101 /
#189000
1!
10
b000001011011 @
b0011 F
#190000
0!
00
b01010000 '
b01010000 6
b00000000000000000000000001011100 -
b00000000000000000000000001011110 /
#191000
1!
10
b000001011100 @
b0100 F
#192000
0!
00
b00101110 '
b00101110 6
b00000000000000000000000001011101 -
b00000000000000000000000001011111 /
#193000
1!
10
b000001011101 @
b0101 F
#194000
0!
00
b11011011 '
b11011011 6
b00000000000000000000000001011110 -
b00000000000000000000000001100000 /
#195000
1!
10
b000001011110 @
b0110 F
#196000
0!
00
b01100100 '
b01100100 6
b00000000000000000000000001011111 -
b00000000000000000000000001100001 /
#197000
1!
10
b000001011111 @
b0111 F
#198000
0!
00
b01111000 '
b01111000 6
b00000000000000000000000001100000 -
b00000000000000000000000001100010 /
#199000
1!
10
b000001100000 @
b0100 G
b0000 F
#200000
0!
00
b11001100 '
b11001100 6
b00000000000000000000000001100001 -
b00000000000000000000000001100011 /
#201000
1!
10
b0100 H
b000001100001 @
b0001 F
#202000
0!
00
b11111011 '
b11111011 6
b00000000000000000000000001100010 -
b00000000000000000000000001100100 /
#203000
1!
10
b0100 I
b000001100010 @
b0010 F
#204000
0!
00
b10100001 '
b10100001 6
b00000000000000000000000001100011 -
b00000000000000000000000001100101 /
#205000
1!
10
b000001100011 @
b0011 F
#206000
0!
00
b01010000 '
b01010000 6
b00000000000000000000000001100100 -
b00000000000000000000000001100110 /
#207000
1!
10
b000001100100 @
b0100 F
#208000
0!
00
b11101111 '
b11101111 6
b00000000000000000000000001100101 -
b00000000000000000000000001100111 /
#209000
1!
10
b000001100101 @
b0101 F
#210000
0!
00
b10110010 '
b10110010 6
b00000000000000000000000001100110 -
b00000000000000000000000001101000 /
#211000
1!
10
b000001100110 @
b0110 F
#212000
0!
00
b11011011 '
b11011011 6
b00000000000000000000000001100111 -
b00000000000000000000000001101001 /
#213000
1!
10
b000001100111 @
b0111 F
#214000
0!
00
b10010101 '
b10010101 6
b00000000000000000000000001101000 -
b00000000000000000000000001101010 /
#215000
1!
10
b000001101000 @
b0101 G
b0000 F
#216000
0!
00
b01100011 '
b01100011 6
b00000000000000000000000001101001 -
b00000000000000000000000001101011 /
#217000
1!
10
b0101 H
b000001101001 @
b0001 F
#218000
0!
00
b01010011 '
b01010011 6
b00000000000000000000000001101010 -
b00000000000000000000000001101100 /
#219000
1!
10
b0101 I
b000001101010 @
b0010 F
#220000
0!
00
b00100100 '
b00100100 6
b00000000000000000000000001101011 -
b00000000000000000000000001101101 /
#221000
1!
10
b000001101011 @
b0011 F
#222000
0!
00
b01101101 '
b01101101 6
b00000000000000000000000001101100 -
b00000000000000000000000001101110 /
#223000
1!
10
b000001101100 @
b0100 F
#224000
0!
00
b10101001 '
b10101001 6
b00000000000000000000000001101101 -
b00000000000000000000000001101111 /
#225000
1!
10
b000001101101 @
b0101 F
#226000
0!
00
b10000000 '
b10000000 6
b00000000000000000000000001101110 -
b00000000000000000000000001110000 /
#227000
1!
10
b000001101110 @
b0110 F
#228000
0!
00
b10100011 '
b10100011 6
b00000000000000000000000001101111 -
b00000000000000000000000001110001 /
#229000
1!
10
b000001101111 @
b0111 F
#230000
0!
00
b11001111 '
b11001111 6
b00000000000000000000000001110000 -
b00000000000000000000000001110010 /
#231000
1!
10
b000001110000 @
b0110 G
b0000 F
#232000
0!
00
b01101111 '
b01101111 6
b00000000000000000000000001110001 -
b00000000000000000000000001110011 /
#233000
1!
10
b0110 H
b000001110001 @
b0001 F
#234000
0!
00
b01100011 '
b01100011 6
b00000000000000000000000001110010 -
b00000000000000000000000001110100 /
#235000
1!
10
b0110 I
b000001110010 @
b0010 F
