HW3/01_RTL/core.vcd
$date
	Tue Jul 23 14:29:05 2024
$end

$version
	Synopsys VCS version S-2021.09_Full64
$end

$timescale
	1ps
$end

$comment Csum: 1 f50bedcddcf0f2e3 $end


$scope module testbed $end
$var reg 1 ! clk $end
$var reg 1 " rst_n $end
$var reg 1 # op_valid $end
$var reg 4 $ op_mode [3:0] $end
$var reg 1 % op_ready $end
$var reg 1 & in_valid $end
$var reg 8 ' in_data [7:0] $end
$var wire 1 ( in_ready $end
$var wire 1 ) out_valid $end
$var wire 14 * out_data [13:0] $end
$var integer 32 + error $end
$var integer 32 , i $end
$var integer 32 - j $end
$var integer 32 . k $end
$var integer 32 / cycle $end

$scope module u_core $end
$var wire 1 0 i_clk $end
$var wire 1 1 i_rst_n $end
$var wire 1 2 i_op_valid $end
$var wire 4 3 i_op_mode [3:0] $end
$var wire 1 4 o_op_ready $end
$var wire 1 5 i_in_valid $end
$var wire 8 6 i_in_data [7:0] $end
$var wire 1 ( o_in_ready $end
$var wire 1 ) o_out_valid $end
$var wire 14 * o_out_data [13:0] $end
$var reg 4 7 state [3:0] $end
$var reg 4 8 next_state [3:0] $end
$var wire 1 9 load_map_done $end
$var reg 1 : display_done $end
$var reg 1 ; med_filter_done $end
$var reg 1 < convolution_done $end
$var reg 1 = sober_nms_done $end
$var reg 6 > depth_r [5:0] $end
$var reg 6 ? depth_w [5:0] $end
$var reg 12 @ cnt [11:0] $end
$var reg 12 A target_sticks [11:0] $end
$var reg 4 B origin_index_x_r [3:0] $end
$var reg 4 C origin_index_x_w [3:0] $end
$var reg 4 D origin_index_y_r [3:0] $end
$var reg 4 E origin_index_y_w [3:0] $end
$var reg 4 F new_x [3:0] $end
$var reg 4 G new_y [3:0] $end
$var reg 4 H new_y_delay1 [3:0] $end
$var reg 4 I new_y_delay2 [3:0] $end
$var reg 6 J new_z [5:0] $end
$var reg 11 K index_delay_w [10:0] $end
$var reg 11 L test_index_delay_r [10:0] $end
$var reg 11 M test_index_delay_r1 [10:0] $end
$var reg 14 N conv_sum [13:0] $end
$var reg 5 O counter_r [4:0] $end
$var reg 5 P counter_w [4:0] $end
$var reg 14 Q out_data_w [13:0] $end
$var reg 14 R out_data_r [13:0] $end
$var reg 1 S out_valid_w $end
$var reg 1 T out_valid_r $end
$var reg 1 U o_in_ready_w $end
$var reg 1 V o_in_ready_r $end
$var reg 17 W out_data_w_17 [16:0] $end
$var reg 3 X out_counter_w [2:0] $end
$var reg 3 Y out_counter_r [2:0] $end
$var wire 1 Z activate_median_filter $end
$var wire 1 [ activate_sobel_nms $end
$var reg 8 \ tsram_addr_delay_r [7:0] $end
$var wire 8 ] dsram_data_out [7:0] $end
$var wire 1 ^ dsram_cen_r $end
$var wire 1 _ dsram_cen_r1 $end
$var wire 1 ` dsram_cen_r11 $end
$var wire 1 a dsram_cen_r111 $end
$var wire 14 b dconv_partial_sum0 [13:0] $end
$var wire 14 c dconv_partial_sum1 [13:0] $end
$var wire 14 d dconv_partial_sum2 [13:0] $end
$var wire 14 e dconv_partial_sum3 [13:0] $end
$var wire 14 f dconv_partial_sum4 [13:0] $end
$var wire 14 g dconv_partial_sum5 [13:0] $end
$var wire 14 h dconv_partial_sum6 [13:0] $end
$var wire 14 i dconv_partial_sum7 [13:0] $end
$var wire 14 j dconv_partial_sum8 [13:0] $end
$var wire 14 k dconv_partial_sum9 [13:0] $end
$var wire 14 l dconv_partial_sum10 [13:0] $end
$var wire 14 m dconv_partial_sum11 [13:0] $end
$var wire 14 n dconv_partial_sum12 [13:0] $end
$var wire 14 o dconv_partial_sum13 [13:0] $end
$var wire 14 p dconv_partial_sum14 [13:0] $end
$var wire 14 q dconv_partial_sum15 [13:0] $end
$var wire 1 r dsram_cen0 $end
$var wire 1 s dsram_cen1 $end
$var wire 1 t dsram_cen2 $end
$var wire 1 u dsram_cen3 $end
$var wire 1 v dsram_cen4 $end
$var wire 1 w dsram_cen5 $end
$var wire 1 x dsram_cen6 $end
$var wire 1 y dsram_cen7 $end
$var wire 8 z dsram_data_out0 [7:0] $end
$var wire 8 { dsram_data_out1 [7:0] $end
$var wire 8 | dsram_data_out2 [7:0] $end
$var wire 8 } dsram_data_out3 [7:0] $end
$var wire 8 ~ dsram_data_out4 [7:0] $end
$var wire 8 "! dsram_data_out5 [7:0] $end
$var wire 8 "" dsram_data_out6 [7:0] $end
$var wire 8 "# dsram_data_out7 [7:0] $end
$var wire 8 "$ dsram_addr [7:0] $end
$var wire 1 "% dsram_cen $end
$var wire 1 "& dsram_wen $end
$var reg 16 "' counter [15:0] $end

$scope begin unnamed$$_0 $end
$upscope $end


$scope begin unnamed$$_1 $end
$upscope $end


$scope begin unnamed$$_2 $end
$upscope $end


$scope begin unnamed$$_3 $end
$upscope $end


$scope begin unnamed$$_4 $end
$upscope $end


$scope begin unnamed$$_5 $end
$upscope $end


$scope begin unnamed$$_6 $end
$upscope $end


$scope begin unnamed$$_7 $end
$upscope $end


$scope begin unnamed$$_8 $end
$upscope $end


$scope begin unnamed$$_9 $end
$upscope $end


$scope begin unnamed$$_10 $end
$upscope $end


$scope begin unnamed$$_11 $end
$upscope $end


$scope begin unnamed$$_12 $end
$upscope $end


$scope begin unnamed$$_13 $end
$upscope $end


$scope begin unnamed$$_14 $end
$upscope $end


$scope module u_med_filter_inst0 $end
$var wire 8 "( p1 [7:0] $end
$var wire 8 ") p2 [7:0] $end
$var wire 8 "* p3 [7:0] $end
$var wire 8 "+ p4 [7:0] $end
$var wire 8 ", p5 [7:0] $end
$var wire 8 "- p6 [7:0] $end
$var wire 8 ". p7 [7:0] $end
$var wire 8 "/ p8 [7:0] $end
$var wire 8 "0 p9 [7:0] $end
$var wire 8 "1 p10 [7:0] $end
$var wire 8 "2 p11 [7:0] $end
$var wire 8 "3 p12 [7:0] $end
$var wire 8 "4 p13 [7:0] $end
$var wire 8 "5 p14 [7:0] $end
$var wire 8 "6 p15 [7:0] $end
$var wire 8 "7 p16 [7:0] $end
$var wire 1 Z i_in_valid $end

$scope module u_submodule_inst0 $end
$var wire 8 "2 p1 [7:0] $end
$var wire 8 "1 p2 [7:0] $end
$var wire 8 "0 p3 [7:0] $end
$var wire 8 ". p4 [7:0] $end
$var wire 8 "- p5 [7:0] $end
$var wire 8 ", p6 [7:0] $end
$var wire 8 "* p7 [7:0] $end
$var wire 8 ") p8 [7:0] $end
$var wire 8 "( p9 [7:0] $end
$var wire 1 Z i_in_valid $end
$var wire 8 "8 median [7:0] $end
$var reg 8 "9 temp [7:0] $end
$var integer 32 ": i $end
$var integer 32 "; j $end
$upscope $end


$scope module u_submodule_inst1 $end
$var wire 8 "3 p1 [7:0] $end
$var wire 8 "2 p2 [7:0] $end
$var wire 8 "1 p3 [7:0] $end
$var wire 8 "/ p4 [7:0] $end
$var wire 8 ". p5 [7:0] $end
$var wire 8 "- p6 [7:0] $end
$var wire 8 "+ p7 [7:0] $end
$var wire 8 "* p8 [7:0] $end
$var wire 8 ") p9 [7:0] $end
$var wire 1 Z i_in_valid $end
$var wire 8 "< median [7:0] $end
$var reg 8 "= temp [7:0] $end
$var integer 32 "> i $end
$var integer 32 "? j $end
$upscope $end


$scope module u_submodule_inst2 $end
$var wire 8 "6 p1 [7:0] $end
$var wire 8 "5 p2 [7:0] $end
$var wire 8 "4 p3 [7:0] $end
$var wire 8 "2 p4 [7:0] $end
$var wire 8 "1 p5 [7:0] $end
$var wire 8 "0 p6 [7:0] $end
$var wire 8 ". p7 [7:0] $end
$var wire 8 "- p8 [7:0] $end
$var wire 8 ", p9 [7:0] $end
$var wire 1 Z i_in_valid $end
$var wire 8 "@ median [7:0] $end
$var reg 8 "A temp [7:0] $end
$var integer 32 "B i $end
$var integer 32 "C j $end
$upscope $end


$scope module u_submodule_inst3 $end
$var wire 8 "7 p1 [7:0] $end
$var wire 8 "6 p2 [7:0] $end
$var wire 8 "5 p3 [7:0] $end
$var wire 8 "3 p4 [7:0] $end
$var wire 8 "2 p5 [7:0] $end
$var wire 8 "1 p6 [7:0] $end
$var wire 8 "/ p7 [7:0] $end
$var wire 8 ". p8 [7:0] $end
$var wire 8 "- p9 [7:0] $end
$var wire 1 Z i_in_valid $end
$var wire 8 "D median [7:0] $end
$var reg 8 "E temp [7:0] $end
$var integer 32 "F i $end
$var integer 32 "G j $end
$upscope $end

$upscope $end


$scope module sobel_nms_inst0 $end
$var wire 8 "H p1 [7:0] $end
$var wire 8 "I p2 [7:0] $end
$var wire 8 "J p3 [7:0] $end
$var wire 8 "K p4 [7:0] $end
$var wire 8 "L p5 [7:0] $end
$var wire 8 "M p6 [7:0] $end
$var wire 8 "N p7 [7:0] $end
$var wire 8 "O p8 [7:0] $end
$var wire 8 "P p9 [7:0] $end
$var wire 8 "Q p10 [7:0] $end
$var wire 8 "R p11 [7:0] $end
$var wire 8 "S p12 [7:0] $end
$var wire 8 "T p13 [7:0] $end
$var wire 8 "U p14 [7:0] $end
$var wire 8 "V p15 [7:0] $end
$var wire 8 "W p16 [7:0] $end
$var wire 1 [ i_in_valid $end
$var integer 32 "X i $end
$var integer 32 "Y j $end
$var wire 2 "Z a0 [1:0] $end
$var wire 2 "[ a1 [1:0] $end
$var wire 2 "\ a2 [1:0] $end
$var wire 2 "] a3 [1:0] $end
$var wire 14 "^ g0 [13:0] $end
$var wire 14 "_ g1 [13:0] $end
$var wire 14 "` g2 [13:0] $end
$var wire 14 "a g3 [13:0] $end
$var wire 21 "b gx1 [20:0] $end
$var wire 21 "c gy1 [20:0] $end
$upscope $end

$upscope $end

$upscope $end

$enddefinitions $end

#0
$dumpvars
0!
x<
x:
xr
x^
x_
x`
xa
x"&
05
02
11
x(
0&
x9
x;
xV
xU
x4
x%
0#
x)
xT
xS
1"
x=
xs
xt
xu
xv
xw
xx
xy
x"%
bxxxxxxxxxxxx @
bxxxxxxxxxxxxxx N
bxxxxxxxxxxxxxxxx "'
bxxxxx O
bxxxxx P
b00000000000000000000000000000001 /
bxxxxxxxxxxxxxx b
bxxxxxxxxxxxxxx c
bxxxxxxxxxxxxxx l
bxxxxxxxxxxxxxx m
bxxxxxxxxxxxxxx n
bxxxxxxxxxxxxxx o
bxxxxxxxxxxxxxx p
bxxxxxxxxxxxxxx q
bxxxxxxxxxxxxxx d
bxxxxxxxxxxxxxx e
bxxxxxxxxxxxxxx f
bxxxxxxxxxxxxxx g
bxxxxxxxxxxxxxx h
bxxxxxxxxxxxxxx i
bxxxxxxxxxxxxxx j
bxxxxxxxxxxxxxx k
bxxxxxx >
bxxxxxx ?
bxxxxxxxx "$
bxxxxxxxx z
b00000000000000000000000000000000 +
b00000000000000000000000000000000 ,
b00000000 6
b0000 3
b00000000 '
bxxxxxxxxxxx K
b00000000000000000000000000000000 -
b00000000000000000000000000000000 .
bxxxx F
bxxxx G
bxxxx H
bxxxx I
bxxxxxx J
b1110 8
b0000 $
bxxxx B
bxxxx C
bxxxx D
bxxxx E
bxxx Y
bxxx X
bxxxxxxxxxxxxxx *
bxxxxxxxxxxxxxx R
bxxxxxxxxxxxxxx Q
bxxxxxxxxxxxxxxxxx W
bxxxx 7
bxxxxxxxxxxxx A
bxxxxxxxx ]
bxxxxxxxx {
bxxxxxxxx |
bxxxxxxxx }
bxxxxxxxx ~
bxxxxxxxx "!
bxxxxxxxx ""
bxxxxxxxx "#
bxxxxxxxxxxx L
bxxxxxxxxxxx M
bxxxxxxxx \
bxxxxxxxxxxxxxxxxxxxxxxxxxxxxxxxx ":
bxxxxxxxxxxxxxxxxxxxxxxxxxxxxxxxx ";
bxxxxxxxx "9
bxxxxxxxxxxxxxxxxxxxxxxxxxxxxxxxx ">
bxxxxxxxxxxxxxxxxxxxxxxxxxxxxxxxx "?
bxxxxxxxx "=
bxxxxxxxxxxxxxxxxxxxxxxxxxxxxxxxx "B
bxxxxxxxxxxxxxxxxxxxxxxxxxxxxxxxx "C
bxxxxxxxx "A
bxxxxxxxxxxxxxxxxxxxxxxxxxxxxxxxx "F
bxxxxxxxxxxxxxxxxxxxxxxxxxxxxxxxx "G
bxxxxxxxx "E
bxx "Z
bxx "[
bxx "\
bxx "]
bxxxxxxxxxxxxxx "^
bxxxxxxxxxxxxxx "_
bxxxxxxxxxxxxxx "`
bxxxxxxxxxxxxxx "a
bxxxxxxxxxxxxxxxxxxxxx "b
bxxxxxxxxxxxxxxxxxxxxx "c
bxxxxxxxxxxxxxxxxxxxxxxxxxxxxxxxx "X
bxxxxxxxxxxxxxxxxxxxxxxxxxxxxxxxx "Y
xZ
x[
00
bxxxxxxxx "(
bxxxxxxxx ")
bxxxxxxxx "*
bxxxxxxxx "+
bxxxxxxxx ",
bxxxxxxxx "-
bxxxxxxxx ".
bxxxxxxxx "/
bxxxxxxxx "0
bxxxxxxxx "1
bxxxxxxxx "2
bxxxxxxxx "3
bxxxxxxxx "4
bxxxxxxxx "5
bxxxxxxxx "6
bxxxxxxxx "7
bxxxxxxxx "H
bxxxxxxxx "I
bxxxxxxxx "J
bxxxxxxxx "K
bxxxxxxxx "L
bxxxxxxxx "M
bxxxxxxxx "N
bxxxxxxxx "O
bxxxxxxxx "P
bxxxxxxxx "Q
bxxxxxxxx "R
bxxxxxxxx "S
bxxxxxxxx "T
bxxxxxxxx "U
bxxxxxxxx "V
bxxxxxxxx "W
bxxxxxxxx "8
bxxxxxxxx "<
bxxxxxxxx "@
bxxxxxxxx "D
$end
#500
0"
01
04
0%
b0000 7
0[
0Z
b0000 8
0V
0(
0U
b00000000000 K
b00000000 \
b00000000000000 R
b00000000000000 *
0T
0)
b000 Y
b00000 O
1r
1a
1^
1_
1`
0"&
b0000 B
b0000 D
b0000 C
b0000 E
b100000 ?
b100000 >
b00000000000000 q
b00000000000000 p
b00000000000000 o
b00000000000000 n
b00000000000000 m
b00000000000000 l
b00000000000000 k
b00000000000000 j
b00000000000000 i
b00000000000000 h
b00000000000000 g
b00000000000000 f
b00000000000000 e
b00000000000000 d
b00000000000000 c
b00000000000000 b
b00000000 "W
b00000000 "7
b00000000 "V
b00000000 "6
b00000000 "U
b00000000 "5
b00000000 "T
b00000000 "4
b00000000 "S
b00000000 "3
b00000000 "R
b00000000 "2
b00000000 "Q
b00000000 "1
b00000000 "P
b00000000 "0
b00000000 "O
b00000000 "/
b00000000 "N
b00000000 ".
b00000000 "M
b00000000 "-
b00000000 "L
b00000000 ",
b00000000 "K
b00000000 "+
b00000000 "J
b00000000 "*
b00000000 "I
b00000000 ")
b00000000 "H
b00000000 "(
b00000000 "$
0=
0;
0<
b00000000000 M
b00000000000 L
1s
1t
1u
1v
1w
1x
1y
1"%
b000000000000 A
b10 "]
b10 "\
b10 "[
b10 "Z
bxxxxxxxxxxxxxx0000000 "c
b00000000000000000000000000000100 "X
b00000000000000000000000000000001 ";
b00000000000000000000000000001000 ":
b00000000000000000000000000000001 "?
b00000000000000000000000000001000 ">
b00000000000000000000000000000001 "C
b00000000000000000000000000001000 "B
b00000000000000000000000000000001 "G
b00000000000000000000000000001000 "F
#1000
1!
10
#2000
0!
00
b00000000000000000000000000000000 /
#3000
1!
10
#4000
1"
11
14
1%
0!
00
1#
12
b00000000000000000000000000000001 /
b0001 8
#5000
1!
10
b0001 7
04
0%
bxxxxxxxxxxxxxx R
bxxxxxxxxxxxxxx *
xT
x)
bxxx Y
bxxxxx O
1U
b000 X
b000000000000 @
0:
09
b1000 8
#6000
0!
00
0#
02
b00000000000000000000000000000010 /
#7000
1!
10
b1000 7
1V
1(
b000 Y
b0000 G
b0000 F
b000000 J
b100000000000 A
#8000
0!
00
1&
15
b11010000 '
b11010000 6
b00000000000000000000000000000001 -
b00000000000000000000000000000011 /
#9000
1!
10
b0000 H
0r
b000000000001 @
0"%
b0001 F
#10000
0!
00
b10101101 '
b10101101 6
b00000000000000000000000000000010 -
b00000000000000000000000000000100 /
#11000
1!
10
b0000 I
1r
0^
b000000000010 @
0s
1"%
b0010 F
#12000
0!
00
b10001011 '
b10001011 6
b00000000000000000000000000000011 -
b00000000000000000000000000000101 /
b11010000 z
b11010000 ]
#13000
1!
10
1^
0_
b000000000011 @
1s
0t
b0011 F
#14000
0!
00
b01010110 '
b01010110 6
b00000000000000000000000000000100 -
b00000000000000000000000000000110 /
b10101101 {
#15000
1!
10
1_
0`
b000000000100 @
1t
0u
b0100 F
#16000
0!
00
b00101110 '
b00101110 6
b00000000000000000000000000000101 -
b00000000000000000000000000000111 /
b10001011 |
#17000
1!
10
1`
b000000000101 @
1u
0v
b0101 F
#18000
0!
00
b11110001 '
b11110001 6
b00000000000000000000000000000110 -
b00000000000000000000000000001000 /
b01010110 }
#19000
1!
10
b000000000110 @
1v
0w
b0110 F
#20000
0!
00
b11110110 '
b11110110 6
b00000000000000000000000000000111 -
b00000000000000000000000000001001 /
b00101110 ~
#21000
1!
10
b000000000111 @
1w
0x
b0111 F
#22000
0!
00
b11001101 '
b11001101 6
b00000000000000000000000000001000 -
b00000000000000000000000000001010 /
b11110001 "!
#23000
1!
10
b000000001000 @
1x
0y
b0001 G
b0000 F
#24000
0!
00
b01000110 '
b01000110 6
b00000000000000000000000000001001 -
b00000000000000000000000000001011 /
b11110110 ""
#25000
1!
10
b0001 H
0a
b00000001 \
b000000001001 @
0v
1y
b0001 F
#26000
0!
00
b11001110 '
b11001110 6
b00000000000000000000000000001010 -
b00000000000000000000000000001100 /
b11001101 "#
#27000
1!
10
b0001 I
1a
b00000000 \
b00000001 \
b00000000 \
b000000001010 @
1v
0w
b0010 F
#28000
0!
00
b00001011 '
b00001011 6
b00000000000000000000000000001011 -
b00000000000000000000000000001101 /
b01000110 ~
#29000
1!
10
b00000001 \
b00000000 \
b000000001011 @
1w
0x
b0011 F
#30000
0!
00
b10101111 '
b10101111 6
b00000000000000000000000000001100 -
b00000000000000000000000000001110 /
b11001110 "!
#31000
1!
10
b00000001 \
b000000001100 @
1x
0y
b0100 F
#32000
0!
00
b10001000 '
b10001000 6
b00000000000000000000000000001101 -
b00000000000000000000000000001111 /
b00001011 ""
#33000
1!
10
0r
0a
b00000000 \
b00000001 \
b00000001 "$
b000000001101 @
1y
0"%
b0101 F
#34000
0!
00
b00111111 '
b00111111 6
b00000000000000000000000000001110 -
b00000000000000000000000000010000 /
b10101111 "#
#35000
1!
10
1r
1a
0^
b00000000 \
b00000001 \
b000000001110 @
0s
1"%
b0110 F
#36000
0!
00
b00001100 '
b00001100 6
b00000000000000000000000000001111 -
b00000000000000000000000000010001 /
b10001000 z
b10001000 ]
#37000
1!
10
1^
0_
b000000001111 @
1s
0t
b0111 F
#38000
0!
00
b11110100 '
b11110100 6
b00000000000000000000000000010000 -
b00000000000000000000000000010010 /
b00111111 {
#39000
1!
10
1_
0`
b000000010000 @
1t
0u
b0010 G
b0000 F
#40000
0!
00
b11100100 '
b11100100 6
b00000000000000000000000000010001 -
b00000000000000000000000000010011 /
b00001100 |
#41000
1!
10
b0010 H
0r
1`
b00000010 \
b00000001 \
b00000010 "$
b000000010001 @
1u
0"%
b0001 F
#42000
0!
00
b00101100 '
b00101100 6
b00000000000000000000000000010010 -
b00000000000000000000000000010100 /
b11110100 }
#43000
1!
10
b0010 I
1r
0^
b00000010 \
b00000001 \
b000000010010 @
0s
1"%
b0010 F
#44000
0!
00
b11000100 '
b11000100 6
b00000000000000000000000000010011 -
b00000000000000000000000000010101 /
b11100100 z
b11100100 ]
#45000
1!
10
1^
0_
b00000010 \
b00000001 \
b000000010011 @
1s
0t
b0011 F
#46000
0!
00
b11001000 '
b11001000 6
b00000000000000000000000000010100 -
b00000000000000000000000000010110 /
b00101100 {
#47000
1!
10
1_
0`
b00000010 \
b00000001 \
b000000010100 @
1t
0u
b0100 F
#48000
0!
00
b10111000 '
b10111000 6
b00000000000000000000000000010101 -
b00000000000000000000000000010111 /
b11000100 |
#49000
1!
10
1`
b00000010 \
b00000001 \
b000000010101 @
1u
0v
b0101 F
#50000
0!
00
b11100010 '
b11100010 6
b00000000000000000000000000010110 -
b00000000000000000000000000011000 /
b11001000 }
#51000
1!
10
b00000010 \
b00000001 \
b000000010110 @
1v
0w
b0110 F
#52000
0!
00
b10101100 '
b10101100 6
b00000000000000000000000000010111 -
b00000000000000000000000000011001 /
b10111000 ~
#53000
1!
10
b00000010 \
b00000001 \
b000000010111 @
1w
0x
b0111 F
#54000
0!
00
b00111001 '
b00111001 6
b00000000000000000000000000011000 -
b00000000000000000000000000011010 /
b11100010 "!
#55000
1!
10
b00000010 \
b000000011000 @
1x
0y
b0011 G
b0000 F
#56000
0!
00
b10010001 '
b10010001 6
b00000000000000000000000000011001 -
b00000000000000000000000000011011 /
b10101100 ""
#57000
1!
10
b0011 H
0a
b00000011 \
b00000010 \
b000000011001 @
0v
1y
b0001 F
#58000
0!
00
b10101010 '
b10101010 6
b00000000000000000000000000011010 -
b00000000000000000000000000011100 /
b00111001 "#
#59000
1!
10
b0011 I
1a
b00000011 \
b00000010 \
b000000011010 @
1v
0w
b0010 F
#60000
0!
00
b00000000 '
b00000000 6
b00000000000000000000000000011011 -
b00000000000000000000000000011101 /
b10010001 ~
#61000
1!
10
b00000011 \
b00000010 \
b000000011011 @
1w
0x
b0011 F
#62000
0!
00
b00001111 '
b00001111 6
b00000000000000000000000000011100 -
b00000000000000000000000000011110 /
b10101010 "!
#63000
1!
10
b00000011 \
b000000011100 @
1x
0y
b0100 F
#64000
0!
00
b00011011 '
b00011011 6
b00000000000000000000000000011101 -
b00000000000000000000000000011111 /
b00000000 ""
#65000
1!
10
0r
0a
b00000010 \
b00000011 \
b00000011 "$
b000000011101 @
1y
0"%
b0101 F
#66000
0!
00
b10100001 '
b10100001 6
b00000000000000000000000000011110 -
b00000000000000000000000000100000 /
b00001111 "#
#67000
1!
10
1r
1a
0^
b00000010 \
b00000011 \
b000000011110 @
0s
1"%
b0110 F
#68000
0!
00
b11101110 '
b11101110 6
b00000000000000000000000000011111 -
b00000000000000000000000000100001 /
b00011011 z
b00011011 ]
#69000
1!
10
1^
0_
b000000011111 @
1s
0t
b0111 F
#70000
0!
00
b00011111 '
b00011111 6
b00000000000000000000000000100000 -
b00000000000000000000000000100010 /
b10100001 {
#71000
1!
10
1_
0`
b000000100000 @
1t
0u
b0100 G
b0000 F
#72000
0!
00
b01000010 '
b01000010 6
b00000000000000000000000000100001 -
b00000000000000000000000000100011 /
b11101110 |
#73000
1!
10
b0100 H
0r
1`
b00000100 \
b00000011 \
b00000100 "$
b000000100001 @
1u
0"%
b0001 F
#74000
0!
00
b11010011 '
b11010011 6
b00000000000000000000000000100010 -
b00000000000000000000000000100100 /
b00011111 }
#75000
1!
10
b0100 I
1r
0^
b00000100 \
b00000011 \
b000000100010 @
0s
1"%
b0010 F
#76000
0!
00
b10001101 '
b10001101 6
b00000000000000000000000000100011 -
b00000000000000000000000000100101 /
b01000010 z
b01000010 ]
#77000
1!
10
1^
0_
b00000100 \
b00000011 \
b000000100011 @
1s
0t
b0011 F
#78000
0!
00
b10001110 '
b10001110 6
b00000000000000000000000000100100 -
b00000000000000000000000000100110 /
b11010011 {
#79000
1!
10
1_
0`
b00000100 \
b00000011 \
b000000100100 @
1t
0u
b0100 F
#80000
0!
00
b01010111 '
b01010111 6
b00000000000000000000000000100101 -
b00000000000000000000000000100111 /
b10001101 |
#81000
1!
10
1`
b00000100 \
b00000011 \
b000000100101 @
1u
0v
b0101 F
#82000
0!
00
b10011110 '
b10011110 6
b00000000000000000000000000100110 -
b00000000000000000000000000101000 /
b10001110 }
#83000
1!
10
b00000100 \
b00000011 \
b000000100110 @
1v
0w
b0110 F
#84000
0!
00
b01000001 '
b01000001 6
b00000000000000000000000000100111 -
b00000000000000000000000000101001 /
b01010111 ~
#85000
1!
10
b00000100 \
b00000011 \
b000000100111 @
1w
0x
b0111 F
#86000
0!
00
b11100101 '
b11100101 6
b00000000000000000000000000101000 -
b00000000000000000000000000101010 /
b10011110 "!
#87000
1!
10
b00000100 \
b000000101000 @
1x
0y
b0101 G
b0000 F
#88000
0!
00
b11000111 '
b11000111 6
b00000000000000000000000000101001 -
b00000000000000000000000000101011 /
b01000001 ""
#89000
1!
10
b0101 H
0a
b00000101 \
b00000100 \
b000000101001 @
0v
1y
b0001 F
#90000
0!
00
b10001000 '
b10001000 6
b00000000000000000000000000101010 -
b00000000000000000000000000101100 /
b11100101 "#
#91000
1!
10
b0101 I
1a
b00000101 \
b00000100 \
b000000101010 @
1v
0w
b0010 F
#92000
0!
00
b00011011 '
b00011011 6
b00000000000000000000000000101011 -
b00000000000000000000000000101101 /
b11000111 ~
#93000
1!
10
b00000101 \
b00000100 \
b000000101011 @
1w
0x
b0011 F
#94000
0!
00
b01101100 '
b01101100 6
b00000000000000000000000000101100 -
b00000000000000000000000000101110 /
b10001000 "!
#95000
1!
10
b00000101 \
b000000101100 @
1x
0y
b0100 F
#96000
0!
00
b10010111 '
b10010111 6
b00000000000000000000000000101101 -
b00000000000000000000000000101111 /
b00011011 ""
#97000
1!
10
0r
0a
b00000100 \
b00000101 \
b00000101 "$
b000000101101 @
1y
0"%
b0101 F
#98000
0!
00
b10101011 '
b10101011 6
b00000000000000000000000000101110 -
b00000000000000000000000000110000 /
b01101100 "#
#99000
1!
10
1r
1a
0^
b00000100 \
b00000101 \
b000000101110 @
0s
1"%
b0110 F
#100000
0!
00
b11101001 '
b11101001 6
b00000000000000000000000000101111 -
b00000000000000000000000000110001 /
b10010111 z
b10010111 ]
#101000
1!
10
1^
0_
b000000101111 @
1s
0t
b0111 F
#102000
0!
00
b11010100 '
b11010100 6
b00000000000000000000000000110000 -
b00000000000000000000000000110010 /
b10101011 {
#103000
1!
10
1_
0`
b000000110000 @
1t
0u
b0110 G
b0000 F
#104000
0!
00
b01111100 '
b01111100 6
b00000000000000000000000000110001 -
b00000000000000000000000000110011 /
b11101001 |
#105000
1!
10
b0110 H
0r
1`
b00000110 \
b00000101 \
b00000110 "$
b000000110001 @
1u
0"%
b0001 F
#106000
0!
00
b10011010 '
b10011010 6
b00000000000000000000000000110010 -
b00000000000000000000000000110100 /
b11010100 }
#107000
1!
10
b0110 I
1r
0^
b00000110 \
b00000101 \
b000000110010 @
0s
1"%
b0010 F
#108000
0!
00
b00001101 '
b00001101 6
b00000000000000000000000000110011 -
b00000000000000000000000000110101 /
b01111100 z
b01111100 ]
#109000
1!
10
1^
0_
b00000110 \
b00000101 \
b000000110011 @
1s
0t
b0011 F
#110000
0!
00
b11001111 '
b11001111 6
b00000000000000000000000000110100 -
b00000000000000000000000000110110 /
b10011010 {
#111000
1!
10
1_
0`
b00000110 \
b00000101 \
b000000110100 @
1t
0u
b0100 F
#112000
0!
00
b00010101 '
b00010101 6
b00000000000000000000000000110101 -
b00000000000000000000000000110111 /
b00001101 |
#113000
1!
10
1`
b00000110 \
b00000101 \
b000000110101 @
1u
0v
b0101 F
#114000
0!
00
b11000011 '
b11000011 6
b00000000000000000000000000110110 -
b00000000000000000000000000111000 /
b11001111 }
#115000
1!
10
b00000110 \
b00000101 \
b000000110110 @
1v
0w
b0110 F
#116000
0!
00
b01011101 '
b01011101 6
b00000000000000000000000000110111 -
b00000000000000000000000000111001 /
b00010101 ~
#117000
1!
10
b00000110 \
b00000101 \
b000000110111 @
1w
0x
b0111 F
#118000
0!
00
b10001101 '
b10001101 6
b00000000000000000000000000111000 -
b00000000000000000000000000111010 /
b11000011 "!
#119000
1!
10
b00000110 \
b000000111000 @
1x
0y
b0111 G
b0000 F
#120000
0!
00
b11100111 '
b11100111 6
b00000000000000000000000000111001 -
b00000000000000000000000000111011 /
b01011101 ""
#121000
1!
10
b0111 H
0a
b00000111 \
b00000110 \
b000000111001 @
0v
1y
b0001 F
#122000
0!
00
b10100101 '
b10100101 6
b00000000000000000000000000111010 -
b00000000000000000000000000111100 /
b10001101 "#
#123000
1!
10
b0111 I
1a
b00000111 \
b00000110 \
b000000111010 @
1v
0w
b0010 F
#124000
0!
00
b10011000 '
b10011000 6
b00000000000000000000000000111011 -
b00000000000000000000000000111101 /
b11100111 ~
#125000
1!
10
b00000111 \
b00000110 \
b000000111011 @
1w
0x
b0011 F
#126000
0!
00
b11001010 '
b11001010 6
b00000000000000000000000000111100 -
b00000000000000000000000000111110 /
b10100101 "!
#127000
1!
10
b00000111 \
b000000111100 @
1x
0y
b0100 F
#128000
0!
00
b11101100 '
b11101100 6
b00000000000000000000000000111101 -
b00000000000000000000000000111111 /
b10011000 ""
#129000
1!
10
0r
0a
b00000110 \
b00000111 \
b00000111 "$
b000000111101 @
1y
0"%
b0101 F
#130000
0!
00
b01000001 '
b01000001 6
b00000000000000000000000000111110 -
b00000000000000000000000001000000 /
b11001010 "#
#131000
1!
10
1r
1a
0^
b00000110 \
b00000111 \
b000000111110 @
0s
1"%
b0110 F
#132000
0!
00
b11000011 '
b11000011 6
b00000000000000000000000000111111 -
b00000000000000000000000001000001 /
b11101100 z
b11101100 ]
#133000
1!
10
1^
0_
b000000111111 @
1s
0t
b0111 F
#134000
0!
00
b00001100 '
b00001100 6
b00000000000000000000000001000000 -
b00000000000000000000000001000010 /
b01000001 {
#135000
1!
10
1_
0`
b000001000000 @
1t
0u
b0000 G
b0000 F
b000001 J
#136000
0!
00
b11100111 '
b11100111 6
b00000000000000000000000001000001 -
b00000000000000000000000001000011 /
b11000011 |
#137000
1!
10
b0000 H
0r
1`
b00001000 \
b00000111 \
b00001000 "$
b000001000001 @
1u
0"%
b0001 F
#138000
0!
00
b01100101 '
b01100101 6
b00000000000000000000000001000010 -
b00000000000000000000000001000100 /
b00001100 }
#139000
1!
10
b0000 I
1r
0^
b00001000 \
b00000111 \
b000001000010 @
0s
1"%
b0010 F
#140000
0!
00
b10111000 '
b10111000 6
b00000000000000000000000001000011 -
b00000000000000000000000001000101 /
b11100111 z
b11100111 ]
