HW3/01_RTL/core.vcd
$date
	Sun Aug  4 14:18:24 2024
$end

$version
	Synopsys VCS version S-2021.09_Full64
$end

$timescale
	1ps
$end

$comment Csum: 1 8be7d26c57bf5314 $end


$scope module testbed $end
$var reg 1 ! clk $end
$var reg 1 " rst_n $end
$var reg 1 # op_valid $end
$var reg 4 $ op_mode [3:0] $end
$var reg 1 % op_ready $end
$var reg 1 & in_valid $end
$var reg 8 ' in_data [7:0] $end
$var wire 1 ( in_ready $end
$var wire 1 ) out_valid $end
$var wire 14 * out_data [13:0] $end
$var integer 32 + error $end
$var integer 32 , i $end
$var integer 32 - j $end
$var integer 32 . k $end
$var integer 32 / cycle $end

$scope module u_core $end
$var wire 1 0 i_clk $end
$var wire 1 1 i_rst_n $end
$var wire 1 2 i_op_valid $end
$var wire 4 3 i_op_mode [3:0] $end
$var wire 1 4 o_op_ready $end
$var wire 1 5 i_in_valid $end
$var wire 8 6 i_in_data [7:0] $end
$var wire 1 ( o_in_ready $end
$var wire 1 ) o_out_valid $end
$var wire 14 * o_out_data [13:0] $end
$var reg 4 7 state [3:0] $end
$var reg 4 8 next_state [3:0] $end
$var wire 1 9 load_map_done $end
$var wire 1 : display_done $end
$var wire 1 ; convolution_reading_done $end
$var reg 1 < convolution_reading_done_r $end
$var reg 1 = convolution_reading_done_w $end
$var wire 1 > convolution_display_done $end
$var reg 1 ? convolution_display_done_r $end
$var reg 1 @ convolution_display_done_w $end
$var wire 1 A med_filter_done $end
$var wire 1 B sober_nms_done $end
$var reg 6 C depth_r [5:0] $end
$var reg 6 D depth_w [5:0] $end
$var reg 12 E cnt [11:0] $end
$var reg 12 F target_sticks [11:0] $end
$var reg 4 G origin_index_x_r [3:0] $end
$var reg 4 H origin_index_x_w [3:0] $end
$var reg 4 I origin_index_y_r [3:0] $end
$var reg 4 J origin_index_y_w [3:0] $end
$var reg 5 K new_x [4:0] $end
$var reg 5 L new_x_delay1 [4:0] $end
$var reg 5 M new_x_delay2 [4:0] $end
$var reg 5 N new_y [4:0] $end
$var reg 5 O new_y_delay1 [4:0] $end
$var reg 5 P new_y_delay2 [4:0] $end
$var reg 6 Q new_z [5:0] $end
$var reg 11 R index_delay_w [10:0] $end
$var reg 14 S conv_sum [13:0] $end
$var reg 5 T counter_r [4:0] $end
$var reg 5 U counter_w [4:0] $end
$var reg 14 V out_data_w [13:0] $end
$var reg 14 W out_data_r [13:0] $end
$var reg 1 X out_valid_delay_w $end
$var reg 3 Y out_valid_delay_r [2:0] $end
$var reg 1 Z out_valid_w $end
$var reg 1 [ out_valid_r $end
$var reg 4 \ out_data_sram_index_w [3:0] $end
$var reg 17 ] out_data_w_17 [16:0] $end
$var reg 3 ^ out_counter_w [2:0] $end
$var reg 3 _ out_counter_r [2:0] $end
$var wire 1 ` activate_median_filter $end
$var wire 1 a activate_sobel_nms $end
$var reg 4 b activate_median_filter_r [3:0] $end
$var reg 1 c activate_median_filter_w $end
$var reg 5 d activate_sobel_nms_r [4:0] $end
$var reg 1 e activate_sobel_nms_w $end
$var wire 8 f sram_data0 [7:0] $end
$var wire 1 g sram_wen0 $end
$var wire 1 h sram_cen0 $end

$scope module u_med_filter_inst0 $end
$var wire 8 i p1 [7:0] $end
$var wire 8 j p2 [7:0] $end
$var wire 8 k p3 [7:0] $end
$var wire 8 l p4 [7:0] $end
$var wire 8 m p5 [7:0] $end
$var wire 8 n p6 [7:0] $end
$var wire 8 o p7 [7:0] $end
$var wire 8 p p8 [7:0] $end
$var wire 8 q p9 [7:0] $end
$var wire 8 r p10 [7:0] $end
$var wire 8 s p11 [7:0] $end
$var wire 8 t p12 [7:0] $end
$var wire 8 u p13 [7:0] $end
$var wire 8 v p14 [7:0] $end
$var wire 8 w p15 [7:0] $end
$var wire 8 x p16 [7:0] $end
$var wire 1 0 clk $end
$var wire 1 ` i_in_valid $end
$var wire 8 y median3 [7:0] $end
$var wire 8 z median2 [7:0] $end
$var wire 8 { median1 [7:0] $end
$var wire 8 | median0 [7:0] $end

$scope module u_submodule_inst0 $end
$var wire 8 } p1 [7:0] $end
$var wire 8 ~ p2 [7:0] $end
$var wire 8 "! p3 [7:0] $end
$var wire 8 "" p4 [7:0] $end
$var wire 8 "# p5 [7:0] $end
$var wire 8 "$ p6 [7:0] $end
$var wire 8 "% p7 [7:0] $end
$var wire 8 "& p8 [7:0] $end
$var wire 8 "' p9 [7:0] $end
$var wire 1 0 clk $end
$var wire 8 "( median [7:0] $end
$var reg 8 ") a1 [7:0] $end
$var reg 8 "* a2 [7:0] $end
$var reg 8 "+ a3 [7:0] $end
$var reg 8 ", a4 [7:0] $end
$var reg 8 "- a5 [7:0] $end
$var reg 8 ". a6 [7:0] $end
$var reg 8 "/ a7 [7:0] $end
$var reg 8 "0 a8 [7:0] $end
$var reg 8 "1 a9 [7:0] $end
$var wire 1 "2 a14 $end
$var wire 1 "3 a17 $end
$var wire 1 "4 a47 $end
$var wire 1 "5 a25 $end
$var wire 1 "6 a28 $end
$var wire 1 "7 a58 $end
$var wire 1 "8 a36 $end
$var wire 1 "9 a39 $end
$var wire 1 ": a68 $end
$var wire 1 "; a69 $end
$var reg 8 "< b1 [7:0] $end
$var reg 8 "= b2 [7:0] $end
$var reg 8 "> b3 [7:0] $end
$var reg 8 "? b4 [7:0] $end
$var reg 8 "@ b5 [7:0] $end
$var reg 8 "A b6 [7:0] $end
$var reg 8 "B b7 [7:0] $end
$var reg 8 "C b8 [7:0] $end
$var reg 8 "D b9 [7:0] $end
$var wire 1 "E b13 $end
$var wire 1 "F b12 $end
$var wire 1 "G b23 $end
$var wire 1 "H b46 $end
$var wire 1 "I b45 $end
$var wire 1 "J b56 $end
$var wire 1 "K b78 $end
$var wire 1 "L b79 $end
$var wire 1 "M b89 $end
$var reg 8 "N c1 [7:0] $end
$var reg 8 "O c2 [7:0] $end
$var reg 8 "P c3 [7:0] $end
$var wire 1 "Q c13 $end
$var wire 1 "R c12 $end
$var wire 1 "S c23 $end
$upscope $end


$scope module u_submodule_inst1 $end
$var wire 8 "T p1 [7:0] $end
$var wire 8 "U p2 [7:0] $end
$var wire 8 "V p3 [7:0] $end
$var wire 8 "W p4 [7:0] $end
$var wire 8 "X p5 [7:0] $end
$var wire 8 "Y p6 [7:0] $end
$var wire 8 "Z p7 [7:0] $end
$var wire 8 "[ p8 [7:0] $end
$var wire 8 "\ p9 [7:0] $end
$var wire 1 0 clk $end
$var wire 8 "] median [7:0] $end
$var reg 8 "^ a1 [7:0] $end
$var reg 8 "_ a2 [7:0] $end
$var reg 8 "` a3 [7:0] $end
$var reg 8 "a a4 [7:0] $end
$var reg 8 "b a5 [7:0] $end
$var reg 8 "c a6 [7:0] $end
$var reg 8 "d a7 [7:0] $end
$var reg 8 "e a8 [7:0] $end
$var reg 8 "f a9 [7:0] $end
$var wire 1 "g a14 $end
$var wire 1 "h a17 $end
$var wire 1 "i a47 $end
$var wire 1 "j a25 $end
$var wire 1 "k a28 $end
$var wire 1 "l a58 $end
$var wire 1 "m a36 $end
$var wire 1 "n a39 $end
$var wire 1 "o a68 $end
$var wire 1 "p a69 $end
$var reg 8 "q b1 [7:0] $end
$var reg 8 "r b2 [7:0] $end
$var reg 8 "s b3 [7:0] $end
$var reg 8 "t b4 [7:0] $end
$var reg 8 "u b5 [7:0] $end
$var reg 8 "v b6 [7:0] $end
$var reg 8 "w b7 [7:0] $end
$var reg 8 "x b8 [7:0] $end
$var reg 8 "y b9 [7:0] $end
$var wire 1 "z b13 $end
$var wire 1 "{ b12 $end
$var wire 1 "| b23 $end
$var wire 1 "} b46 $end
$var wire 1 "~ b45 $end
$var wire 1 #! b56 $end
$var wire 1 #" b78 $end
$var wire 1 ## b79 $end
$var wire 1 #$ b89 $end
$var reg 8 #% c1 [7:0] $end
$var reg 8 #& c2 [7:0] $end
$var reg 8 #' c3 [7:0] $end
$var wire 1 #( c13 $end
$var wire 1 #) c12 $end
$var wire 1 #* c23 $end
$upscope $end


$scope module u_submodule_inst2 $end
$var wire 8 #+ p1 [7:0] $end
$var wire 8 #, p2 [7:0] $end
$var wire 8 #- p3 [7:0] $end
$var wire 8 #. p4 [7:0] $end
$var wire 8 #/ p5 [7:0] $end
$var wire 8 #0 p6 [7:0] $end
$var wire 8 #1 p7 [7:0] $end
$var wire 8 #2 p8 [7:0] $end
$var wire 8 #3 p9 [7:0] $end
$var wire 1 0 clk $end
$var wire 8 #4 median [7:0] $end
$var reg 8 #5 a1 [7:0] $end
$var reg 8 #6 a2 [7:0] $end
$var reg 8 #7 a3 [7:0] $end
$var reg 8 #8 a4 [7:0] $end
$var reg 8 #9 a5 [7:0] $end
$var reg 8 #: a6 [7:0] $end
$var reg 8 #; a7 [7:0] $end
$var reg 8 #< a8 [7:0] $end
$var reg 8 #= a9 [7:0] $end
$var wire 1 #> a14 $end
$var wire 1 #? a17 $end
$var wire 1 #@ a47 $end
$var wire 1 #A a25 $end
$var wire 1 #B a28 $end
$var wire 1 #C a58 $end
$var wire 1 #D a36 $end
$var wire 1 #E a39 $end
$var wire 1 #F a68 $end
$var wire 1 #G a69 $end
$var reg 8 #H b1 [7:0] $end
$var reg 8 #I b2 [7:0] $end
$var reg 8 #J b3 [7:0] $end
$var reg 8 #K b4 [7:0] $end
$var reg 8 #L b5 [7:0] $end
$var reg 8 #M b6 [7:0] $end
$var reg 8 #N b7 [7:0] $end
$var reg 8 #O b8 [7:0] $end
$var reg 8 #P b9 [7:0] $end
$var wire 1 #Q b13 $end
$var wire 1 #R b12 $end
$var wire 1 #S b23 $end
$var wire 1 #T b46 $end
$var wire 1 #U b45 $end
$var wire 1 #V b56 $end
$var wire 1 #W b78 $end
$var wire 1 #X b79 $end
$var wire 1 #Y b89 $end
$var reg 8 #Z c1 [7:0] $end
$var reg 8 #[ c2 [7:0] $end
$var reg 8 #\ c3 [7:0] $end
$var wire 1 #] c13 $end
$var wire 1 #^ c12 $end
$var wire 1 #_ c23 $end
$upscope $end


$scope module u_submodule_inst3 $end
$var wire 8 #` p1 [7:0] $end
$var wire 8 #a p2 [7:0] $end
$var wire 8 #b p3 [7:0] $end
$var wire 8 #c p4 [7:0] $end
$var wire 8 #d p5 [7:0] $end
$var wire 8 #e p6 [7:0] $end
$var wire 8 #f p7 [7:0] $end
$var wire 8 #g p8 [7:0] $end
$var wire 8 #h p9 [7:0] $end
$var wire 1 0 clk $end
$var wire 8 #i median [7:0] $end
$var reg 8 #j a1 [7:0] $end
$var reg 8 #k a2 [7:0] $end
$var reg 8 #l a3 [7:0] $end
$var reg 8 #m a4 [7:0] $end
$var reg 8 #n a5 [7:0] $end
$var reg 8 #o a6 [7:0] $end
$var reg 8 #p a7 [7:0] $end
$var reg 8 #q a8 [7:0] $end
$var reg 8 #r a9 [7:0] $end
$var wire 1 #s a14 $end
$var wire 1 #t a17 $end
$var wire 1 #u a47 $end
$var wire 1 #v a25 $end
$var wire 1 #w a28 $end
$var wire 1 #x a58 $end
$var wire 1 #y a36 $end
$var wire 1 #z a39 $end
$var wire 1 #{ a68 $end
$var wire 1 #| a69 $end
$var reg 8 #} b1 [7:0] $end
$var reg 8 #~ b2 [7:0] $end
$var reg 8 $! b3 [7:0] $end
$var reg 8 $" b4 [7:0] $end
$var reg 8 $# b5 [7:0] $end
$var reg 8 $$ b6 [7:0] $end
$var reg 8 $% b7 [7:0] $end
$var reg 8 $& b8 [7:0] $end
$var reg 8 $' b9 [7:0] $end
$var wire 1 $( b13 $end
$var wire 1 $) b12 $end
$var wire 1 $* b23 $end
$var wire 1 $+ b46 $end
$var wire 1 $, b45 $end
$var wire 1 $- b56 $end
$var wire 1 $. b78 $end
$var wire 1 $/ b79 $end
$var wire 1 $0 b89 $end
$var reg 8 $1 c1 [7:0] $end
$var reg 8 $2 c2 [7:0] $end
$var reg 8 $3 c3 [7:0] $end
$var wire 1 $4 c13 $end
$var wire 1 $5 c12 $end
$var wire 1 $6 c23 $end
$upscope $end

$upscope $end


$scope module sobel_nms_inst0 $end
$var wire 8 $7 p1 [7:0] $end
$var wire 8 $8 p2 [7:0] $end
$var wire 8 $9 p3 [7:0] $end
$var wire 8 $: p4 [7:0] $end
$var wire 8 $; p5 [7:0] $end
$var wire 8 $< p6 [7:0] $end
$var wire 8 $= p7 [7:0] $end
$var wire 8 $> p8 [7:0] $end
$var wire 8 $? p9 [7:0] $end
$var wire 8 $@ p10 [7:0] $end
$var wire 8 $A p11 [7:0] $end
$var wire 8 $B p12 [7:0] $end
$var wire 8 $C p13 [7:0] $end
$var wire 8 $D p14 [7:0] $end
$var wire 8 $E p15 [7:0] $end
$var wire 8 $F p16 [7:0] $end
$var wire 1 0 clk $end
$var wire 1 a i_in_valid $end
$var wire 14 $G sobel_nms3 [13:0] $end
$var wire 14 $H sobel_nms2 [13:0] $end
$var wire 14 $I sobel_nms1 [13:0] $end
$var wire 14 $J sobel_nms0 [13:0] $end
$var wire 2 $K a0 [1:0] $end
$var wire 2 $L a1 [1:0] $end
$var wire 2 $M a2 [1:0] $end
$var wire 2 $N a3 [1:0] $end
$var wire 14 $O g0 [13:0] $end
$var wire 14 $P g1 [13:0] $end
$var wire 14 $Q g2 [13:0] $end
$var wire 14 $R g3 [13:0] $end
$var wire 21 $S gx1 [20:0] $end
$var wire 21 $T gy1 [20:0] $end
$upscope $end

$upscope $end

$upscope $end

$enddefinitions $end

#0
$dumpvars
xc
xe
0!
x>
x?
x@
x;
x<
x=
x:
05
02
11
x(
0&
x9
xA
x4
x%
0#
x)
xX
x[
xZ
1"
xB
zh
zg
bxxxx b
bxxxxx d
bxxxxxxxxxxxx E
bxxxxxxxxxxxxxx S
bxxxxx T
bxxxxx U
b00000000000000000000000000000001 /
bxxxxxx C
bxxxxxx D
b00000000000000000000000000000000 +
b00000000000000000000000000000000 ,
b00000000 6
b0000 3
b00000000 '
bxxxxxxxxxxx R
b00000000000000000000000000000000 -
b00000000000000000000000000000000 .
bxxxxx K
bxxxxx L
bxxxxx M
bxxxxx N
bxxxxx O
bxxxxx P
bxxxxxx Q
b1111 8
b0000 $
bxxxx G
bxxxx H
bxxxx I
bxxxx J
bxxx _
bxxx ^
bxxxxxxxxxxxxxx *
bxxxxxxxxxxxxxx W
bxxxx \
bxxxxxxxxxxxxxx V
bxxxxxxxxxxxxxxxxx ]
bxxx Y
bzzzzzzzz f
bxxxx 7
bxxxxxxxxxxxx F
x"2
x"3
x"5
x"6
x"8
x"9
x"4
x"7
z":
x";
x"F
x"E
x"G
x"I
x"H
x"J
x"K
x"L
x"M
x"R
x"Q
x"S
bxxxxxxxx ")
bxxxxxxxx "*
bxxxxxxxx "+
bxxxxxxxx ",
bxxxxxxxx "-
bxxxxxxxx ".
bxxxxxxxx "/
bxxxxxxxx "0
bxxxxxxxx "1
bxxxxxxxx "<
bxxxxxxxx "=
bxxxxxxxx ">
bxxxxxxxx "?
bxxxxxxxx "@
bxxxxxxxx "A
bxxxxxxxx "B
bxxxxxxxx "C
bxxxxxxxx "D
bxxxxxxxx "N
bxxxxxxxx "O
bxxxxxxxx "P
x"g
x"h
x"j
x"k
x"m
x"n
x"i
x"l
z"o
x"p
x"{
x"z
x"|
x"~
x"}
x#!
x#"
x##
x#$
x#)
x#(
x#*
bxxxxxxxx "^
bxxxxxxxx "_
bxxxxxxxx "`
bxxxxxxxx "a
bxxxxxxxx "b
bxxxxxxxx "c
bxxxxxxxx "d
bxxxxxxxx "e
bxxxxxxxx "f
bxxxxxxxx "q
bxxxxxxxx "r
bxxxxxxxx "s
bxxxxxxxx "t
bxxxxxxxx "u
bxxxxxxxx "v
bxxxxxxxx "w
bxxxxxxxx "x
bxxxxxxxx "y
bxxxxxxxx #%
bxxxxxxxx #&
bxxxxxxxx #'
x#>
x#?
x#A
x#B
x#D
x#E
x#@
x#C
z#F
x#G
x#R
x#Q
x#S
x#U
x#T
x#V
x#W
x#X
x#Y
x#^
x#]
x#_
bxxxxxxxx #5
bxxxxxxxx #6
bxxxxxxxx #7
bxxxxxxxx #8
bxxxxxxxx #9
bxxxxxxxx #:
bxxxxxxxx #;
bxxxxxxxx #<
bxxxxxxxx #=
bxxxxxxxx #H
bxxxxxxxx #I
bxxxxxxxx #J
bxxxxxxxx #K
bxxxxxxxx #L
bxxxxxxxx #M
bxxxxxxxx #N
bxxxxxxxx #O
bxxxxxxxx #P
bxxxxxxxx #Z
bxxxxxxxx #[
bxxxxxxxx #\
x#s
x#t
x#v
x#w
x#y
x#z
x#u
x#x
z#{
x#|
x$)
x$(
x$*
x$,
x$+
x$-
x$.
x$/
x$0
x$5
x$4
x$6
bxxxxxxxx #j
bxxxxxxxx #k
bxxxxxxxx #l
bxxxxxxxx #m
bxxxxxxxx #n
bxxxxxxxx #o
bxxxxxxxx #p
bxxxxxxxx #q
bxxxxxxxx #r
bxxxxxxxx #}
bxxxxxxxx #~
bxxxxxxxx $!
bxxxxxxxx $"
bxxxxxxxx $#
bxxxxxxxx $$
bxxxxxxxx $%
bxxxxxxxx $&
bxxxxxxxx $'
bxxxxxxxx $1
bxxxxxxxx $2
bxxxxxxxx $3
bzz $K
bzz $L
bzz $M
bzz $N
bzzzzzzzzzzzzzz $O
bzzzzzzzzzzzzzz $P
bzzzzzzzzzzzzzz $Q
bzzzzzzzzzzzzzz $R
bzzzzzzzzzzzzzzzzzzzzz $S
bzzzzzzzzzzzzzzzzzzzzz $T
00
x`
xa
bxxxxxxxx i
bxxxxxxxx j
bxxxxxxxx k
bxxxxxxxx l
bxxxxxxxx m
bxxxxxxxx n
bxxxxxxxx o
bxxxxxxxx p
bxxxxxxxx q
bxxxxxxxx r
bxxxxxxxx s
bxxxxxxxx t
bxxxxxxxx u
bxxxxxxxx v
bxxxxxxxx w
bxxxxxxxx x
bxxxxxxxx $7
bxxxxxxxx $8
bxxxxxxxx $9
bxxxxxxxx $:
bxxxxxxxx $;
bxxxxxxxx $<
bxxxxxxxx $=
bxxxxxxxx $>
bxxxxxxxx $?
bxxxxxxxx $@
bxxxxxxxx $A
bxxxxxxxx $B
bxxxxxxxx $C
bxxxxxxxx $D
bxxxxxxxx $E
bxxxxxxxx $F
bxxxxxxxx y
bxxxxxxxx z
bxxxxxxxx {
bxxxxxxxx |
bxxxxxxxxxxxxxx $G
bxxxxxxxxxxxxxx $H
bxxxxxxxxxxxxxx $I
bxxxxxxxxxxxxxx $J
bxxxxxxxx }
bxxxxxxxx ~
bxxxxxxxx "!
bxxxxxxxx ""
bxxxxxxxx "#
bxxxxxxxx "$
bxxxxxxxx "%
bxxxxxxxx "&
bxxxxxxxx "'
bxxxxxxxx "T
bxxxxxxxx "U
bxxxxxxxx "V
bxxxxxxxx "W
bxxxxxxxx "X
bxxxxxxxx "Y
bxxxxxxxx "Z
bxxxxxxxx "[
bxxxxxxxx "\
bxxxxxxxx #+
bxxxxxxxx #,
bxxxxxxxx #-
bxxxxxxxx #.
bxxxxxxxx #/
bxxxxxxxx #0
bxxxxxxxx #1
bxxxxxxxx #2
bxxxxxxxx #3
bxxxxxxxx #`
bxxxxxxxx #a
bxxxxxxxx #b
bxxxxxxxx #c
bxxxxxxxx #d
bxxxxxxxx #e
bxxxxxxxx #f
bxxxxxxxx #g
bxxxxxxxx #h
bxxxxxxxx "(
bxxxxxxxx "]
bxxxxxxxx #4
bxxxxxxxx #i
$end
#500
0"
01
04
0%
b0000 7
0(
b00000000000000 W
b00000000000000 *
b000 Y
0[
0)
b000 _
b00000 T
b0000 b
0`
b00000 d
0a
b0000 G
b0000 I
b100000 C
0B
0A
b0000 J
b0000 H
b100000 D
b11111 N
b11111 K
b000000 Q
b000000xxxxxxxx V
0X
0Z
b0000 \
0e
b000 ^
b00000 U
0@
0=
b00000000000 R
0c
b0000 8
#1000
1!
10
0<
0;
0?
0>
b000000000000 E
0:
09
b11111 O
b11111 L
b00000000000000 $G
b00000000000000 $H
b00000000000000 $I
b00000000000000 $J
b00000000 $F
b00000000 x
b00000000 $E
b00000000 w
b00000000 $D
b00000000 v
b00000000 $C
b00000000 u
b00000000 $B
b00000000 t
b00000000 $A
b00000000 s
b00000000 $@
b00000000 r
b00000000 $?
b00000000 q
b00000000 $>
b00000000 p
b00000000 $=
b00000000 o
b00000000 $<
b00000000 n
b00000000 $;
b00000000 m
b00000000 $:
b00000000 l
b00000000 $9
b00000000 k
b00000000 $8
b00000000 j
b00000000 $7
b00000000 i
#2000
0!
00
b00000000000000000000000000000000 /
#3000
1!
10
b11111 P
b11111 M
bxxxxxxxxxxxxxx $G
bxxxxxxxxxxxxxx $H
bxxxxxxxxxxxxxx $I
bxxxxxxxxxxxxxx $J
#4000
1"
11
14
1%
0!
00
1#
12
b00000000000000000000000000000001 /
b0001 8
#5000
1!
10
b0001 7
04
0%
b000000xxxxxxxx W
b000000xxxxxxxx *
b1000 8
#6000
0!
00
0#
02
1&
15
b11010000 '
b11010000 6
b00000000000000000000000000000010 /
#7000
1!
10
b1000 7
1(
b00000 N
b00000 K
#8000
0!
00
b00000000000000000000000000000001 -
b00000000000000000000000000000011 /
#9000
1!
10
b000000000001 E
b00000 O
b00000 L
b00001 K
#10000
0!
00
b10101101 '
b10101101 6
b00000000000000000000000000000010 -
b00000000000000000000000000000100 /
#11000
1!
10
b000000000010 E
b00000 P
b00001 L
b00000 M
b00010 K
#12000
0!
00
b10001011 '
b10001011 6
b00000000000000000000000000000011 -
b00000000000000000000000000000101 /
b00000011010000 V
#13000
1!
10
b000000000011 E
b00010 L
b00001 M
b00000011010000 W
b00000011010000 *
b00011 K
#14000
0!
00
b01010110 '
b01010110 6
b00000000000000000000000000000100 -
b00000000000000000000000000000110 /
#15000
1!
10
b000000000100 E
b00011 L
b00010 M
b00100 K
#16000
0!
00
b00101110 '
b00101110 6
b00000000000000000000000000000101 -
b00000000000000000000000000000111 /
#17000
1!
10
b000000000101 E
b00100 L
b00011 M
b00101 K
#18000
0!
00
b11110001 '
b11110001 6
b00000000000000000000000000000110 -
b00000000000000000000000000001000 /
#19000
1!
10
b000000000110 E
b00101 L
b00100 M
b00110 K
#20000
0!
00
b11110110 '
b11110110 6
b00000000000000000000000000000111 -
b00000000000000000000000000001001 /
#21000
1!
10
b000000000111 E
b00110 L
b00101 M
b00111 K
#22000
0!
00
b11001101 '
b11001101 6
b00000000000000000000000000001000 -
b00000000000000000000000000001010 /
#23000
1!
10
b000000001000 E
b00111 L
b00110 M
b00001 N
b00000 K
#24000
0!
00
b01000110 '
b01000110 6
b00000000000000000000000000001001 -
b00000000000000000000000000001011 /
#25000
1!
10
b000000001001 E
b00001 O
b00000 L
b00111 M
b00001 K
#26000
0!
00
b11001110 '
b11001110 6
b00000000000000000000000000001010 -
b00000000000000000000000000001100 /
#27000
1!
10
b000000001010 E
b00001 P
b00001 L
b00000 M
b00010 K
#28000
0!
00
b00001011 '
b00001011 6
b00000000000000000000000000001011 -
b00000000000000000000000000001101 /
#29000
1!
10
b000000001011 E
b00010 L
b00001 M
b00011 K
#30000
0!
00
b10101111 '
b10101111 6
b00000000000000000000000000001100 -
b00000000000000000000000000001110 /
#31000
1!
10
b000000001100 E
b00011 L
b00010 M
b00100 K
#32000
0!
00
b10001000 '
b10001000 6
b00000000000000000000000000001101 -
b00000000000000000000000000001111 /
#33000
1!
10
b000000001101 E
b00100 L
b00011 M
b00101 K
#34000
0!
00
b00111111 '
b00111111 6
b00000000000000000000000000001110 -
b00000000000000000000000000010000 /
#35000
1!
10
b000000001110 E
b00101 L
b00100 M
b00110 K
#36000
0!
00
b00001100 '
b00001100 6
b00000000000000000000000000001111 -
b00000000000000000000000000010001 /
b00000010001000 V
#37000
1!
10
b000000001111 E
b00110 L
b00101 M
b00000010001000 W
b00000010001000 *
b00111 K
#38000
0!
00
b11110100 '
b11110100 6
b00000000000000000000000000010000 -
b00000000000000000000000000010010 /
#39000
1!
10
b000000010000 E
b00111 L
b00110 M
b00010 N
b00000 K
#40000
0!
00
b11100100 '
b11100100 6
b00000000000000000000000000010001 -
b00000000000000000000000000010011 /
#41000
1!
10
b000000010001 E
b00010 O
b00000 L
b00111 M
b00001 K
#42000
0!
00
b00101100 '
b00101100 6
b00000000000000000000000000010010 -
b00000000000000000000000000010100 /
#43000
1!
10
b000000010010 E
b00010 P
b00001 L
b00000 M
b00010 K
#44000
0!
00
b11000100 '
b11000100 6
b00000000000000000000000000010011 -
b00000000000000000000000000010101 /
b00000011100100 V
#45000
1!
10
b000000010011 E
b00010 L
b00001 M
b00000011100100 W
b00000011100100 *
b00011 K
#46000
0!
00
b11001000 '
b11001000 6
b00000000000000000000000000010100 -
b00000000000000000000000000010110 /
#47000
1!
10
b000000010100 E
b00011 L
b00010 M
b00100 K
#48000
0!
00
b10111000 '
b10111000 6
b00000000000000000000000000010101 -
b00000000000000000000000000010111 /
#49000
1!
10
b000000010101 E
b00100 L
b00011 M
b00101 K
#50000
0!
00
b11100010 '
b11100010 6
b00000000000000000000000000010110 -
b00000000000000000000000000011000 /
#51000
1!
10
b000000010110 E
b00101 L
b00100 M
b00110 K
#52000
0!
00
b10101100 '
b10101100 6
b00000000000000000000000000010111 -
b00000000000000000000000000011001 /
#53000
1!
10
b000000010111 E
b00110 L
b00101 M
b00111 K
#54000
0!
00
b00111001 '
b00111001 6
b00000000000000000000000000011000 -
b00000000000000000000000000011010 /
#55000
1!
10
b000000011000 E
b00111 L
b00110 M
b00011 N
b00000 K
#56000
0!
00
b10010001 '
b10010001 6
b00000000000000000000000000011001 -
b00000000000000000000000000011011 /
#57000
1!
10
b000000011001 E
b00011 O
b00000 L
b00111 M
b00001 K
#58000
0!
00
b10101010 '
b10101010 6
b00000000000000000000000000011010 -
b00000000000000000000000000011100 /
#59000
1!
10
b000000011010 E
b00011 P
b00001 L
b00000 M
b00010 K
#60000
0!
00
b00000000 '
b00000000 6
b00000000000000000000000000011011 -
b00000000000000000000000000011101 /
#61000
1!
10
b000000011011 E
b00010 L
b00001 M
b00011 K
#62000
0!
00
b00001111 '
b00001111 6
b00000000000000000000000000011100 -
b00000000000000000000000000011110 /
#63000
1!
10
b000000011100 E
b00011 L
b00010 M
b00100 K
#64000
0!
00
b00011011 '
b00011011 6
b00000000000000000000000000011101 -
b00000000000000000000000000011111 /
#65000
1!
10
b000000011101 E
b00100 L
b00011 M
b00101 K
#66000
0!
00
b10100001 '
b10100001 6
b00000000000000000000000000011110 -
b00000000000000000000000000100000 /
#67000
1!
10
b000000011110 E
b00101 L
b00100 M
b00110 K
#68000
0!
00
b11101110 '
b11101110 6
b00000000000000000000000000011111 -
b00000000000000000000000000100001 /
b00000000011011 V
#69000
1!
10
b000000011111 E
b00110 L
b00101 M
b00000000011011 W
b00000000011011 *
b00111 K
#70000
0!
00
b00011111 '
b00011111 6
b00000000000000000000000000100000 -
b00000000000000000000000000100010 /
#71000
1!
10
b000000100000 E
b00111 L
b00110 M
b00100 N
b00000 K
#72000
0!
00
b01000010 '
b01000010 6
b00000000000000000000000000100001 -
b00000000000000000000000000100011 /
#73000
1!
10
b000000100001 E
b00100 O
b00000 L
b00111 M
b00001 K
#74000
0!
00
b11010011 '
b11010011 6
b00000000000000000000000000100010 -
b00000000000000000000000000100100 /
#75000
1!
10
b000000100010 E
b00100 P
b00001 L
b00000 M
b00010 K
#76000
0!
00
b10001101 '
b10001101 6
b00000000000000000000000000100011 -
b00000000000000000000000000100101 /
b00000001000010 V
#77000
1!
10
b000000100011 E
b00010 L
b00001 M
b00000001000010 W
b00000001000010 *
b00011 K
#78000
0!
00
b10001110 '
b10001110 6
b00000000000000000000000000100100 -
b00000000000000000000000000100110 /
#79000
1!
10
b000000100100 E
b00011 L
b00010 M
b00100 K
#80000
0!
00
b01010111 '
b01010111 6
b00000000000000000000000000100101 -
b00000000000000000000000000100111 /
#81000
1!
10
b000000100101 E
b00100 L
b00011 M
b00101 K
#82000
0!
00
b10011110 '
b10011110 6
b00000000000000000000000000100110 -
b00000000000000000000000000101000 /
#83000
1!
10
b000000100110 E
b00101 L
b00100 M
b00110 K
#84000
0!
00
b01000001 '
b01000001 6
b00000000000000000000000000100111 -
b00000000000000000000000000101001 /
#85000
1!
10
b000000100111 E
b00110 L
b00101 M
b00111 K
#86000
0!
00
b11100101 '
b11100101 6
b00000000000000000000000000101000 -
b00000000000000000000000000101010 /
#87000
1!
10
b000000101000 E
b00111 L
b00110 M
b00101 N
b00000 K
#88000
0!
00
b11000111 '
b11000111 6
b00000000000000000000000000101001 -
b00000000000000000000000000101011 /
#89000
1!
10
b000000101001 E
b00101 O
b00000 L
b00111 M
b00001 K
#90000
0!
00
b10001000 '
b10001000 6
b00000000000000000000000000101010 -
b00000000000000000000000000101100 /
#91000
1!
10
b000000101010 E
b00101 P
b00001 L
b00000 M
b00010 K
#92000
0!
00
b00011011 '
b00011011 6
b00000000000000000000000000101011 -
b00000000000000000000000000101101 /
#93000
1!
10
b000000101011 E
b00010 L
b00001 M
b00011 K
#94000
0!
00
b01101100 '
b01101100 6
b00000000000000000000000000101100 -
b00000000000000000000000000101110 /
#95000
1!
10
b000000101100 E
b00011 L
b00010 M
b00100 K
#96000
0!
00
b10010111 '
b10010111 6
b00000000000000000000000000101101 -
b00000000000000000000000000101111 /
#97000
1!
10
b000000101101 E
b00100 L
b00011 M
b00101 K
#98000
0!
00
b10101011 '
b10101011 6
b00000000000000000000000000101110 -
b00000000000000000000000000110000 /
#99000
1!
10
b000000101110 E
b00101 L
b00100 M
b00110 K
#100000
0!
00
b11101001 '
b11101001 6
b00000000000000000000000000101111 -
b00000000000000000000000000110001 /
b00000010010111 V
#101000
1!
10
b000000101111 E
b00110 L
b00101 M
b00000010010111 W
b00000010010111 *
b00111 K
#102000
0!
00
b11010100 '
b11010100 6
b00000000000000000000000000110000 -
b00000000000000000000000000110010 /
