HW1/00_TESTBED/alu.vcd
$date
	Mon Apr 29 16:51:52 2024
$end
$version
	Icarus Verilog
$end
$timescale
	1ps
$end
$scope module testbed $end
$var wire 1 ! o_valid $end
$var wire 16 " o_data [15:0] $end
$var wire 1 # o_busy $end
$var reg 1 $ i_clk $end
$var reg 16 % i_data_a [15:0] $end
$var reg 16 & i_data_b [15:0] $end
$var reg 4 ' i_inst [3:0] $end
$var reg 1 ( i_rst_n $end
$var reg 16 ) test_inA [15:0] $end
$var reg 16 * test_inB [15:0] $end
$var reg 4 + test_inst [3:0] $end
$var reg 16 , test_outD [15:0] $end
$var integer 32 - correct [31:0] $end
$var integer 32 . error [31:0] $end
$var integer 32 / i [31:0] $end
$var integer 32 0 j [31:0] $end
$var integer 32 1 over [31:0] $end
$scope module u_alu $end
$var wire 1 $ i_clk $end
$var wire 16 2 i_data_a [15:0] $end
$var wire 16 3 i_data_b [15:0] $end
$var wire 4 4 i_inst [3:0] $end
$var wire 1 ( i_rst_n $end
$var wire 1 # o_busy $end
$var wire 16 5 o_data [15:0] $end
$var wire 1 ! o_valid $end
$var reg 16 6 ans [15:0] $end
$var reg 2 7 curr_state [1:0] $end
$var reg 2 8 next_state [1:0] $end
$scope function clz $end
$var reg 16 9 i_data_a [15:0] $end
$upscope $end
$scope function count_leading_zeros22 $end
$var reg 22 : i_data_a [21:0] $end
$upscope $end
$scope function cpop $end
$var reg 16 ; i_data_a [15:0] $end
$var integer 32 < cnt [31:0] $end
$var integer 32 = i [31:0] $end
$upscope $end
$scope function fp_add $end
$var reg 16 > i_data_a [15:0] $end
$var reg 16 ? i_data_b [15:0] $end
$upscope $end
$scope function fp_add_amb $end
$var reg 5 @ exp_a [4:0] $end
$var reg 5 A exp_b [4:0] $end
$var reg 5 B exp_greater [4:0] $end
$var reg 1 C flag $end
$var reg 16 D i_data_a [15:0] $end
$var reg 16 E i_data_b [15:0] $end
$var reg 5 F leading_zeros [4:0] $end
$var reg 22 G mantissa_a [21:0] $end
$var reg 22 H mantissa_b [21:0] $end
$var reg 22 I mantissa_greater [21:0] $end
$var reg 1 J s $end
$upscope $end
$scope function fp_add_apb $end
$var reg 5 K exp_a [4:0] $end
$var reg 5 L exp_b [4:0] $end
$var reg 5 M exp_greater [4:0] $end
$var reg 1 N flag $end
$var reg 16 O i_data_a [15:0] $end
$var reg 16 P i_data_b [15:0] $end
$var reg 5 Q leading_zeros [4:0] $end
$var reg 22 R mantissa_a [21:0] $end
$var reg 22 S mantissa_b [21:0] $end
$var reg 22 T mantissa_greater [21:0] $end
$var reg 1 U s $end
$upscope $end
$scope function fx_add $end
$var reg 16 V i_data_a [15:0] $end
$var reg 16 W i_data_b [15:0] $end
$var reg 17 X tmp [16:0] $end
$upscope $end
$scope function fx_mac $end
$var reg 32 Y direct_mult [31:0] $end
$var reg 16 Z i_data_a [15:0] $end
$var reg 16 [ i_data_b [15:0] $end
$var reg 16 \ old_val [15:0] $end
$var reg 1 ] sticky $end
$upscope $end
$scope function fx_mul $end
$var reg 32 ^ direct_mult [31:0] $end
$var reg 16 _ i_data_a [15:0] $end
$var reg 16 ` i_data_b [15:0] $end
$var reg 6 a sticky [5:0] $end
$upscope $end
$scope function gelu $end
$var reg 16 b first [15:0] $end
$var reg 16 c i_data_a [15:0] $end
$var reg 16 d second [15:0] $end
$var reg 32 e third [31:0] $end
$upscope $end
$scope function gelu_first $end
$var reg 80 f direct_mult [79:0] $end
$var reg 48 g minor [47:0] $end
$var reg 16 h x [15:0] $end
$var reg 32 i x_square [31:0] $end
$upscope $end
$scope function lfsr $end
$var reg 16 j i_data_a [15:0] $end
$var reg 16 k i_data_b [15:0] $end
$var reg 1 l xor1 $end
$var reg 1 m xor2 $end
$var reg 1 n xor3 $end
$scope begin $ivl_for_loop0 $end
$var integer 32 o i [31:0] $end
$upscope $end
$upscope $end
$scope function lrcw $end
$var reg 6 p cpopa [5:0] $end
$var reg 16 q i_data_a [15:0] $end
$var reg 16 r i_data_b [15:0] $end
$upscope $end
$scope function round_tanh_x $end
$var reg 16 s x [15:0] $end
$upscope $end
$upscope $end
$scope task reset $end
$upscope $end
$upscope $end
$enddefinitions $end
#0
$dumpvars
bx s
bx r
bx q
bx p
bx o
xn
xm
xl
bx k
bx j
bx i
bx h
bx g
bx f
bx e
bx d
bx c
bx b
bx a
bx `
bx _
bx ^
x]
bx \
bx [
bx Z
bx Y
b0 X
b0 W
b0 V
xU
bx T
bx S
bx R
bx Q
bx P
bx O
xN
bx M
bx L
bx K
xJ
bx I
bx H
bx G
bx F
bx E
bx D
xC
bx B
bx A
bx @
bx ?
bx >
bx =
bx <
bx ;
bx :
bx 9
bx 8
bx 7
b0 6
b0 5
b0 4
b0 3
b0 2
b0 1
b0 0
b0 /
b0 .
b0 -
bx ,
bx +
bx *
bx )
1(
b0 '
b0 &
b0 %
0$
x#
b0 "
x!
$end
#2500
0(
#5000
1#
b1 8
0!
b0 7
1$
#10000
0$
#15000
1$
#20000
0$
#22500
1(
#25000
0#
b10 8
b1 7
1$
#30000
0$
#35000
1#
b11 8
b10 7
1$
#40000
b111111111111111 "
b111111111111111 5
b111111111111111 6
b1111100000000000 X
b111110000000000 V
b111110000000000 W
b1 /
b111110000000000 %
b111110000000000 2
b111110000000000 &
b111110000000000 3
0$
#45000
0#
b10 8
1!
b11 7
1$
#50000
b1 0
b1 -
b111111111111111 ,
b0 +
b111110000000000 )
b111110000000000 *
0$
#55000
1#
b11 8
0!
b10 7
1$
#60000
b1000000000000000 "
b1000000000000000 5
b1000000000000000 6
b10000100000000000 X
b1000010000000000 V
b1000010000000000 W
b10 /
b1000010000000000 %
b1000010000000000 2
b1000010000000000 &
b1000010000000000 3
0$
#65000
0#
b10 8
1!
b11 7
1$
#70000
b10 0
b10 -
b1000000000000000 ,
b1000010000000000 )
b1000010000000000 *
0$
#75000
1#
b11 8
0!
b10 7
1$
#80000
b1111110000111011 "
b1111110000111011 5
b1111110000111011 6
b11111110000111011 X
b1111111000101111 V
b1111111000001100 W
b11 /
b1111111000101111 %
b1111111000101111 2
b1111111000001100 &
b1111111000001100 3
0$
#85000
0#
b10 8
1!
b11 7
1$
#90000
b11 0
b11 -
b1111110000111011 ,
b1111111000101111 )
b1111111000001100 *
0$
#95000
1#
b11 8
0!
b10 7
1$
#100000
b1111111100111111 "
b1111111100111111 5
b1111111100111111 6
b11111111100111111 X
b1111111111100100 V
b1111111101011011 W
b100 /
b1111111111100100 %
b1111111111100100 2
b1111111101011011 &
b1111111101011011 3
0$
#105000
0#
b10 8
1!
b11 7
1$
#110000
b100 0
b100 -
b1111111100111111 ,
b1111111111100100 )
b1111111101011011 *
0$
#115000
1#
b11 8
0!
b10 7
1$
#120000
b10100111110 "
b10100111110 5
b10100111110 6
b10100111110 X
b1101101001 V
b111010101 W
b101 /
b1101101001 %
b1101101001 2
b111010101 &
b111010101 3
0$
#125000
0#
b10 8
1!
b11 7
1$
#130000
b101 0
b101 -
b10100111110 ,
b1101101001 )
b111010101 *
0$
#135000
1#
b11 8
0!
b10 7
1$
#140000
b1111111100001101 "
b1111111100001101 5
b1111111100001101 6
b11111111100001101 X
b10101011 V
b1111111001100010 W
b110 /
b10101011 %
b10101011 2
b1111111001100010 &
b1111111001100010 3
0$
#145000
0#
b10 8
1!
b11 7
1$
#150000
b110 0
b110 -
b1111111100001101 ,
b10101011 )
b1111111001100010 *
0$
#155000
1#
b11 8
0!
b10 7
1$
#160000
b1111011100111010 "
b1111011100111010 5
b1111011100111010 6
b11111011100111010 X
b1111110011001101 V
b1111101001101101 W
b111 /
b1111110011001101 %
b1111110011001101 2
b1111101001101101 &
b1111101001101101 3
0$
#165000
0#
b10 8
1!
b11 7
1$
#170000
b111 0
b111 -
b1111011100111010 ,
b1111110011001101 )
b1111101001101101 *
0$
#175000
1#
b11 8
0!
b10 7
1$
#180000
b1111111101101110 "
b1111111101101110 5
b1111111101101110 6
b11111111101101110 X
b111111100 V
b1111110101110010 W
b1000 /
b111111100 %
b111111100 2
b1111110101110010 &
b1111110101110010 3
0$
#185000
0#
b10 8
1!
b11 7
1$
#190000
b1000 0
b1000 -
b1111111101101110 ,
b111111100 )
b1111110101110010 *
0$
#195000
1#
b11 8
0!
b10 7
1$
#200000
b1111011011000000 "
b1111011011000000 5
b1111011011000000 6
b11111011011000000 X
b1111100110011101 V
b1111110100100011 W
b1001 /
b1111100110011101 %
b1111100110011101 2
b1111110100100011 &
b1111110100100011 3
0$
#205000
0#
b10 8
1!
b11 7
1$
#210000
b1001 0
b1001 -
b1111011011000000 ,
b1111100110011101 )
b1111110100100011 *
0$
#215000
1#
b11 8
0!
b10 7
1$
#220000
b1111110001010010 "
b1111110001010010 5
b1111110001010010 6
b11111110001010010 X
b1111100010111010 V
b1110011000 W
b1010 /
b1111100010111010 %
b1111100010111010 2
b1110011000 &
b1110011000 3
0$
#225000
0#
b10 8
1!
b11 7
1$
#230000
b1010 0
b1010 -
b1111110001010010 ,
b1111100010111010 )
b1110011000 *
0$
#235000
1#
b11 8
0!
b10 7
1$
#240000
b1111100001110100 "
b1111100001110100 5
b1111100001110100 6
b11111100001110100 X
b1111100100000011 V
b1111111101110001 W
b1011 /
b1111100100000011 %
b1111100100000011 2
b1111111101110001 &
b1111111101110001 3
0$
#245000
0#
b10 8
1!
b11 7
1$
#250000
b1011 0
b1011 -
b1111100001110100 ,
b1111100100000011 )
b1111111101110001 *
0$
#255000
1#
b11 8
0!
b10 7
1$
#260000
b1111101001001111 "
b1111101001001111 5
b1111101001001111 6
b11111101001001111 X
b1111100111110111 V
b1011000 W
b1100 /
b1111100111110111 %
b1111100111110111 2
b1011000 &
b1011000 3
0$
#265000
0#
b10 8
1!
b11 7
1$
#270000
b1100 0
b1100 -
b1111101001001111 ,
b1111100111110111 )
b1011000 *
0$
#275000
1#
b11 8
0!
b10 7
1$
#280000
b1111110010001000 "
b1111110010001000 5
b1111110010001000 6
b11111110010001000 X
b1111101111100100 V
b10100100 W
b1101 /
b1111101111100100 %
b1111101111100100 2
b10100100 &
b10100100 3
0$
#285000
0#
b10 8
1!
b11 7
1$
#290000
b1101 0
b1101 -
b1111110010001000 ,
b1111101111100100 )
b10100100 *
0$
#295000
1#
b11 8
0!
b10 7
1$
#300000
b1111011111001001 "
b1111011111001001 5
b1111011111001001 6
b11111011111001001 X
b1111101110011111 V
b1111110000101010 W
b1110 /
b1111101110011111 %
b1111101110011111 2
b1111110000101010 &
b1111110000101010 3
0$
#305000
0#
b10 8
1!
b11 7
1$
#310000
b1110 0
b1110 -
b1111011111001001 ,
b1111101110011111 )
b1111110000101010 *
0$
#315000
1#
b11 8
0!
b10 7
1$
#320000
b1111011001011000 "
b1111011001011000 5
b1111011001011000 6
b11111011001011000 X
b1111100000100100 V
b1111111000110100 W
b1111 /
b1111100000100100 %
b1111100000100100 2
b1111111000110100 &
b1111111000110100 3
0$
#325000
0#
b10 8
1!
b11 7
1$
#330000
b1111 0
b1111 -
b1111011001011000 ,
b1111100000100100 )
b1111111000110100 *
0$
#335000
1#
b11 8
0!
b10 7
1$
#340000
b1111110100101001 "
b1111110100101001 5
b1111110100101001 6
b11111110100101001 X
b1111111001111011 V
b1111111010101110 W
b10000 /
b1111111001111011 %
b1111111001111011 2
b1111111010101110 &
b1111111010101110 3
0$
#345000
0#
b10 8
1!
b11 7
1$
#350000
b10000 0
b10000 -
b1111110100101001 ,
b1111111001111011 )
b1111111010101110 *
0$
#355000
1#
b11 8
0!
b10 7
1$
#360000
b1111001100000110 "
b1111001100000110 5
b1111001100000110 6
b11111001100000110 X
b1111100100100101 V
b1111100111100001 W
b10001 /
b1111100100100101 %
b1111100100100101 2
b1111100111100001 &
b1111100111100001 3
0$
#365000
0#
b10 8
1!
b11 7
1$
#370000
b10001 0
b10001 -
b1111001100000110 ,
b1111100100100101 )
b1111100111100001 *
0$
#375000
1#
b11 8
0!
b10 7
1$
#380000
b1111100010000001 "
b1111100010000001 5
b1111100010000001 6
b11111100010000001 X
b1111100111000010 V
b1111111010111111 W
b10010 /
b1111100111000010 %
b1111100111000010 2
b1111111010111111 &
b1111111010111111 3
0$
#385000
0#
b10 8
1!
b11 7
1$
#390000
b10010 0
b10010 -
b1111100010000001 ,
b1111100111000010 )
b1111111010111111 *
0$
#395000
1#
b11 8
0!
b10 7
1$
#400000
b1111111111101001 "
b1111111111101001 5
b1111111111101001 6
b11111111111101001 X
b1111111110010011 V
b1010110 W
b10011 /
b1111111110010011 %
b1111111110010011 2
b1010110 &
b1010110 3
0$
#405000
0#
b10 8
1!
b11 7
1$
#410000
b10011 0
b10011 -
b1111111111101001 ,
b1111111110010011 )
b1010110 *
0$
#415000
1#
b11 8
0!
b10 7
1$
#420000
b1111111101101110 "
b1111111101101110 5
b1111111101101110 6
b11111111101101110 X
b1001010000 V
b1111110100011110 W
b10100 /
b1001010000 %
b1001010000 2
b1111110100011110 &
b1111110100011110 3
0$
#425000
0#
b10 8
1!
b11 7
1$
#430000
b10100 0
b10100 -
b1111111101101110 ,
b1001010000 )
b1111110100011110 *
0$
#435000
1#
b11 8
0!
b10 7
1$
#440000
b10110111010 "
b10110111010 5
b10110111010 6
b10110111010 X
b1110110001 V
b1000001001 W
b10101 /
b1110110001 %
b1110110001 2
b1000001001 &
b1000001001 3
0$
#445000
0#
b10 8
1!
b11 7
1$
#450000
b10101 0
b10101 -
b10110111010 ,
b1110110001 )
b1000001001 *
0$
#455000
1#
b11 8
0!
b10 7
1$
#460000
b1111111110100001 "
b1111111110100001 5
b1111111110100001 6
b11111111110100001 X
b1111111011011010 V
b11000111 W
b10110 /
b1111111011011010 %
b1111111011011010 2
b11000111 &
b11000111 3
0$
#465000
0#
b10 8
1!
b11 7
1$
#470000
b10110 0
b10110 -
b1111111110100001 ,
b1111111011011010 )
b11000111 *
0$
#475000
1#
b11 8
0!
b10 7
1$
#480000
b1001000 "
b1001000 5
b1001000 6
b1001000 X
b1111110110 V
b1111110001010010 W
b10111 /
b1111110110 %
b1111110110 2
b1111110001010010 &
b1111110001010010 3
0$
#485000
0#
b10 8
1!
b11 7
1$
#490000
b10111 0
b10111 -
b1001000 ,
b1111110110 )
b1111110001010010 *
0$
#495000
1#
b11 8
0!
b10 7
1$
#500000
b1111110000010111 "
b1111110000010111 5
b1111110000010111 6
b11111110000010111 X
b1111111010100100 V
b1111110101110011 W
b11000 /
b1111111010100100 %
b1111111010100100 2
b1111110101110011 &
b1111110101110011 3
0$
#505000
0#
b10 8
1!
b11 7
1$
#510000
b11000 0
b11000 -
b1111110000010111 ,
b1111111010100100 )
b1111110101110011 *
0$
#515000
1#
b11 8
0!
b10 7
1$
#520000
b1111101011010010 "
b1111101011010010 5
b1111101011010010 6
b11111101011010010 X
b1111111000101111 V
b1111110010100011 W
b11001 /
b1111111000101111 %
b1111111000101111 2
b1111110010100011 &
b1111110010100011 3
0$
#525000
0#
b10 8
1!
b11 7
1$
#530000
b11001 0
b11001 -
b1111101011010010 ,
b1111111000101111 )
b1111110010100011 *
0$
#535000
1#
b11 8
0!
b10 7
1$
#540000
b1111110101000111 "
b1111110101000111 5
b1111110101000111 6
b11111110101000111 X
b1111101111111000 V
b101001111 W
b11010 /
b1111101111111000 %
b1111101111111000 2
b101001111 &
b101001111 3
0$
#545000
0#
b10 8
1!
b11 7
1$
#550000
b11010 0
b11010 -
b1111110101000111 ,
b1111101111111000 )
b101001111 *
0$
#555000
1#
b11 8
0!
b10 7
1$
#560000
b1111110111111001 "
b1111110111111001 5
b1111110111111001 6
b11111110111111001 X
b1111110100101001 V
b11010000 W
b11011 /
b1111110100101001 %
b1111110100101001 2
b11010000 &
b11010000 3
0$
#565000
0#
b10 8
1!
b11 7
1$
#570000
b11011 0
b11011 -
b1111110111111001 ,
b1111110100101001 )
b11010000 *
0$
#575000
1#
b11 8
0!
b10 7
1$
#580000
b1111101100010001 "
b1111101100010001 5
b1111101100010001 6
b11111101100010001 X
b1111110111100111 V
b1111110100101010 W
b11100 /
b1111110111100111 %
b1111110111100111 2
b1111110100101010 &
b1111110100101010 3
0$
#585000
0#
b10 8
1!
b11 7
1$
#590000
b11100 0
b11100 -
b1111101100010001 ,
b1111110111100111 )
b1111110100101010 *
0$
#595000
1#
b11 8
0!
b10 7
1$
#600000
b1111100100101101 "
b1111100100101101 5
b1111100100101101 6
b11111100100101101 X
b1111100011011010 V
b1010011 W
b11101 /
b1111100011011010 %
b1111100011011010 2
b1010011 &
b1010011 3
0$
#605000
0#
b10 8
1!
b11 7
1$
#610000
b11101 0
b11101 -
b1111100100101101 ,
b1111100011011010 )
b1010011 *
0$
#615000
1#
b11 8
0!
b10 7
1$
#620000
b10111111111 "
b10111111111 5
b10111111111 6
b10111111111 X
b1010100111 V
b1101011000 W
b11110 /
b1010100111 %
b1010100111 2
b1101011000 &
b1101011000 3
0$
#625000
0#
b10 8
1!
b11 7
1$
#630000
b11110 0
b11110 -
b10111111111 ,
b1010100111 )
b1101011000 *
0$
#635000
1#
b11 8
0!
b10 7
1$
#640000
b1111101000110000 "
b1111101000110000 5
b1111101000110000 6
b11111101000110000 X
b1111100011000111 V
b101101001 W
b11111 /
b1111100011000111 %
b1111100011000111 2
b101101001 &
b101101001 3
0$
#645000
0#
b10 8
1!
b11 7
1$
#650000
b11111 0
b11111 -
b1111101000110000 ,
b1111100011000111 )
b101101001 *
0$
#655000
1#
b11 8
0!
b10 7
1$
#660000
b1111110110110100 "
b1111110110110100 5
b1111110110110100 6
b11111110110110100 X
b1111110100111100 V
b1111000 W
b100000 /
b1111110100111100 %
b1111110100111100 2
b1111000 &
b1111000 3
0$
#665000
0#
b10 8
1!
b11 7
1$
#670000
b100000 0
b100000 -
b1111110110110100 ,
b1111110100111100 )
b1111000 *
0$
#675000
1#
b11 8
0!
b10 7
1$
#680000
b1111101100111011 "
b1111101100111011 5
b1111101100111011 6
b11111101100111011 X
b111101011 V
b1111100101010000 W
b100001 /
b111101011 %
b111101011 2
b1111100101010000 &
b1111100101010000 3
0$
#685000
0#
b10 8
1!
b11 7
1$
#690000
b100001 0
b100001 -
b1111101100111011 ,
b111101011 )
b1111100101010000 *
0$
#695000
1#
b11 8
0!
b10 7
1$
#700000
b1111100101101010 "
b1111100101101010 5
b1111100101101010 6
b11111100101101010 X
b1111110010111100 V
b1111110010101110 W
b100010 /
b1111110010111100 %
b1111110010111100 2
b1111110010101110 &
b1111110010101110 3
0$
#705000
0#
b10 8
1!
b11 7
1$
#710000
b100010 0
b100010 -
b1111100101101010 ,
b1111110010111100 )
b1111110010101110 *
0$
#715000
1#
b11 8
0!
b10 7
1$
#720000
b1111111001110100 "
b1111111001110100 5
b1111111001110100 6
b11111111001110100 X
b1111111101011101 V
b1111111100010111 W
b100011 /
b1111111101011101 %
b1111111101011101 2
b1111111100010111 &
b1111111100010111 3
0$
#725000
0#
b10 8
1!
b11 7
1$
#730000
b100011 0
b100011 -
b1111111001110100 ,
b1111111101011101 )
b1111111100010111 *
0$
#735000
1#
b11 8
0!
b10 7
1$
#740000
b1111111101010110 "
b1111111101010110 5
b1111111101010110 6
b11111111101010110 X
b111010011 V
b1111110110000011 W
b100100 /
b111010011 %
b111010011 2
b1111110110000011 &
b1111110110000011 3
0$
#745000
0#
b10 8
1!
b11 7
1$
#750000
b100100 0
b100100 -
b1111111101010110 ,
b111010011 )
b1111110110000011 *
0$
#755000
1#
b11 8
0!
b10 7
1$
#760000
b1111101100111110 "
b1111101100111110 5
b1111101100111110 6
b11111101100111110 X
b1010100011 V
b1111100010011011 W
b100101 /
b1010100011 %
b1010100011 2
b1111100010011011 &
b1111100010011011 3
0$
#765000
0#
b10 8
1!
b11 7
1$
#770000
b100101 0
b100101 -
b1111101100111110 ,
b1010100011 )
b1111100010011011 *
0$
#775000
1#
b11 8
0!
b10 7
1$
#780000
b1111110111101011 "
b1111110111101011 5
b1111110111101011 6
b11111110111101011 X
b1100101100 V
b1111101010111111 W
b100110 /
b1100101100 %
b1100101100 2
b1111101010111111 &
b1111101010111111 3
0$
#785000
0#
b10 8
1!
b11 7
1$
#790000
b100110 0
b100110 -
b1111110111101011 ,
b1100101100 )
b1111101010111111 *
0$
#795000
1#
b11 8
0!
b10 7
1$
#800000
b1111110001001101 "
b1111110001001101 5
b1111110001001101 6
b11111110001001101 X
b1111101001001010 V
b1000000011 W
b100111 /
b1111101001001010 %
b1111101001001010 2
b1000000011 &
b1000000011 3
0$
#805000
0#
b10 8
1!
b11 7
1$
#810000
b100111 0
b100111 -
b1111110001001101 ,
b1111101001001010 )
b1000000011 *
0$
#815000
1#
b11 8
0!
b10 7
1$
#820000
b1111001101001010 "
b1111001101001010 5
b1111001101001010 6
b11111001101001010 X
b1111101100011010 V
b1111100000110000 W
b101000 /
b1111101100011010 %
b1111101100011010 2
b1111100000110000 &
b1111100000110000 3
0$
#825000
0#
b10 8
1!
b11 7
1$
#830000
b101000 0
b101000 -
b1111001101001010 ,
b1111101100011010 )
b1111100000110000 *
0$
#835000
1#
b11 8
0!
b10 7
1$
#840000
b10100100011 "
b10100100011 5
b10100100011 6
b10100100011 X
b1011000110 V
b1001011101 W
b101001 /
b1011000110 %
b1011000110 2
b1001011101 &
b1001011101 3
0$
#845000
0#
b10 8
1!
b11 7
1$
#850000
b101001 0
b101001 -
b10100100011 ,
b1011000110 )
b1001011101 *
0$
#855000
1#
b11 8
0!
b10 7
1$
#860000
b1111100000001111 "
b1111100000001111 5
b1111100000001111 6
b11111100000001111 X
b1111111100011111 V
b1111100011110000 W
b101010 /
b1111111100011111 %
b1111111100011111 2
b1111100011110000 &
b1111100011110000 3
0$
#865000
0#
b10 8
1!
b11 7
1$
#870000
b1 1
b101010 0
b101010 -
b1111100000001111 ,
b1111111100011111 )
b1111100011110000 *
0$
#875000
1#
b11 8
0!
b10 7
1$
#880000
0$
#885000
0#
b10 8
1!
b11 7
1$
#890000
bx ,
bx +
bx )
bx *
0$
